<?xml version="1.0" encoding="UTF-8" standalone="no"?>
<svg
   width="133pt"
   height="133pt"
   viewBox="0 0 133 133"
   version="1.1"
   id="svg11"
   sodipodi:docname="checkbox-checked.svg"
   inkscape:version="1.1.1 (3bf5ae0d25, 2021-09-20)"
   xmlns:inkscape="http://www.inkscape.org/namespaces/inkscape"
   xmlns:sodipodi="http://sodipodi.sourceforge.net/DTD/sodipodi-0.dtd"
   xmlns="http://www.w3.org/2000/svg"
   xmlns:svg="http://www.w3.org/2000/svg">
  <defs
     id="defs15" />
  <sodipodi:namedview
     id="namedview13"
     pagecolor="#ffffff"
     bordercolor="#666666"
     borderopacity="1.0"
     inkscape:pageshadow="2"
     inkscape:pageopacity="0.0"
     inkscape:pagecheckerboard="0"
     inkscape:document-units="pt"
     showgrid="false"
     inkscape:zoom="4.4943609"
     inkscape:cx="70.532831"
     inkscape:cy="88.555416"
     inkscape:window-width="2560"
     inkscape:window-height="1398"
     inkscape:window-x="0"
     inkscape:window-y="1080"
     inkscape:window-maximized="1"
     inkscape:current-layer="svg11" />
  <g
     id="surface1">
    <path
       style=" stroke:none;fill-rule:nonzero;fill:#1d2021;fill-opacity:1;"
       d="M 16.667969 8.332031 L 116.667969 8.332031 C 121.257812 8.332031 125 12.078125 125 16.667969 L 125 116.667969 C 125 121.257812 121.257812 125 116.667969 125 L 16.667969 125 C 12.078125 125 8.332031 121.257812 8.332031 116.667969 L 8.332031 16.667969 C 8.332031 12.078125 12.078125 8.332031 16.667969 8.332031 Z M 16.667969 8.332031 "
       id="path2" />
    <path
       style=" stroke:none;fill-rule:nonzero;fill:#1d2021;fill-opacity:1;"
       d="M 16.667969 0 C 7.421875 0 0 7.421875 0 16.667969 L 0 116.667969 C 0 125.910156 7.421875 133.332031 16.667969 133.332031 L 116.667969 133.332031 C 125.910156 133.332031 133.332031 125.910156 133.332031 116.667969 L 133.332031 16.667969 C 133.332031 7.421875 125.910156 0 116.667969 0 Z M 16.667969 8.332031 L 116.667969 8.332031 C 121.289062 8.332031 125 12.042969 125 16.667969 L 125 116.667969 C 125 121.289062 121.289062 125 116.667969 125 L 16.667969 125 C 12.042969 125 8.332031 121.289062 8.332031 116.667969 L 8.332031 16.667969 C 8.332031 12.042969 12.042969 8.332031 16.667969 8.332031 Z M 16.667969 8.332031 "
       id="path4" />
    <path
       style=" stroke:none;fill-rule:nonzero;fill:#d5c4a1;fill-opacity:0.15;"
       d="M 16.667969 0 C 7.421875 0 0 7.421875 0 16.667969 L 0 116.667969 C 0 125.910156 7.421875 133.332031 16.667969 133.332031 L 116.667969 133.332031 C 125.910156 133.332031 133.332031 125.910156 133.332031 116.667969 L 133.332031 16.667969 C 133.332031 7.421875 125.910156 0 116.667969 0 Z M 16.667969 8.332031 L 116.667969 8.332031 C 121.289062 8.332031 125 12.042969 125 16.667969 L 125 116.667969 C 125 121.289062 121.289062 125 116.667969 125 L 16.667969 125 C 12.042969 125 8.332031 121.289062 8.332031 116.667969 L 8.332031 16.667969 C 8.332031 12.042969 12.042969 8.332031 16.667969 8.332031 Z M 16.667969 8.332031 "
       id="path6" />
    <path
       style=" stroke:none;fill-rule:nonzero;fill:#b8bb26;fill-opacity:1;"
       d="M 97.101562 32.648438 C 94.074219 32.746094 91.046875 34.015625 88.898438 36.199219 L 55.304688 68.164062 L 43.816406 55.273438 C 39.714844 49.804688 30.730469 49.21875 25.976562 54.101562 C 21.222656 58.984375 21.875 68.164062 27.277344 72.265625 L 47.136719 93.621094 C 54.949219 101.433594 58.464844 100.390625 66.339844 92.480469 C 66.339844 92.480469 93.425781 59.894531 109.308594 48.894531 C 112.824219 45.574219 114.289062 44.628906 112.433594 40.136719 C 110.613281 35.613281 101.886719 32.488281 97.101562 32.648438 Z M 97.101562 32.648438 "
       id="path8" />
  </g>
  <path
     style="fill:#a0a0a0;stroke:none;stroke-width:0.222501"
     d="m 72.31284,131.41229 c -1.760618,-0.56922 -2.836444,-1.16851 -4.815579,-2.68252 -2.828545,-2.16379 -4.481498,-3.85276 -18.412965,-18.81425 C 41.791454,102.08348 35.366611,95.224885 34.806867,94.674195 31.981414,91.894443 30.238475,86.809729 30.551225,82.259113 31.00373,75.674995 34.700045,70.67367 40.618588,68.637394 c 4.950833,-1.703337 11.145225,-0.636842 15.178133,2.613232 0.522617,0.421171 4.715208,4.987673 9.316873,10.147784 4.601664,5.160108 8.494026,9.382017 8.649695,9.382017 0.155668,0 10.216905,-9.461857 22.358306,-21.026349 12.141395,-11.564492 22.683725,-21.550571 23.427395,-22.191288 2.89629,-2.495341 6.55721,-3.841335 10.44789,-3.841335 6.05314,0 14.07026,3.13601 17.80833,6.965983 1.71266,1.754768 3.05377,4.902146 3.04833,7.153956 -0.005,2.198486 -2.41058,5.159323 -6.89536,8.488079 -12.16428,9.028736 -30.70317,27.79174 -51.883836,52.511057 -9.344232,10.90536 -14.591205,14.24336 -19.761504,12.57176 z"
     id="path147"
     transform="scale(0.75)" />
  <path
     style="fill:#a0a0a0;stroke:none;stroke-width:0.222501"
     d="M 71.719056,131.07205 C 67.818405,129.53395 65.34141,127.18014 47.256696,107.82631 41.151544,101.29272 35.541181,95.256625 34.789222,94.412767 32.237324,91.548992 30.960759,88.343615 30.765647,84.309811 30.570994,80.285517 31.30298,77.42093 33.30197,74.38404 c 1.753182,-2.663453 4.633553,-4.782042 7.860723,-5.781766 1.384583,-0.428922 2.161329,-0.516918 4.561272,-0.516747 3.284389,2.22e-4 4.998542,0.40648 7.787536,1.845599 1.928764,0.995243 2.560129,1.627469 11.489276,11.504935 3.871591,4.282772 7.439569,8.171414 7.928842,8.641425 l 0.889588,0.854566 1.638703,-1.518901 C 79.260713,85.888363 84.735055,80.718469 97.225975,68.85569 118.66698,48.492906 119.74159,47.495083 121.43108,46.380093 c 1.42158,-0.938171 3.74451,-1.882463 5.69555,-2.31529 0.34913,-0.07745 1.71372,-0.139842 3.03241,-0.138642 7.28124,0.0066 16.29132,4.157019 18.97841,8.742194 0.84113,1.435281 1.51107,3.611784 1.52719,4.961568 0.0287,2.403412 -2.12638,5.025568 -7.59647,9.24286 -5.02985,3.877881 -10.43818,8.642915 -15.90882,14.016562 -11.69036,11.483079 -20.7598,21.220635 -34.18497,36.703305 -4.577031,5.27849 -9.080899,9.81058 -11.340202,11.41127 -0.808477,0.57279 -2.160171,1.36463 -3.003764,1.75962 -1.310046,0.61341 -1.825934,0.72778 -3.536311,0.78396 -1.695841,0.0557 -2.212704,-0.0171 -3.375047,-0.47545 z"
     id="path223"
     transform="scale(0.75)" />
  <path
     style="fill:#689d6a;stroke:none;stroke-width:0.222501;fill-opacity:1"
     d="M 71.745958,131.0986 C 68.025064,129.67972 65.557962,127.34668 48.306036,108.93237 33.460933,93.087059 33.630547,93.277097 32.634745,91.373924 c -1.465523,-2.800901 -1.819341,-4.39521 -1.810587,-8.158533 0.0071,-3.067753 0.05792,-3.481216 0.628261,-5.115388 2.101439,-6.021114 6.997588,-9.730371 13.280491,-10.061121 3.129574,-0.164751 5.414673,0.292504 8.222339,1.645313 2.53501,1.221437 2.716315,1.396746 11.347718,10.972434 8.950465,9.929659 9.304771,10.288373 9.811442,9.93349 0.548253,-0.384012 8.090867,-7.483182 23.786051,-22.387623 19.70381,-18.711108 21.82077,-20.684078 23.21243,-21.633536 2.74205,-1.870771 5.4364,-2.661499 9.03545,-2.651695 6.947,0.01892 15.74971,3.878139 18.58332,8.147152 1.93051,2.908441 2.4193,5.780177 1.34474,7.900709 -0.78259,1.544368 -3.46872,4.202986 -7.00823,6.936437 -6.59826,5.095639 -12.41952,10.4092 -21.80681,19.904957 -9.29707,9.404494 -17.38741,18.2095 -27.468801,29.89528 -4.492841,5.20785 -9.283344,10.11023 -11.578423,11.84883 -0.979004,0.74163 -2.527458,1.70452 -3.441007,2.13976 -1.462388,0.69672 -1.901376,0.79912 -3.671268,0.85634 -1.666641,0.0539 -2.240285,-0.0227 -3.355903,-0.44813 z"
     id="path262"
     transform="scale(0.75)" />
</svg>
