<?xml version="1.0" encoding="UTF-8" standalone="no"?>
<svg
   width="133pt"
   height="133pt"
   viewBox="0 0 133 133"
   version="1.1"
   id="svg981"
   sodipodi:docname="menuitem-checkbox-mixed-selected.svg"
   inkscape:version="1.1.1 (3bf5ae0d25, 2021-09-20)"
   xmlns:inkscape="http://www.inkscape.org/namespaces/inkscape"
   xmlns:sodipodi="http://sodipodi.sourceforge.net/DTD/sodipodi-0.dtd"
   xmlns="http://www.w3.org/2000/svg"
   xmlns:svg="http://www.w3.org/2000/svg">
  <defs
     id="defs985" />
  <sodipodi:namedview
     id="namedview983"
     pagecolor="#ffffff"
     bordercolor="#666666"
     borderopacity="1.0"
     inkscape:pageshadow="2"
     inkscape:pageopacity="0.0"
     inkscape:pagecheckerboard="0"
     inkscape:document-units="pt"
     showgrid="false"
     inkscape:zoom="4.4943609"
     inkscape:cx="44.72271"
     inkscape:cy="88.555416"
     inkscape:window-width="2560"
     inkscape:window-height="1398"
     inkscape:window-x="0"
     inkscape:window-y="1080"
     inkscape:window-maximized="1"
     inkscape:current-layer="svg981" />
  <g
     id="surface1">
    <path
       style=" stroke:none;fill-rule:nonzero;fill:#d5c4a1;fill-opacity:0.5;"
       d="M 16.667969 0 C 7.421875 0 0 7.421875 0 16.667969 L 0 116.667969 C 0 125.910156 7.421875 133.332031 16.667969 133.332031 L 116.667969 133.332031 C 125.910156 133.332031 133.332031 125.910156 133.332031 116.667969 L 133.332031 16.667969 C 133.332031 7.421875 125.910156 0 116.667969 0 Z M 16.667969 8.332031 L 116.667969 8.332031 C 121.289062 8.332031 125 12.042969 125 16.667969 L 125 116.667969 C 125 121.289062 121.289062 125 116.667969 125 L 16.667969 125 C 12.042969 125 8.332031 121.289062 8.332031 116.667969 L 8.332031 16.667969 C 8.332031 12.042969 12.042969 8.332031 16.667969 8.332031 Z M 16.667969 8.332031 "
       id="path974" />
    <path
       style=" stroke:none;fill-rule:nonzero;fill:#d5c4a1;fill-opacity:0.15;"
       d="M 16.667969 0 C 7.421875 0 0 7.421875 0 16.667969 L 0 116.667969 C 0 125.910156 7.421875 133.332031 16.667969 133.332031 L 116.667969 133.332031 C 125.910156 133.332031 133.332031 125.910156 133.332031 116.667969 L 133.332031 16.667969 C 133.332031 7.421875 125.910156 0 116.667969 0 Z M 16.667969 8.332031 L 116.667969 8.332031 C 121.289062 8.332031 125 12.042969 125 16.667969 L 125 116.667969 C 125 121.289062 121.289062 125 116.667969 125 L 16.667969 125 C 12.042969 125 8.332031 121.289062 8.332031 116.667969 L 8.332031 16.667969 C 8.332031 12.042969 12.042969 8.332031 16.667969 8.332031 Z M 16.667969 8.332031 "
       id="path976" />
    <path
       style=" stroke:none;fill-rule:nonzero;fill:#b8bb26;fill-opacity:1;"
       d="M 33.332031 58.332031 L 100 58.332031 L 100 75 L 33.332031 75 Z M 33.332031 58.332031 "
       id="path978" />
  </g>
  <path
     style="fill:#689d6a;stroke:none;stroke-width:0.222501;fill-opacity:1"
     d="M 44.61146,88.889168 V 77.986616 H 88.889168 133.16688 V 88.889168 99.791719 H 88.889168 44.61146 Z"
     id="path5662"
     transform="scale(0.75)" />
</svg>
