<?xml version="1.0" encoding="UTF-8" standalone="no"?>
<svg
   width="133pt"
   height="133pt"
   viewBox="0 0 133 133"
   version="1.1"
   id="svg911"
   sodipodi:docname="menuitem-checkbox-checked.svg"
   inkscape:version="1.1.1 (3bf5ae0d25, 2021-09-20)"
   xmlns:inkscape="http://www.inkscape.org/namespaces/inkscape"
   xmlns:sodipodi="http://sodipodi.sourceforge.net/DTD/sodipodi-0.dtd"
   xmlns="http://www.w3.org/2000/svg"
   xmlns:svg="http://www.w3.org/2000/svg">
  <defs
     id="defs915" />
  <sodipodi:namedview
     id="namedview913"
     pagecolor="#ffffff"
     bordercolor="#666666"
     borderopacity="1.0"
     inkscape:pageshadow="2"
     inkscape:pageopacity="0.0"
     inkscape:pagecheckerboard="0"
     inkscape:document-units="pt"
     showgrid="false"
     inkscape:zoom="11.075188"
     inkscape:cx="88.666667"
     inkscape:cy="88.576375"
     inkscape:window-width="2560"
     inkscape:window-height="1398"
     inkscape:window-x="0"
     inkscape:window-y="1080"
     inkscape:window-maximized="1"
     inkscape:current-layer="svg911" />
  <g
     id="surface1">
    <path
       style=" stroke:none;fill-rule:nonzero;fill:#d5c4a1;fill-opacity:0.5;"
       d="M 16.667969 0 C 7.421875 0 0 7.421875 0 16.667969 L 0 116.667969 C 0 125.910156 7.421875 133.332031 16.667969 133.332031 L 116.667969 133.332031 C 125.910156 133.332031 133.332031 125.910156 133.332031 116.667969 L 133.332031 16.667969 C 133.332031 7.421875 125.910156 0 116.667969 0 Z M 16.667969 8.332031 L 116.667969 8.332031 C 121.289062 8.332031 125 12.042969 125 16.667969 L 125 116.667969 C 125 121.289062 121.289062 125 116.667969 125 L 16.667969 125 C 12.042969 125 8.332031 121.289062 8.332031 116.667969 L 8.332031 16.667969 C 8.332031 12.042969 12.042969 8.332031 16.667969 8.332031 Z M 16.667969 8.332031 "
       id="path904" />
    <path
       style=" stroke:none;fill-rule:nonzero;fill:#d5c4a1;fill-opacity:0.15;"
       d="M 16.667969 0 C 7.421875 0 0 7.421875 0 16.667969 L 0 116.667969 C 0 125.910156 7.421875 133.332031 16.667969 133.332031 L 116.667969 133.332031 C 125.910156 133.332031 133.332031 125.910156 133.332031 116.667969 L 133.332031 16.667969 C 133.332031 7.421875 125.910156 0 116.667969 0 Z M 16.667969 8.332031 L 116.667969 8.332031 C 121.289062 8.332031 125 12.042969 125 16.667969 L 125 116.667969 C 125 121.289062 121.289062 125 116.667969 125 L 16.667969 125 C 12.042969 125 8.332031 121.289062 8.332031 116.667969 L 8.332031 16.667969 C 8.332031 12.042969 12.042969 8.332031 16.667969 8.332031 Z M 16.667969 8.332031 "
       id="path906" />
    <path
       style=" stroke:none;fill-rule:nonzero;fill:#b8bb26;fill-opacity:1;"
       d="M 97.101562 32.648438 C 94.074219 32.746094 91.046875 34.015625 88.898438 36.199219 L 55.304688 68.164062 L 43.816406 55.273438 C 39.714844 49.804688 30.730469 49.21875 25.976562 54.101562 C 21.222656 58.984375 21.875 68.164062 27.277344 72.265625 L 47.136719 93.621094 C 54.949219 101.433594 58.464844 100.390625 66.339844 92.480469 C 66.339844 92.480469 93.425781 59.894531 109.308594 48.894531 C 112.824219 45.574219 114.289062 44.628906 112.433594 40.136719 C 110.613281 35.613281 101.886719 32.488281 97.101562 32.648438 Z M 97.101562 32.648438 "
       id="path908" />
  </g>
  <path
     style="fill:#689d6a;stroke:none;stroke-width:0.222501;fill-opacity:1"
     d="m 71.926558,131.30688 c -1.856504,-0.67181 -4.65207,-2.52132 -6.824336,-4.51489 -0.906452,-0.83188 -7.612682,-7.9231 -14.902733,-15.75827 -7.290052,-7.83517 -14.007758,-14.996706 -14.928235,-15.914523 -1.955517,-1.949863 -2.91104,-3.480048 -3.85405,-6.17191 -0.594977,-1.698386 -0.69521,-2.327207 -0.77848,-4.88386 -0.118744,-3.6458 0.253956,-5.51753 1.656556,-8.319359 2.158029,-4.310873 6.173189,-7.067603 11.344423,-7.78886 4.620584,-0.644456 9.958523,1.037028 13.080869,4.120555 0.751615,0.74227 4.850251,5.279507 9.108082,10.082748 4.257831,4.803241 7.819515,8.733166 7.914854,8.733166 0.09534,0 9.831467,-9.186512 21.635837,-20.414471 11.804375,-11.227959 22.268085,-21.165412 23.252695,-22.083229 2.10587,-1.963015 3.66526,-2.942694 6.15423,-3.866358 1.73114,-0.642434 1.97947,-0.674438 5.26559,-0.678605 3.10879,-0.0039 3.67907,0.05833 5.78503,0.63165 5.33517,1.452444 9.61587,3.699991 12.09498,6.350358 2.38363,2.548289 3.53474,6.759184 2.46622,9.021759 -0.63014,1.334333 -3.90006,4.603141 -6.66241,6.660162 -6.23081,4.639839 -10.98057,8.936347 -21.14198,19.124497 -10.32336,10.350519 -18.3645,19.08552 -29.828506,32.40234 -6.89282,8.00683 -11.071497,11.73883 -14.701804,13.13025 -1.987181,0.76164 -4.269621,0.81254 -6.136832,0.13685 z"
     id="path1825"
     transform="scale(0.75)" />
</svg>
