<?xml version="1.0" encoding="UTF-8" standalone="no"?>
<svg
   width="64"
   height="64"
   version="1.1"
   id="svg33319"
   sodipodi:docname="application-bitwig-clip.svg"
   inkscape:version="1.2.2 (1:1.2.2+202212051550+b0a8486541)"
   xmlns:inkscape="http://www.inkscape.org/namespaces/inkscape"
   xmlns:sodipodi="http://sodipodi.sourceforge.net/DTD/sodipodi-0.dtd"
   xmlns="http://www.w3.org/2000/svg"
   xmlns:svg="http://www.w3.org/2000/svg">
  <defs
     id="defs33323">
    <inkscape:path-effect
       effect="powerclip"
       id="path-effect865"
       is_visible="true"
       lpeversion="1"
       inverse="true"
       flatten="false"
       hide_clip="false"
       message="Use fill-rule evenodd on &lt;b&gt;fill and stroke&lt;/b&gt; dialog if no flatten result after convert clip to paths." />
    <clipPath
       clipPathUnits="userSpaceOnUse"
       id="clipPath861">
      <path
         style="display:none;fill:#616161"
         d="M 54,22 36,4 V 19.1875 C 36,20.74675 37.2555,22 38.8125,22 Z"
         id="path863" />
      <path
         id="lpe_path-effect865"
         style="fill:#616161"
         class="powerclip"
         d="M 5,-1 H 59 V 65 H 5 Z M 54,22 36,4 V 19.1875 C 36,20.74675 37.2555,22 38.8125,22 Z" />
    </clipPath>
  </defs>
  <sodipodi:namedview
     id="namedview33321"
     pagecolor="#f5f7fa"
     bordercolor="#111111"
     borderopacity="1"
     inkscape:showpageshadow="0"
     inkscape:pageopacity="0"
     inkscape:pagecheckerboard="1"
     inkscape:deskcolor="#d1d1d1"
     showgrid="false"
     inkscape:zoom="12.953125"
     inkscape:cx="32.115802"
     inkscape:cy="38.253317"
     inkscape:window-width="1489"
     inkscape:window-height="738"
     inkscape:window-x="235"
     inkscape:window-y="170"
     inkscape:window-maximized="0"
     inkscape:current-layer="svg33319" />
  <path
     style="fill:#578376"
     d="M 12.75,4 C 11.2265,4 10,5.2488 10,6.8 v 50.4 c 0,1.55008 1.2265,2.8 2.75,2.8 h 38.5 C 52.7724,60 54,58.75008 54,57.2 V 22 L 40,18 36,4 Z"
     id="path33309"
     clip-path="url(#clipPath861)"
     inkscape:path-effect="#path-effect865"
     inkscape:original-d="M 12.75,4 C 11.2265,4 10,5.2488 10,6.8 v 50.4 c 0,1.55008 1.2265,2.8 2.75,2.8 h 38.5 C 52.7724,60 54,58.75008 54,57.2 V 22 L 40,18 36,4 Z" />
  <path
     style="fill:#f5f7fa;stroke-width:0.999999"
     d="M 32.917029,52.184886 C 32.69974,52.034847 31.07789,50.982508 29.312917,49.846356 27.547944,48.710205 25.631267,47.47414 25.053641,47.09954 24.476008,46.724943 22.664359,45.555327 21.027745,44.500396 l -2.975658,-1.91806 -0.03179,-2.172053 c -0.01742,-1.194627 0.0021,-2.172049 0.04277,-2.172049 0.06055,0 5.427086,3.431464 8.682604,5.551835 0.417179,0.271715 2.067639,1.337623 3.667692,2.36869 l 2.909199,1.874663 0.416542,-0.252099 c 2.442828,-1.478379 11.064598,-7.027724 11.158615,-7.182162 0.06769,-0.111158 0.09392,-0.418047 0.05839,-0.681951 l -0.06471,-0.479822 -5.771963,3.676151 -5.771959,3.676153 -0.48594,-0.27901 C 31.79071,45.89585 18.005792,37.124492 17.999996,37.054258 c -0.0035,-0.04147 1.319703,-0.824447 2.940266,-1.739955 1.62057,-0.915507 3.419094,-1.936035 3.99672,-2.267835 0.577633,-0.331803 1.785399,-1.016991 2.683933,-1.522644 0.898534,-0.505656 2.079329,-1.171814 2.623992,-1.480351 0.54467,-0.308538 1.064651,-0.53245 1.155511,-0.497581 0.248387,0.09531 2.826757,1.716751 2.788473,1.75356 -0.02683,0.02574 -9.060522,5.192689 -9.812056,5.612107 -0.177029,0.0988 0.0102,0.24905 1.190413,0.955342 0.770266,0.460957 1.461929,0.838103 1.537018,0.838103 0.0751,0 2.217502,-1.226897 4.760908,-2.726438 2.543407,-1.499542 4.731307,-2.781916 4.861987,-2.849725 0.201188,-0.104385 0.457396,0.0161 1.670867,0.785668 0.788284,0.499923 1.486947,0.962652 1.552588,1.028287 0.0813,0.08133 -1.408204,1.036165 -4.675702,2.997322 -2.637269,1.582893 -4.795031,2.900226 -4.795031,2.927405 0,0.08247 2.434187,1.688336 2.559235,1.688336 0.06406,0 0.630309,-0.306223 1.258335,-0.680486 5.454144,-3.250353 8.59309,-5.046592 8.728306,-4.994707 0.08859,0.03398 0.794007,0.463601 1.567642,0.95469 l 1.406593,0.892892 -0.09094,5.702917 c -0.04626,0.03927 -1.764484,1.140316 -3.818277,2.446743 -2.053785,1.306426 -4.653118,2.960031 -5.776283,3.674682 -1.123165,0.71465 -2.258179,1.435654 -2.522248,1.602233 l -0.48013,0.302859 z"
     id="path5235" />
  <g
     aria-label="LOG"
     id="text1753"
     style="font-size:2.82217px;line-height:0;font-family:Cantarell;-inkscape-font-specification:Cantarell;letter-spacing:0.206371px;fill:none;stroke:#f5f7fa;stroke-width:0.264578"
     transform="matrix(3.7796,0,0,3.7796,-5.9345184,4.2355253)" />
  <path
     style="fill:#616161;stroke-width:0.901405"
     d="M 53.936482,20.330556 37.669444,4.1468851 V 17.801858 c 0,1.40191 1.134626,2.528698 2.541724,2.528698 z"
     id="path33313" />
</svg>
