<?xml version="1.0" encoding="UTF-8" standalone="no"?>
<svg
   width="64"
   height="64"
   version="1.1"
   id="svg33319"
   sodipodi:docname="application-bitwig-clip.svg"
   inkscape:version="1.2.2 (1:1.2.2+202212051550+b0a8486541)"
   xmlns:inkscape="http://www.inkscape.org/namespaces/inkscape"
   xmlns:sodipodi="http://sodipodi.sourceforge.net/DTD/sodipodi-0.dtd"
   xmlns="http://www.w3.org/2000/svg"
   xmlns:svg="http://www.w3.org/2000/svg">
  <defs
     id="defs33323">
    <inkscape:path-effect
       effect="powerclip"
       id="path-effect865"
       is_visible="true"
       lpeversion="1"
       inverse="true"
       flatten="false"
       hide_clip="false"
       message="Use fill-rule evenodd on &lt;b&gt;fill and stroke&lt;/b&gt; dialog if no flatten result after convert clip to paths." />
    <clipPath
       clipPathUnits="userSpaceOnUse"
       id="clipPath861">
      <path
         style="display:none;fill:#616161"
         d="M 54,22 36,4 V 19.1875 C 36,20.74675 37.2555,22 38.8125,22 Z"
         id="path863" />
      <path
         id="lpe_path-effect865"
         style="fill:#616161"
         class="powerclip"
         d="M 5,-1 H 59 V 65 H 5 Z M 54,22 36,4 V 19.1875 C 36,20.74675 37.2555,22 38.8125,22 Z" />
    </clipPath>
  </defs>
  <sodipodi:namedview
     id="namedview33321"
     pagecolor="#f5f7fa"
     bordercolor="#111111"
     borderopacity="1"
     inkscape:showpageshadow="0"
     inkscape:pageopacity="0"
     inkscape:pagecheckerboard="1"
     inkscape:deskcolor="#d1d1d1"
     showgrid="false"
     inkscape:zoom="12.953125"
     inkscape:cx="32.115802"
     inkscape:cy="38.253317"
     inkscape:window-width="1489"
     inkscape:window-height="738"
     inkscape:window-x="235"
     inkscape:window-y="170"
     inkscape:window-maximized="0"
     inkscape:current-layer="svg33319" />
  <path
     style="fill:#578376"
     d="M 12.75,4 C 11.2265,4 10,5.2488 10,6.8 v 50.4 c 0,1.55008 1.2265,2.8 2.75,2.8 h 38.5 C 52.7724,60 54,58.75008 54,57.2 V 22 L 40,18 36,4 Z"
     id="path33309"
     clip-path="url(#clipPath861)"
     inkscape:path-effect="#path-effect865"
     inkscape:original-d="M 12.75,4 C 11.2265,4 10,5.2488 10,6.8 v 50.4 c 0,1.55008 1.2265,2.8 2.75,2.8 h 38.5 C 52.7724,60 54,58.75008 54,57.2 V 22 L 40,18 36,4 Z" />
  <g
     aria-label="JS"
     transform="matrix(3.4969887,0,0,4.0850506,-2.0052666,5.6888551)"
     id="text109"
     style="font-weight:bold;font-size:6.39977px;line-height:1.25;font-family:sans-serif;-inkscape-font-specification:'sans-serif Bold';fill:#f5f7fa;stroke-width:0.159994">
    <path
       d="M 7.2860415,5.3670555 H 8.4891232 V 9.579404 q 0,0.871844 -0.4749829,1.303078 -0.471858,0.431235 -1.4311985,0.431235 H 6.3392005 v -0.909343 h 0.1874933 q 0.3749865,0 0.5656047,-0.209367 0.193743,-0.2093676 0.193743,-0.615603 z"
       style="fill:#f5f7fa;stroke-width:0.159994"
       id="path896" />
    <path
       d="M 12.913964,5.5139252 V 6.5013897 Q 12.529603,6.3295209 12.163991,6.242024 q -0.365612,-0.087497 -0.6906,-0.087497 -0.431235,0 -0.637477,0.1187457 -0.206243,0.1187457 -0.206243,0.3687367 0,0.1874933 0.137495,0.2937395 0.14062,0.1031213 0.506232,0.1781186 l 0.512482,0.1031212 q 0.778097,0.1562444 1.10621,0.474983 0.328113,0.3187385 0.328113,0.9062174 0,0.7718472 -0.459358,1.1499586 -0.456234,0.3749863 -1.396825,0.3749863 -0.443734,0 -0.890593,-0.08437 Q 10.026568,9.9543905 9.5797089,9.7887714 V 8.773183 q 0.4468591,0.2374914 0.8624691,0.359362 0.418735,0.1187458 0.806221,0.1187458 0.393736,0 0.603103,-0.1312453 0.209368,-0.1312453 0.209368,-0.3749865 0,-0.2187422 -0.143745,-0.3374879 Q 11.776505,8.2888254 11.35152,8.1950788 L 10.885912,8.0919575 Q 10.185937,7.9419629 9.8609488,7.6138497 9.5390854,7.2857365 9.5390854,6.7295065 q 0,-0.6968499 0.4499838,-1.0718365 0.4499838,-0.3749865 1.2937038,-0.3749865 0.384361,0 0.790596,0.059373 0.406236,0.056248 0.840595,0.1718687 z"
       style="fill:#f5f7fa;stroke-width:0.159994"
       id="path898" />
  </g>
  <g
     aria-label="LOG"
     id="text1753"
     style="font-size:2.82217px;line-height:0;font-family:Cantarell;-inkscape-font-specification:Cantarell;letter-spacing:0.206371px;fill:none;stroke:#f5f7fa;stroke-width:0.264578"
     transform="matrix(3.7796,0,0,3.7796,-5.9345184,4.2355253)" />
  <path
     style="fill:#616161;stroke-width:0.901405"
     d="M 53.936482,20.330556 37.669444,4.1468851 V 17.801858 c 0,1.40191 1.134626,2.528698 2.541724,2.528698 z"
     id="path33313" />
</svg>
