<?xml version="1.0" encoding="UTF-8" standalone="no"?>
<svg
   width="64"
   height="64"
   version="1.1"
   id="svg33319"
   sodipodi:docname="application-bitwig-clip.svg"
   inkscape:version="1.2.2 (1:1.2.2+202212051550+b0a8486541)"
   xmlns:inkscape="http://www.inkscape.org/namespaces/inkscape"
   xmlns:sodipodi="http://sodipodi.sourceforge.net/DTD/sodipodi-0.dtd"
   xmlns="http://www.w3.org/2000/svg"
   xmlns:svg="http://www.w3.org/2000/svg">
  <defs
     id="defs33323">
    <inkscape:path-effect
       effect="powerclip"
       id="path-effect865"
       is_visible="true"
       lpeversion="1"
       inverse="true"
       flatten="false"
       hide_clip="false"
       message="Use fill-rule evenodd on &lt;b&gt;fill and stroke&lt;/b&gt; dialog if no flatten result after convert clip to paths." />
    <clipPath
       clipPathUnits="userSpaceOnUse"
       id="clipPath861">
      <path
         style="display:none;fill:#616161"
         d="M 54,22 36,4 V 19.1875 C 36,20.74675 37.2555,22 38.8125,22 Z"
         id="path863" />
      <path
         id="lpe_path-effect865"
         style="fill:#616161"
         class="powerclip"
         d="M 5,-1 H 59 V 65 H 5 Z M 54,22 36,4 V 19.1875 C 36,20.74675 37.2555,22 38.8125,22 Z" />
    </clipPath>
  </defs>
  <sodipodi:namedview
     id="namedview33321"
     pagecolor="#f5f7fa"
     bordercolor="#111111"
     borderopacity="1"
     inkscape:showpageshadow="0"
     inkscape:pageopacity="0"
     inkscape:pagecheckerboard="1"
     inkscape:deskcolor="#d1d1d1"
     showgrid="false"
     inkscape:zoom="12.953125"
     inkscape:cx="32.115802"
     inkscape:cy="38.253317"
     inkscape:window-width="1489"
     inkscape:window-height="738"
     inkscape:window-x="235"
     inkscape:window-y="170"
     inkscape:window-maximized="0"
     inkscape:current-layer="svg33319" />
  <path
     style="fill:#578376"
     d="M 12.75,4 C 11.2265,4 10,5.2488 10,6.8 v 50.4 c 0,1.55008 1.2265,2.8 2.75,2.8 h 38.5 C 52.7724,60 54,58.75008 54,57.2 V 22 L 40,18 36,4 Z"
     id="path33309"
     clip-path="url(#clipPath861)"
     inkscape:path-effect="#path-effect865"
     inkscape:original-d="M 12.75,4 C 11.2265,4 10,5.2488 10,6.8 v 50.4 c 0,1.55008 1.2265,2.8 2.75,2.8 h 38.5 C 52.7724,60 54,58.75008 54,57.2 V 22 L 40,18 36,4 Z" />
  <path
     fill="#f5f7fa"
     d="m 45.941114,36.282812 c 1.104332,-1.18035 1.036971,-2.914436 -0.152771,-3.990354 l -5.41221,-4.892211 c -1.189742,-1.075918 -3.109696,-1.136841 -4.416137,-0.137076 l -7.302075,5.221841 c -1.470042,1.124872 -1.581922,3.135279 -0.240627,4.347182 l 6.942392,6.275993 c 1.342521,1.214083 3.566835,1.112903 4.811914,-0.21865 z m -7.287643,-7.325803 5.412198,4.893291 c 0.292315,0.263272 0.297115,0.708213 0.01474,1.011733 l -1.072159,1.147719 -6.741495,-6.095408 1.269144,-0.970395 c 0.333247,-0.256737 0.825246,-0.250213 1.117564,0.01311 z m -5.913849,14.858296 -9.780212,8.845583 h -3.402022 l -0.850509,-0.769137 8.772121,-7.933925 -0.850508,-0.76913 -8.772116,7.933921 -0.0012,-3.07653 9.780213,-8.844486 z"
     id="path42"
     style="fill:#f5f7fa;stroke-width:0.142999" />
  <g
     aria-label="LOG"
     id="text1753"
     style="font-size:2.82217px;line-height:0;font-family:Cantarell;-inkscape-font-specification:Cantarell;letter-spacing:0.206371px;fill:none;stroke:#f5f7fa;stroke-width:0.264578"
     transform="matrix(3.7796,0,0,3.7796,-5.9345184,4.2355253)" />
  <path
     style="fill:#616161;stroke-width:0.901405"
     d="M 53.936482,20.330556 37.669444,4.1468851 V 17.801858 c 0,1.40191 1.134626,2.528698 2.541724,2.528698 z"
     id="path33313" />
</svg>
