<?xml version="1.0" encoding="UTF-8" standalone="no"?>
<svg
   width="64"
   height="64"
   version="1.1"
   id="svg33319"
   sodipodi:docname="application-acad.svg"
   inkscape:version="1.2.2 (1:1.2.2+202212051550+b0a8486541)"
   xmlns:inkscape="http://www.inkscape.org/namespaces/inkscape"
   xmlns:sodipodi="http://sodipodi.sourceforge.net/DTD/sodipodi-0.dtd"
   xmlns="http://www.w3.org/2000/svg"
   xmlns:svg="http://www.w3.org/2000/svg">
  <defs
     id="defs33323">
    <inkscape:path-effect
       effect="powerclip"
       id="path-effect865"
       is_visible="true"
       lpeversion="1"
       inverse="true"
       flatten="false"
       hide_clip="false"
       message="Use fill-rule evenodd on &lt;b&gt;fill and stroke&lt;/b&gt; dialog if no flatten result after convert clip to paths." />
    <clipPath
       clipPathUnits="userSpaceOnUse"
       id="clipPath861">
      <path
         style="display:none;fill:#616161"
         d="M 54,22 36,4 V 19.1875 C 36,20.74675 37.2555,22 38.8125,22 Z"
         id="path863" />
      <path
         id="lpe_path-effect865"
         style="fill:#616161"
         class="powerclip"
         d="M 5,-1 H 59 V 65 H 5 Z M 54,22 36,4 V 19.1875 C 36,20.74675 37.2555,22 38.8125,22 Z" />
    </clipPath>
  </defs>
  <sodipodi:namedview
     id="namedview33321"
     pagecolor="#f5f7fa"
     bordercolor="#111111"
     borderopacity="1"
     inkscape:showpageshadow="0"
     inkscape:pageopacity="0"
     inkscape:pagecheckerboard="1"
     inkscape:deskcolor="#d1d1d1"
     showgrid="false"
     inkscape:zoom="12.953125"
     inkscape:cx="32.154403"
     inkscape:cy="38.291918"
     inkscape:window-width="1489"
     inkscape:window-height="738"
     inkscape:window-x="280"
     inkscape:window-y="102"
     inkscape:window-maximized="0"
     inkscape:current-layer="svg33319" />
  <path
     style="fill:#578376"
     d="M 12.75,4 C 11.2265,4 10,5.2488 10,6.8 v 50.4 c 0,1.55008 1.2265,2.8 2.75,2.8 h 38.5 C 52.7724,60 54,58.75008 54,57.2 V 22 L 40,18 36,4 Z"
     id="path33309"
     clip-path="url(#clipPath861)"
     inkscape:path-effect="#path-effect865"
     inkscape:original-d="M 12.75,4 C 11.2265,4 10,5.2488 10,6.8 v 50.4 c 0,1.55008 1.2265,2.8 2.75,2.8 h 38.5 C 52.7724,60 54,58.75008 54,57.2 V 22 L 40,18 36,4 Z" />
  <path
     fill="#f5f7fa"
     d="m 31.958742,53.736821 c -7.140399,0 -12.928832,-5.628478 -12.928832,-12.571558 0,-6.943083 5.788433,-12.571564 12.928832,-12.571564 7.140386,0 12.928828,5.628481 12.928828,12.571564 0,6.94308 -5.788442,12.571558 -12.928828,12.571558 z m 0,-22.349446 c -5.553644,0 -10.055758,4.377714 -10.055758,9.777888 0,0.385723 0.321579,0.698417 0.718268,0.698417 0.396689,0 0.718268,-0.312686 0.718268,-0.698417 0,-4.628722 3.858956,-8.381047 8.619222,-8.381047 0.396688,0 0.718267,-0.312693 0.718267,-0.698414 0,-0.385731 -0.321568,-0.698427 -0.718267,-0.698427 z m 0,15.365248 c 3.173507,0 5.746148,-2.501547 5.746148,-5.587361 0,-3.085812 -2.572641,-5.587365 -5.746148,-5.587365 -3.173512,0 -5.746149,2.501553 -5.746149,5.587365 0,3.085814 2.572637,5.587361 5.746149,5.587361 z m 0,-1.396842 c -2.380134,0 -4.309612,-1.876159 -4.309612,-4.190519 0,-2.314361 1.929478,-4.190524 4.309612,-4.190524 2.380127,0 4.309613,1.876163 4.309613,4.190524 0,2.31436 -1.929486,4.190519 -4.309613,4.190519 z m 0,-1.396838 c 1.586751,0 2.87307,-1.250772 2.87307,-2.793681 0,-1.542909 -1.286319,-2.793682 -2.87307,-2.793682 -1.586758,0 -2.873075,1.250773 -2.873075,2.793682 0,1.542909 1.286317,2.793681 2.873075,2.793681 z"
     id="path42"
     style="fill:#f5f7fa;stroke-width:0.132801;fill-opacity:1" />
  <g
     aria-label="LOG"
     id="text1753"
     style="font-size:2.82217px;line-height:0;font-family:Cantarell;-inkscape-font-specification:Cantarell;letter-spacing:0.206371px;fill:none;stroke:#f5f7fa;stroke-width:0.264578"
     transform="matrix(3.7796,0,0,3.7796,-5.9345184,4.2355253)" />
  <path
     style="fill:#616161;stroke-width:0.901405"
     d="M 53.936482,20.330556 37.669444,4.1468851 V 17.801858 c 0,1.40191 1.134626,2.528698 2.541724,2.528698 z"
     id="path33313" />
</svg>
