<?xml version="1.0" encoding="UTF-8" standalone="no"?>
<svg
   width="64"
   height="64"
   version="1.1"
   id="svg33319"
   sodipodi:docname="application-bitwig-clip.svg"
   inkscape:version="1.2.2 (1:1.2.2+202212051550+b0a8486541)"
   xmlns:inkscape="http://www.inkscape.org/namespaces/inkscape"
   xmlns:sodipodi="http://sodipodi.sourceforge.net/DTD/sodipodi-0.dtd"
   xmlns="http://www.w3.org/2000/svg"
   xmlns:svg="http://www.w3.org/2000/svg">
  <defs
     id="defs33323">
    <inkscape:path-effect
       effect="powerclip"
       id="path-effect865"
       is_visible="true"
       lpeversion="1"
       inverse="true"
       flatten="false"
       hide_clip="false"
       message="Use fill-rule evenodd on &lt;b&gt;fill and stroke&lt;/b&gt; dialog if no flatten result after convert clip to paths." />
    <clipPath
       clipPathUnits="userSpaceOnUse"
       id="clipPath861">
      <path
         style="display:none;fill:#616161"
         d="M 54,22 36,4 V 19.1875 C 36,20.74675 37.2555,22 38.8125,22 Z"
         id="path863" />
      <path
         id="lpe_path-effect865"
         style="fill:#616161"
         class="powerclip"
         d="M 5,-1 H 59 V 65 H 5 Z M 54,22 36,4 V 19.1875 C 36,20.74675 37.2555,22 38.8125,22 Z" />
    </clipPath>
  </defs>
  <sodipodi:namedview
     id="namedview33321"
     pagecolor="#f5f7fa"
     bordercolor="#111111"
     borderopacity="1"
     inkscape:showpageshadow="0"
     inkscape:pageopacity="0"
     inkscape:pagecheckerboard="1"
     inkscape:deskcolor="#d1d1d1"
     showgrid="false"
     inkscape:zoom="12.953125"
     inkscape:cx="32.115802"
     inkscape:cy="38.253317"
     inkscape:window-width="1489"
     inkscape:window-height="738"
     inkscape:window-x="235"
     inkscape:window-y="170"
     inkscape:window-maximized="0"
     inkscape:current-layer="svg33319" />
  <path
     style="fill:#578376"
     d="M 12.75,4 C 11.2265,4 10,5.2488 10,6.8 v 50.4 c 0,1.55008 1.2265,2.8 2.75,2.8 h 38.5 C 52.7724,60 54,58.75008 54,57.2 V 22 L 40,18 36,4 Z"
     id="path33309"
     clip-path="url(#clipPath861)"
     inkscape:path-effect="#path-effect865"
     inkscape:original-d="M 12.75,4 C 11.2265,4 10,5.2488 10,6.8 v 50.4 c 0,1.55008 1.2265,2.8 2.75,2.8 h 38.5 C 52.7724,60 54,58.75008 54,57.2 V 22 L 40,18 36,4 Z" />
  <path
     style="fill:#f5f7fa;stroke-width:0.999999"
     d="m 32.296675,25.550974 c -1.532492,0.0023 -2.92898,0.879905 -3.595703,2.259766 -0.448727,-0.170127 -0.924405,-0.258118 -1.404297,-0.259766 -2.209139,0 -4,1.790861 -4,4 4e-4,0.479653 0.08706,0.955325 0.25586,1.404297 -1.37834,0.667835 -2.254321,2.064095 -2.255859,3.595703 0.0023,1.532492 0.879905,2.92898 2.259766,3.595704 -0.170128,0.448729 -0.258117,0.924407 -0.259765,1.404299 0,2.209138 1.790861,4 4.000001,4 0.337601,-0.0019 0.673606,-0.04653 0.999999,-0.132816 v 7.132812 c 3.5e-4,0.890637 1.077036,1.336584 1.707031,0.707031 l 2.292971,-2.29297 2.29297,2.292967 c 0.629995,0.629556 1.706678,0.183613 1.70703,-0.707031 v -7.130858 c 0.326482,0.08564 0.662481,0.129602 0.999999,0.13085 2.209146,0 4.000007,-1.790862 4.000007,-4 -3.97e-4,-0.47965 -0.08708,-0.955324 -0.255841,-1.404296 1.378337,-0.667835 2.25432,-2.064095 2.255858,-3.595703 -0.0023,-1.532492 -0.879906,-2.92898 -2.259766,-3.595703 0.17012,-0.448727 0.258109,-0.924405 0.259772,-1.404297 0,-2.209139 -1.790861,-4 -4.000007,-4 -0.479654,4e-4 -0.955325,0.08706 -1.404299,0.25586 -0.667833,-1.37833 -2.064097,-2.254311 -3.5957,-2.255849 z m 0,4 c 3.865998,0 7.000008,3.134007 7.000008,7 0,3.865994 -3.13401,7.000001 -7.000008,7.000001 -3.865993,0 -7,-3.134007 -7,-7.000001 0,-3.865993 3.134007,-7 7,-7 z m 0,1 c -3.313708,0 -6,2.686292 -6,6 0,3.313708 2.686292,6.000002 6,6.000002 3.313712,0 6.000009,-2.686294 6.000009,-6.000002 0,-3.313708 -2.686297,-6 -6.000009,-6 z"
     id="path12" />
  <g
     aria-label="LOG"
     id="text1753"
     style="font-size:2.82217px;line-height:0;font-family:Cantarell;-inkscape-font-specification:Cantarell;letter-spacing:0.206371px;fill:none;stroke:#f5f7fa;stroke-width:0.264578"
     transform="matrix(3.7796,0,0,3.7796,-5.9345184,4.2355253)" />
  <path
     style="fill:#616161;stroke-width:0.901405"
     d="M 53.936482,20.330556 37.669444,4.1468851 V 17.801858 c 0,1.40191 1.134626,2.528698 2.541724,2.528698 z"
     id="path33313" />
</svg>
