<?xml version="1.0" encoding="UTF-8" standalone="no"?>
<svg
   width="64"
   height="64"
   version="1.1"
   id="svg33319"
   sodipodi:docname="text-x-log.svg"
   inkscape:version="1.2.2 (1:1.2.2+202212051550+b0a8486541)"
   xmlns:inkscape="http://www.inkscape.org/namespaces/inkscape"
   xmlns:sodipodi="http://sodipodi.sourceforge.net/DTD/sodipodi-0.dtd"
   xmlns="http://www.w3.org/2000/svg"
   xmlns:svg="http://www.w3.org/2000/svg">
  <defs
     id="defs33323">
    <inkscape:path-effect
       effect="powerclip"
       id="path-effect865"
       is_visible="true"
       lpeversion="1"
       inverse="true"
       flatten="false"
       hide_clip="false"
       message="Use fill-rule evenodd on &lt;b&gt;fill and stroke&lt;/b&gt; dialog if no flatten result after convert clip to paths." />
    <clipPath
       clipPathUnits="userSpaceOnUse"
       id="clipPath861">
      <path
         style="display:none;fill:#616161"
         d="M 54,22 36,4 V 19.1875 C 36,20.74675 37.2555,22 38.8125,22 Z"
         id="path863" />
      <path
         id="lpe_path-effect865"
         style="fill:#616161"
         class="powerclip"
         d="M 5,-1 H 59 V 65 H 5 Z M 54,22 36,4 V 19.1875 C 36,20.74675 37.2555,22 38.8125,22 Z" />
    </clipPath>
  </defs>
  <sodipodi:namedview
     id="namedview33321"
     pagecolor="#f5f7fa"
     bordercolor="#111111"
     borderopacity="1"
     inkscape:showpageshadow="0"
     inkscape:pageopacity="0"
     inkscape:pagecheckerboard="1"
     inkscape:deskcolor="#d1d1d1"
     showgrid="false"
     inkscape:zoom="12.953125"
     inkscape:cx="32.038601"
     inkscape:cy="38.253317"
     inkscape:window-width="1489"
     inkscape:window-height="738"
     inkscape:window-x="328"
     inkscape:window-y="254"
     inkscape:window-maximized="0"
     inkscape:current-layer="svg33319" />
  <path
     style="fill:#578376"
     d="M 12.75,4 C 11.2265,4 10,5.2488 10,6.8 v 50.4 c 0,1.55008 1.2265,2.8 2.75,2.8 h 38.5 C 52.7724,60 54,58.75008 54,57.2 V 22 L 40,18 36,4 Z"
     id="path33309"
     clip-path="url(#clipPath861)"
     inkscape:path-effect="#path-effect865"
     inkscape:original-d="M 12.75,4 C 11.2265,4 10,5.2488 10,6.8 v 50.4 c 0,1.55008 1.2265,2.8 2.75,2.8 h 38.5 C 52.7724,60 54,58.75008 54,57.2 V 22 L 40,18 36,4 Z" />
  <g
     aria-label="ABC"
     id="text458"
     style="font-size:2.82217px;font-family:Cantarell;-inkscape-font-specification:Cantarell;letter-spacing:0.264578px;fill:#f5f7fa;stroke:#f5f7fa;stroke-width:0.264578"
     transform="matrix(3.40164,0,0,3.40164,-3.2541587,6.5484703)">
    <path
       d="m 6.7194317,7.4950919 h 0.2455288 l 0.2088406,-0.581367 h 0.8156071 l 0.1947297,0.581367 H 8.4465998 L 7.7579903,5.5365059 H 7.4531959 Z M 7.2443553,6.7105286 7.5914822,5.73688 7.918854,6.7105286 Z"
       id="path510"
       style="fill:#f5f7fa;stroke:#f5f7fa" />
    <path
       d="m 8.9905712,7.4950919 h 0.6829651 c 0.4515477,0 0.7168307,-0.2116627 0.7168307,-0.5700783 0,-0.2455288 -0.138286,-0.431792 -0.364059,-0.5079906 0.132642,-0.076199 0.217307,-0.2370623 0.217307,-0.4092147 0,-0.29915 -0.239885,-0.4713024 -0.657566,-0.4713024 H 8.9905712 Z M 9.2248113,6.5722423 h 0.5164571 c 0.2483509,0 0.4092146,0.1580415 0.4092146,0.4007482 0,0.2257736 -0.135464,0.3217273 -0.448725,0.3217273 H 9.2248113 Z M 9.7864231,6.3775126 c -0.00564,0 -0.014111,0 -0.019755,0 H 9.2248113 V 5.73688 h 0.333016 c 0.2991501,0 0.4459027,0.1100646 0.4459027,0.3330161 0,0.1382863 -0.062087,0.2285957 -0.2173069,0.3076165 z"
       id="path512"
       style="fill:#f5f7fa;stroke:#f5f7fa" />
    <path
       d="m 11.891054,7.5233136 c 0.189085,0 0.386637,-0.042332 0.5729,-0.1241755 l -0.05362,-0.1721523 c -0.141109,0.056443 -0.316083,0.090309 -0.465658,0.090309 -0.46848,0 -0.778919,-0.3330161 -0.778919,-0.8325402 0,-0.4769467 0.285039,-0.7676302 0.756341,-0.7676302 0.158042,0 0.335839,0.033866 0.485414,0.090309 l 0.06773,-0.1749745 c -0.143931,-0.076199 -0.347127,-0.1213533 -0.539035,-0.1213533 -0.606766,0 -1.010337,0.4120368 -1.010337,1.0272699 0,0.5898335 0.386638,0.9849373 0.965183,0.9849373 z"
       id="path514"
       style="fill:#f5f7fa;stroke:#f5f7fa" />
  </g>
  <path
     fill="#f5f7fa"
     d="m 45.512157,36.503637 v 1.36982 H 18.871755 v -1.36982 z m 0,6.8491 v 1.369822 H 18.871755 v -1.369822 z m 0,6.8491 v 1.369822 H 18.871755 v -1.369822 z"
     id="path42"
     style="fill:#f5f7fa;stroke-width:0.142703"
     sodipodi:nodetypes="ccccccccccccccc" />
  <path
     style="fill:#616161;stroke-width:0.901405"
     d="M 53.936482,20.330556 37.669444,4.1468851 V 17.801858 c 0,1.40191 1.134626,2.528698 2.541724,2.528698 z"
     id="path33313" />
</svg>
