<?xml version="1.0" encoding="UTF-8" standalone="no"?>
<svg
   width="64"
   height="64"
   version="1.1"
   id="svg33319"
   sodipodi:docname="application-acad.svg"
   inkscape:version="1.2.2 (1:1.2.2+202212051550+b0a8486541)"
   xmlns:inkscape="http://www.inkscape.org/namespaces/inkscape"
   xmlns:sodipodi="http://sodipodi.sourceforge.net/DTD/sodipodi-0.dtd"
   xmlns="http://www.w3.org/2000/svg"
   xmlns:svg="http://www.w3.org/2000/svg">
  <defs
     id="defs33323">
    <inkscape:path-effect
       effect="powerclip"
       id="path-effect865"
       is_visible="true"
       lpeversion="1"
       inverse="true"
       flatten="false"
       hide_clip="false"
       message="Use fill-rule evenodd on &lt;b&gt;fill and stroke&lt;/b&gt; dialog if no flatten result after convert clip to paths." />
    <clipPath
       clipPathUnits="userSpaceOnUse"
       id="clipPath861">
      <path
         style="display:none;fill:#616161"
         d="M 54,22 36,4 V 19.1875 C 36,20.74675 37.2555,22 38.8125,22 Z"
         id="path863" />
      <path
         id="lpe_path-effect865"
         style="fill:#616161"
         class="powerclip"
         d="M 5,-1 H 59 V 65 H 5 Z M 54,22 36,4 V 19.1875 C 36,20.74675 37.2555,22 38.8125,22 Z" />
    </clipPath>
    <clipPath
       clipPathUnits="userSpaceOnUse"
       id="clipPath354">
      <rect
         style="display:block;opacity:0.2"
         width="36"
         height="36"
         x="15.620633"
         y="15.638589"
         rx="2.7690001"
         ry="2.7690001"
         id="rect356" />
    </clipPath>
    <inkscape:path-effect
       effect="powerclip"
       id="path-effect358"
       is_visible="true"
       lpeversion="1"
       inverse="true"
       flatten="false"
       hide_clip="false"
       message="Use fill-rule evenodd on &lt;b&gt;fill and stroke&lt;/b&gt; dialog if no flatten result after convert clip to paths." />
    <clipPath
       clipPathUnits="userSpaceOnUse"
       id="clipPath186">
      <rect
         style="display:block;opacity:0.2"
         width="36"
         height="36"
         x="5.391973"
         y="5.6022935"
         rx="2.7690001"
         ry="2.7690001"
         id="rect188" />
    </clipPath>
    <inkscape:path-effect
       effect="powerclip"
       id="path-effect190"
       is_visible="true"
       lpeversion="1"
       inverse="true"
       flatten="false"
       hide_clip="false"
       message="Use fill-rule evenodd on &lt;b&gt;fill and stroke&lt;/b&gt; dialog if no flatten result after convert clip to paths." />
  </defs>
  <sodipodi:namedview
     id="namedview33321"
     pagecolor="#f5f7fa"
     bordercolor="#111111"
     borderopacity="1"
     inkscape:showpageshadow="0"
     inkscape:pageopacity="0"
     inkscape:pagecheckerboard="1"
     inkscape:deskcolor="#d1d1d1"
     showgrid="false"
     inkscape:zoom="12.953125"
     inkscape:cx="32.154403"
     inkscape:cy="38.291918"
     inkscape:window-width="1489"
     inkscape:window-height="738"
     inkscape:window-x="280"
     inkscape:window-y="102"
     inkscape:window-maximized="0"
     inkscape:current-layer="svg33319" />
  <path
     style="fill:#578376"
     d="M 12.75,4 C 11.2265,4 10,5.2488 10,6.8 v 50.4 c 0,1.55008 1.2265,2.8 2.75,2.8 h 38.5 C 52.7724,60 54,58.75008 54,57.2 V 22 L 40,18 36,4 Z"
     id="path33309"
     clip-path="url(#clipPath861)"
     inkscape:path-effect="#path-effect865"
     inkscape:original-d="M 12.75,4 C 11.2265,4 10,5.2488 10,6.8 v 50.4 c 0,1.55008 1.2265,2.8 2.75,2.8 h 38.5 C 52.7724,60 54,58.75008 54,57.2 V 22 L 40,18 36,4 Z" />
  <path
     fill="#f5f7fa"
     d="m 35.015769,47.482836 h -7.464175 v -0.878481 c 0.656749,-0.04139 1.201926,-0.123744 1.635551,-0.247451 0.433622,-0.123744 0.65043,-0.276326 0.65043,-0.45783 0,-0.07427 -0.0084,-0.164942 -0.02525,-0.272169 -0.01686,-0.107227 -0.0421,-0.202095 -0.07578,-0.284528 l -1.49032,-3.934643 h -6.27698 c -0.235756,0.577398 -0.427305,1.080553 -0.574652,1.509493 -0.147344,0.428912 -0.279959,0.824856 -0.397837,1.187799 -0.109457,0.354678 -0.185234,0.64339 -0.227335,0.866107 -0.0421,0.222732 -0.06315,0.40419 -0.06315,0.544406 0,0.329959 0.265222,0.585657 0.795673,0.767127 0.530452,0.181458 1.128254,0.288685 1.793423,0.321681 v 0.878478 H 16.55109 v -0.878478 c 0.218918,-0.01663 0.492558,-0.06387 0.820933,-0.142302 0.328375,-0.07843 0.597807,-0.183537 0.808303,-0.315521 0.336796,-0.222732 0.597807,-0.455759 0.783043,-0.699067 0.185234,-0.243331 0.366262,-0.579462 0.543078,-1.008401 0.900927,-2.202354 1.894455,-4.67691 2.980617,-7.423721 1.086163,-2.7468 2.054434,-5.192487 2.90484,-7.337141 h 1.010378 l 5.973862,15.144465 c 0.126315,0.321719 0.269448,0.581525 0.429412,0.779497 0.159991,0.197938 0.3831,0.391824 0.669379,0.581522 0.193666,0.115467 0.446249,0.212376 0.757787,0.290764 0.311514,0.07843 0.572545,0.121666 0.783038,0.129867 z m -7.22421,-7.176296 -2.715394,-6.80511 -2.664874,6.80511 z m 19.336127,6.953583 c -0.395731,0.140223 -0.743046,0.253611 -1.041952,0.34024 -0.298891,0.08663 -0.637796,0.129904 -1.016694,0.129904 -0.656747,0 -1.180875,-0.150541 -1.5724,-0.45162 -0.391525,-0.301083 -0.642011,-0.74031 -0.751472,-1.317716 h -0.07578 c -0.547293,0.5939 -1.134568,1.04758 -1.761845,1.361022 -0.627281,0.31348 -1.382952,0.470194 -2.267038,0.470194 -0.934612,0 -1.70291,-0.280446 -2.304929,-0.841362 -0.602007,-0.560907 -0.903014,-1.29503 -0.903014,-2.202384 0,-0.47019 0.06735,-0.890848 0.202095,-1.262042 0.134705,-0.371195 0.3368,-0.705247 0.606229,-1.002199 0.210486,-0.24745 0.488347,-0.468122 0.83356,-0.661955 0.345191,-0.193856 0.669364,-0.348517 0.97248,-0.463984 0.378894,-0.140223 1.147196,-0.400052 2.304929,-0.779497 1.157733,-0.379412 1.938659,-0.676385 2.342815,-0.890851 v -1.224904 c 0,-0.107227 -0.02305,-0.313446 -0.06947,-0.618646 -0.0463,-0.305199 -0.14525,-0.593898 -0.296812,-0.8661 -0.168381,-0.305203 -0.40625,-0.571222 -0.713581,-0.798054 -0.307319,-0.22684 -0.743047,-0.340255 -1.307178,-0.340255 -0.387311,0 -0.747254,0.06397 -1.07984,0.191781 -0.332604,0.127852 -0.566233,0.261896 -0.700953,0.402114 0,0.164976 0.03999,0.408305 0.119965,0.730008 0.08001,0.321693 0.119964,0.618637 0.119964,0.890848 0,0.288697 -0.132588,0.552653 -0.397833,0.791867 -0.265215,0.239233 -0.633593,0.358823 -1.105106,0.358823 -0.420991,0 -0.730415,-0.146436 -0.928285,-0.439247 -0.197862,-0.292825 -0.296812,-0.620699 -0.296812,-0.983641 0,-0.379442 0.136822,-0.742381 0.410469,-1.088825 0.273643,-0.346442 0.629367,-0.655756 1.0672,-0.927967 0.378893,-0.230956 0.837771,-0.426864 1.37664,-0.587711 0.538872,-0.160852 1.065106,-0.241267 1.57872,-0.241267 0.707269,0 1.324013,0.04743 1.850254,0.142287 0.526245,0.09486 1.004062,0.299011 1.433477,0.612459 0.429412,0.305199 0.755675,0.719688 0.978803,1.243478 0.223148,0.523789 0.334684,1.198108 0.334684,2.02297 0,1.179557 -0.01285,2.225055 -0.03791,3.136536 -0.02532,0.91148 -0.03791,1.907488 -0.03791,2.988068 0,0.321682 0.05685,0.577394 0.170498,0.767115 0.11369,0.189736 0.288383,0.350558 0.524132,0.482557 0.126277,0.07427 0.326255,0.115467 0.599913,0.123744 0.273644,0.0083 0.553602,0.01247 0.839877,0.01247 z M 42.719913,40.72722 c -0.71569,0.206215 -1.342964,0.408273 -1.881833,0.606271 -0.538872,0.197975 -1.039843,0.445414 -1.502939,0.742378 -0.42099,0.280446 -0.753576,0.612454 -0.99775,0.996019 -0.2442,0.38355 -0.366281,0.839294 -0.366281,1.367206 0,0.684637 0.183122,1.187807 0.549395,1.5095 0.366281,0.32172 0.831456,0.482557 1.395587,0.482557 0.597812,0 1.124042,-0.142302 1.578717,-0.426898 0.45467,-0.284529 0.837771,-0.620705 1.149304,-1.00839 z"
     id="path42-3"
     style="fill:#f5f7fa;stroke-width:0.13334;fill-opacity:1" />
  <g
     aria-label="LOG"
     id="text1753"
     style="font-size:2.82217px;line-height:0;font-family:Cantarell;-inkscape-font-specification:Cantarell;letter-spacing:0.206371px;fill:none;stroke:#f5f7fa;stroke-width:0.264578"
     transform="matrix(3.7796,0,0,3.7796,-5.9345184,4.2355253)" />
  <path
     style="fill:#616161;stroke-width:0.901405"
     d="M 53.936482,20.330556 37.669444,4.1468851 V 17.801858 c 0,1.40191 1.134626,2.528698 2.541724,2.528698 z"
     id="path33313" />
</svg>
