<?xml version="1.0" encoding="UTF-8" standalone="no"?>
<svg
   width="64"
   height="64"
   version="1.1"
   id="svg73"
   sodipodi:docname="svg.svg"
   inkscape:version="1.2.2 (1:1.2.2+202212051550+b0a8486541)"
   xmlns:inkscape="http://www.inkscape.org/namespaces/inkscape"
   xmlns:sodipodi="http://sodipodi.sourceforge.net/DTD/sodipodi-0.dtd"
   xmlns="http://www.w3.org/2000/svg"
   xmlns:svg="http://www.w3.org/2000/svg"
   xmlns:rdf="http://www.w3.org/1999/02/22-rdf-syntax-ns#"
   xmlns:cc="http://creativecommons.org/ns#"
   xmlns:dc="http://purl.org/dc/elements/1.1/">
  <metadata
     id="metadata77">
    <rdf:RDF>
      <cc:Work
         rdf:about="">
        <dc:format>image/svg+xml</dc:format>
        <dc:type
           rdf:resource="http://purl.org/dc/dcmitype/StillImage" />
      </cc:Work>
    </rdf:RDF>
  </metadata>
  <sodipodi:namedview
     pagecolor="#f5f7fa"
     bordercolor="#666666"
     borderopacity="1"
     objecttolerance="10"
     gridtolerance="10"
     guidetolerance="10"
     inkscape:pageopacity="0"
     inkscape:pageshadow="2"
     inkscape:window-width="1567"
     inkscape:window-height="750"
     id="namedview75"
     showgrid="false"
     inkscape:zoom="6.2890625"
     inkscape:cx="31.324224"
     inkscape:cy="26.63354"
     inkscape:window-x="126"
     inkscape:window-y="160"
     inkscape:window-maximized="0"
     inkscape:current-layer="svg73"
     inkscape:document-rotation="0"
     inkscape:pagecheckerboard="0"
     inkscape:showpageshadow="2"
     inkscape:deskcolor="#d1d1d1" />
  <defs
     id="defs29">
    <inkscape:path-effect
       effect="powerclip"
       id="path-effect219"
       is_visible="true"
       lpeversion="1"
       inverse="true"
       flatten="false"
       hide_clip="false"
       message="Use fill-rule evenodd on &lt;b&gt;fill and stroke&lt;/b&gt; dialog if no flatten result after convert clip to paths." />
    <linearGradient
       id="b"
       x1="399.57"
       x2="399.57"
       y1="545.8"
       y2="517.8"
       gradientTransform="matrix(2.1429,0,0,2.1429,-828.36,-1107.5)"
       gradientUnits="userSpaceOnUse">
      <stop
         stop-color="#3889e9"
         offset="0"
         id="stop2" />
      <stop
         stop-color="#5ea5fb"
         offset="1"
         id="stop4" />
    </linearGradient>
    <linearGradient
       id="linearGradient862"
       x1="7.9373"
       x2="7.9373"
       y1="15.081"
       y2="1.852"
       gradientTransform="matrix(3.3743 0 0 3.3743 3.4312 3.4278)"
       gradientUnits="userSpaceOnUse">
      <stop
         stop-color="#f1efeb"
         offset="0"
         id="stop7" />
      <stop
         stop-color="#fff"
         offset="1"
         id="stop9" />
    </linearGradient>
    <linearGradient
       id="linearGradient910"
       x1="7.9373"
       x2="7.9373"
       y1="15.081"
       y2="1.852"
       gradientTransform="scale(3.7796)"
       gradientUnits="userSpaceOnUse">
      <stop
         stop-color="#613583"
         offset="0"
         id="stop12" />
      <stop
         stop-color="#a663c0"
         offset="1"
         id="stop14" />
    </linearGradient>
    <linearGradient
       id="linearGradient932"
       x1="379.24"
       x2="374.24"
       y1="546.85"
       y2="546.85"
       gradientTransform="matrix(2.1429 0 0 2.1429 -769.68 -1134.5)"
       gradientUnits="userSpaceOnUse">
      <stop
         stop-color="#f6f5f4"
         offset="0"
         id="stop17" />
      <stop
         stop-color="#fff"
         offset=".6"
         id="stop19" />
      <stop
         stop-color="#dddbd8"
         offset="1"
         id="stop21" />
    </linearGradient>
    <linearGradient
       id="linearGradient1146"
       x1="18"
       x2="18"
       y1="52"
       y2="12"
       gradientUnits="userSpaceOnUse">
      <stop
         stop-color="#5e337f"
         offset="0"
         id="stop24" />
      <stop
         stop-color="#ab60bf"
         offset="1"
         id="stop26" />
    </linearGradient>
    <clipPath
       clipPathUnits="userSpaceOnUse"
       id="clipPath215">
      <rect
         x="7.0022998"
         y="12.552417"
         width="49.998001"
         height="38.433922"
         rx="10"
         ry="7.6870914"
         fill="url(#linearGradient862)"
         stroke-width="2.95845"
         id="rect217"
         style="display:block;fill:#333333;fill-opacity:1" />
    </clipPath>
    <filter
       style="color-interpolation-filters:sRGB;"
       inkscape:label="Drop Shadow"
       id="filter196"
       x="-0.085711225"
       y="-0.1115002"
       width="1.2071355"
       height="1.2694588">
      <feFlood
         flood-opacity="0.301961"
         flood-color="rgb(0,0,0)"
         result="flood"
         id="feFlood186" />
      <feComposite
         in="flood"
         in2="SourceGraphic"
         operator="in"
         result="composite1"
         id="feComposite188" />
      <feGaussianBlur
         in="composite1"
         stdDeviation="2"
         result="blur"
         id="feGaussianBlur190" />
      <feOffset
         dx="2"
         dy="2"
         result="offset"
         id="feOffset192" />
      <feComposite
         in="SourceGraphic"
         in2="offset"
         operator="over"
         result="composite2"
         id="feComposite194" />
    </filter>
  </defs>
  <rect
     style="fill:#578376;stroke:none;stroke-width:0.964032"
     id="rect17822"
     width="56.219391"
     height="37.087601"
     x="4.1119566"
     y="13.417299"
     rx="4.7419209"
     ry="3.8988407" />
  <g
     id="g6010"
     transform="translate(2.142236)"
     style="fill:#f5f7fa">
    <path
       style="fill:#f5f7fa;stroke-width:0.770277"
       d="m 14.348221,22.672303 v 11.234224 a 3.8079023,3.8953618 0 0 0 -1.523161,-0.327211 3.8079023,3.8953618 0 0 0 -3.807902,3.895362 3.8079023,3.8953618 0 0 0 3.807902,3.895362 3.8079023,3.8953618 0 0 0 3.804933,-3.823843 l 0.003,-0.0062 V 27.346582 h 8.377385 v 6.559711 a 3.8079023,3.8953618 0 0 0 -1.523161,-0.32721 3.8079023,3.8953618 0 0 0 -3.807902,3.895362 3.8079023,3.8953618 0 0 0 3.807902,3.895361 3.8079023,3.8953618 0 0 0 3.798992,-3.700593 l 0.0091,-0.01792 V 22.67207 H 14.348526 Z"
       id="path10" />
    <path
       fill="#f5f7fa"
       d="m 50.067687,23.95009 h -19.26632 v -1.452397 h 19.26632 z m 0,8.714387 H 30.801367 V 31.21208 h 19.26632 z m 0,8.714387 h -19.26632 v -1.452398 h 19.26632 z"
       id="path42-3"
       style="fill:#f5f7fa;stroke-width:0.176721"
       sodipodi:nodetypes="ccccccccccccccc" />
  </g>
  <circle
     cx="30.02"
     cy="32.043999"
     r="0"
     fill="url(#b)"
     stroke-width="1.5715"
     id="circle41"
     style="fill:url(#b)" />
</svg>
