<?xml version="1.0" encoding="UTF-8" standalone="no"?>
<svg
   width="64"
   height="64"
   version="1.1"
   id="svg33319"
   sodipodi:docname="jhg.svg"
   inkscape:version="1.2.2 (1:1.2.2+202212051550+b0a8486541)"
   xmlns:inkscape="http://www.inkscape.org/namespaces/inkscape"
   xmlns:sodipodi="http://sodipodi.sourceforge.net/DTD/sodipodi-0.dtd"
   xmlns="http://www.w3.org/2000/svg"
   xmlns:svg="http://www.w3.org/2000/svg">
  <defs
     id="defs33323">
    <inkscape:path-effect
       effect="powerclip"
       id="path-effect865"
       is_visible="true"
       lpeversion="1"
       inverse="true"
       flatten="false"
       hide_clip="false"
       message="Use fill-rule evenodd on &lt;b&gt;fill and stroke&lt;/b&gt; dialog if no flatten result after convert clip to paths." />
    <clipPath
       clipPathUnits="userSpaceOnUse"
       id="clipPath861">
      <path
         style="display:none;fill:#616161"
         d="M 54,22 36,4 V 19.1875 C 36,20.74675 37.2555,22 38.8125,22 Z"
         id="path863" />
      <path
         id="lpe_path-effect865"
         style="fill:#616161"
         class="powerclip"
         d="M 5,-1 H 59 V 65 H 5 Z M 54,22 36,4 V 19.1875 C 36,20.74675 37.2555,22 38.8125,22 Z" />
    </clipPath>
  </defs>
  <sodipodi:namedview
     id="namedview33321"
     pagecolor="#f5f7fa"
     bordercolor="#111111"
     borderopacity="1"
     inkscape:showpageshadow="0"
     inkscape:pageopacity="0"
     inkscape:pagecheckerboard="1"
     inkscape:deskcolor="#d1d1d1"
     showgrid="false"
     inkscape:zoom="12.953125"
     inkscape:cx="32.115802"
     inkscape:cy="38.253317"
     inkscape:window-width="1489"
     inkscape:window-height="738"
     inkscape:window-x="328"
     inkscape:window-y="254"
     inkscape:window-maximized="0"
     inkscape:current-layer="svg33319" />
  <path
     style="fill:#578376"
     d="M 12.75,4 C 11.2265,4 10,5.2488 10,6.8 v 50.4 c 0,1.55008 1.2265,2.8 2.75,2.8 h 38.5 C 52.7724,60 54,58.75008 54,57.2 V 22 L 40,18 36,4 Z"
     id="path33309"
     clip-path="url(#clipPath861)"
     inkscape:path-effect="#path-effect865"
     inkscape:original-d="M 12.75,4 C 11.2265,4 10,5.2488 10,6.8 v 50.4 c 0,1.55008 1.2265,2.8 2.75,2.8 h 38.5 C 52.7724,60 54,58.75008 54,57.2 V 22 L 40,18 36,4 Z" />
  <path
     style="fill:#f5f7fa;stroke-width:0.999999"
     d="m 32.224946,25.465718 c -0.470342,9.37e-4 -0.94034,0.02559 -1.408205,0.07382 -0.444878,0.04476 -0.883466,0.11123 -1.315233,0.196875 -0.01928,0.0027 -0.03829,0.0055 -0.05745,0.0083 -0.405849,0.08225 -0.802496,0.189573 -1.19492,0.306249 -0.05567,0.01425 -0.111271,0.0288 -0.166794,0.04375 -0.442602,0.137578 -0.876077,0.293826 -1.298829,0.473046 -0.417657,0.176885 -0.826474,0.373995 -1.224999,0.590597 -0.790522,0.430233 -1.53773,0.935699 -2.231234,1.509375 -0.346083,0.285567 -0.678236,0.587611 -0.995311,0.905078 -0.302372,0.302901 -0.590697,0.619511 -0.864063,0.948827 -0.01614,0.01939 -0.03318,0.03795 -0.04922,0.05743 -0.221088,0.273606 -0.431783,0.555446 -0.63164,0.844922 -0.07099,0.100632 -0.144895,0.198236 -0.213283,0.30078 -0.151943,0.232612 -0.296929,0.469696 -0.434765,0.710938 -0.09706,0.166114 -0.196781,0.330039 -0.287109,0.50039 -0.112372,0.216832 -0.219047,0.43657 -0.319921,0.658984 -0.09369,0.201536 -0.18647,0.403203 -0.270702,0.609765 -0.08357,0.21134 -0.161975,0.424686 -0.235156,0.639844 -0.07962,0.226383 -0.158849,0.452104 -0.226953,0.683593 -0.05747,0.202946 -0.11035,0.407164 -0.158596,0.612499 -0.05979,0.243754 -0.12001,0.487024 -0.166798,0.735548 -0.04158,0.235118 -0.07714,0.471264 -0.106637,0.708203 -0.02978,0.219773 -0.05989,0.438878 -0.0793,0.661718 -0.03869,0.405384 -0.05967,0.812262 -0.06289,1.219475 9.35e-4,0.470344 0.02559,0.940339 0.07382,1.408205 0.240708,2.392536 1.088409,4.608099 2.384375,6.494139 0.01191,0.01739 0.02359,0.03477 0.03557,0.05197 0.100311,0.144116 0.203324,0.286305 0.308982,0.426562 7.43e-4,-0.0045 0.002,-0.0091 0.0028,-0.01361 2.556536,3.410337 6.617271,5.632863 11.194474,5.632863 2.629151,0 5.083884,-0.742272 7.188675,-2.009768 l 0.0028,0.0028 c 0.02835,-0.0189 0.05658,-0.03817 0.08478,-0.05745 0.333928,-0.204438 0.658629,-0.419913 0.973436,-0.650782 0.07253,-0.05307 0.144532,-0.10685 0.216004,-0.161314 0.276402,-0.210977 0.544123,-0.431222 0.803906,-0.661717 0.105337,-0.09411 0.209276,-0.189849 0.311703,-0.287098 0.21642,-0.203948 0.425765,-0.41446 0.628907,-0.63164 0.120947,-0.12809 0.239438,-0.258449 0.355471,-0.391018 0.190832,-0.219973 0.372556,-0.446514 0.549611,-0.678125 0.09695,-0.125067 0.191739,-0.251797 0.284377,-0.380076 0.186032,-0.261133 0.359591,-0.529979 0.527734,-0.803906 0.06996,-0.111158 0.138296,-0.223261 0.205081,-0.336309 0.16653,-0.289215 0.318885,-0.587009 0.464842,-0.888671 0.05719,-0.114975 0.112783,-0.230744 0.166794,-0.347269 0.13085,-0.290652 0.247034,-0.587996 0.358192,-0.888671 0.05428,-0.142227 0.106245,-0.28536 0.155871,-0.429299 0.09646,-0.28997 0.179418,-0.585233 0.257013,-0.883205 0.04074,-0.149748 0.07903,-0.300214 0.114786,-0.451228 0.06335,-0.281693 0.112595,-0.568115 0.158592,-0.85586 0.03213,-0.18898 0.0604,-0.378606 0.08478,-0.56875 0.0291,-0.246581 0.04418,-0.496224 0.06017,-0.746486 0.02495,-0.297455 0.04052,-0.595674 0.04649,-0.89414 0,-0.472031 -0.02532,-0.937058 -0.07109,-1.397266 l -0.0028,-0.01092 c -0.04475,-0.444879 -0.111233,-0.883467 -0.196879,-1.315233 -0.0038,-0.01882 -0.0042,-0.03861 -0.0083,-0.05743 -0.08224,-0.40585 -0.189585,-0.802494 -0.306261,-1.194921 -0.01587,-0.05298 -0.02457,-0.108611 -0.04101,-0.161329 l -0.0057,-0.01912 c -0.136448,-0.438174 -0.2927,-0.866778 -0.470137,-1.285318 -0.176912,-0.417659 -0.374018,-0.826475 -0.590623,-1.224999 -0.430232,-0.790537 -0.935697,-1.537745 -1.509376,-2.231249 -0.285568,-0.346083 -0.587611,-0.678238 -0.905078,-0.995312 -0.302901,-0.302373 -0.61951,-0.590697 -0.948827,-0.864063 -0.0155,-0.01372 -0.03099,-0.02736 -0.04649,-0.04102 -0.0035,-0.0029 -0.0076,-0.0053 -0.01096,-0.0083 -0.273605,-0.221065 -0.555442,-0.431761 -0.844918,-0.631618 -0.100651,-0.07099 -0.19824,-0.144895 -0.300781,-0.213283 -0.232596,-0.15194 -0.469645,-0.296922 -0.710859,-0.434754 -0.166114,-0.09706 -0.330035,-0.196785 -0.500389,-0.28711 -0.216836,-0.112371 -0.43657,-0.219047 -0.658985,-0.319921 -0.201528,-0.09369 -0.4032,-0.186466 -0.609763,-0.270702 -0.211317,-0.08355 -0.424626,-0.161941 -0.63975,-0.235106 -0.226398,-0.07962 -0.452104,-0.158846 -0.683593,-0.226954 -0.202965,-0.05747 -0.407169,-0.110349 -0.612503,-0.158592 -0.243709,-0.05978 -0.486983,-0.119998 -0.735507,-0.166786 -0.235129,-0.04158 -0.471263,-0.07714 -0.708202,-0.106638 -0.219784,-0.02978 -0.438876,-0.05989 -0.661718,-0.0793 -0.405403,-0.03869 -0.8123,-0.05967 -1.219533,-0.06289 z m -2.127342,2.020702 1.891174,4.440624 3.236165,-2.748045 v 7.678122 l 7.500004,6.108594 -2.305076,1.532851 -6.406641,-0.06561 3.587502,4.865593 c -1.594549,0.870986 -3.424824,1.36719 -5.375786,1.36719 -4.666904,0 -8.649026,-2.830867 -10.335936,-6.874219 0.882954,-3.41135 2.201729,-6.704907 4.090622,-8.542205 0.805814,-2.965461 2.378275,-5.420017 4.117972,-7.762891 z m 2.227501,10.579295 10e-4,1.192186 2.698827,0.207814 c -0.347235,-0.839351 -1.102229,-1.225981 -2.69984,-1.4 z"
     id="path14" />
  <g
     aria-label="LOG"
     id="text1753"
     style="font-size:2.82217px;line-height:0;font-family:Cantarell;-inkscape-font-specification:Cantarell;letter-spacing:0.206371px;fill:none;stroke:#f5f7fa;stroke-width:0.264578"
     transform="matrix(3.7796,0,0,3.7796,-5.9345184,4.2355253)" />
  <path
     style="fill:#616161;stroke-width:0.901405"
     d="M 53.936482,20.330556 37.669444,4.1468851 V 17.801858 c 0,1.40191 1.134626,2.528698 2.541724,2.528698 z"
     id="path33313" />
</svg>
