<?xml version="1.0" encoding="UTF-8" standalone="no"?>
<svg
   width="64"
   height="64"
   version="1.1"
   id="svg73"
   sodipodi:docname="image-png.svg"
   inkscape:version="1.2.2 (1:1.2.2+202212051550+b0a8486541)"
   xmlns:inkscape="http://www.inkscape.org/namespaces/inkscape"
   xmlns:sodipodi="http://sodipodi.sourceforge.net/DTD/sodipodi-0.dtd"
   xmlns="http://www.w3.org/2000/svg"
   xmlns:svg="http://www.w3.org/2000/svg"
   xmlns:rdf="http://www.w3.org/1999/02/22-rdf-syntax-ns#"
   xmlns:cc="http://creativecommons.org/ns#"
   xmlns:dc="http://purl.org/dc/elements/1.1/">
  <metadata
     id="metadata77">
    <rdf:RDF>
      <cc:Work
         rdf:about="">
        <dc:format>image/svg+xml</dc:format>
        <dc:type
           rdf:resource="http://purl.org/dc/dcmitype/StillImage" />
      </cc:Work>
    </rdf:RDF>
  </metadata>
  <sodipodi:namedview
     pagecolor="#f5f7fa"
     bordercolor="#666666"
     borderopacity="1"
     objecttolerance="10"
     gridtolerance="10"
     guidetolerance="10"
     inkscape:pageopacity="0"
     inkscape:pageshadow="2"
     inkscape:window-width="1567"
     inkscape:window-height="750"
     id="namedview75"
     showgrid="false"
     inkscape:zoom="6.2890625"
     inkscape:cx="31.165217"
     inkscape:cy="26.63354"
     inkscape:window-x="126"
     inkscape:window-y="160"
     inkscape:window-maximized="0"
     inkscape:current-layer="svg73"
     inkscape:document-rotation="0"
     inkscape:pagecheckerboard="0"
     inkscape:showpageshadow="2"
     inkscape:deskcolor="#d1d1d1" />
  <defs
     id="defs29">
    <inkscape:path-effect
       effect="powerclip"
       id="path-effect219"
       is_visible="true"
       lpeversion="1"
       inverse="true"
       flatten="false"
       hide_clip="false"
       message="Use fill-rule evenodd on &lt;b&gt;fill and stroke&lt;/b&gt; dialog if no flatten result after convert clip to paths." />
    <linearGradient
       id="b"
       x1="399.57"
       x2="399.57"
       y1="545.8"
       y2="517.8"
       gradientTransform="matrix(2.1429,0,0,2.1429,-828.36,-1107.5)"
       gradientUnits="userSpaceOnUse">
      <stop
         stop-color="#3889e9"
         offset="0"
         id="stop2" />
      <stop
         stop-color="#5ea5fb"
         offset="1"
         id="stop4" />
    </linearGradient>
    <linearGradient
       id="linearGradient862"
       x1="7.9373"
       x2="7.9373"
       y1="15.081"
       y2="1.852"
       gradientTransform="matrix(3.3743 0 0 3.3743 3.4312 3.4278)"
       gradientUnits="userSpaceOnUse">
      <stop
         stop-color="#f1efeb"
         offset="0"
         id="stop7" />
      <stop
         stop-color="#fff"
         offset="1"
         id="stop9" />
    </linearGradient>
    <linearGradient
       id="linearGradient910"
       x1="7.9373"
       x2="7.9373"
       y1="15.081"
       y2="1.852"
       gradientTransform="scale(3.7796)"
       gradientUnits="userSpaceOnUse">
      <stop
         stop-color="#613583"
         offset="0"
         id="stop12" />
      <stop
         stop-color="#a663c0"
         offset="1"
         id="stop14" />
    </linearGradient>
    <linearGradient
       id="linearGradient932"
       x1="379.24"
       x2="374.24"
       y1="546.85"
       y2="546.85"
       gradientTransform="matrix(2.1429 0 0 2.1429 -769.68 -1134.5)"
       gradientUnits="userSpaceOnUse">
      <stop
         stop-color="#f6f5f4"
         offset="0"
         id="stop17" />
      <stop
         stop-color="#fff"
         offset=".6"
         id="stop19" />
      <stop
         stop-color="#dddbd8"
         offset="1"
         id="stop21" />
    </linearGradient>
    <linearGradient
       id="linearGradient1146"
       x1="18"
       x2="18"
       y1="52"
       y2="12"
       gradientUnits="userSpaceOnUse">
      <stop
         stop-color="#5e337f"
         offset="0"
         id="stop24" />
      <stop
         stop-color="#ab60bf"
         offset="1"
         id="stop26" />
    </linearGradient>
    <clipPath
       clipPathUnits="userSpaceOnUse"
       id="clipPath215">
      <rect
         x="7.0022998"
         y="12.552417"
         width="49.998001"
         height="38.433922"
         rx="10"
         ry="7.6870914"
         fill="url(#linearGradient862)"
         stroke-width="2.95845"
         id="rect217"
         style="display:block;fill:#333333;fill-opacity:1" />
    </clipPath>
    <filter
       style="color-interpolation-filters:sRGB;"
       inkscape:label="Drop Shadow"
       id="filter196"
       x="-0.085711225"
       y="-0.1115002"
       width="1.2071355"
       height="1.2694588">
      <feFlood
         flood-opacity="0.301961"
         flood-color="rgb(0,0,0)"
         result="flood"
         id="feFlood186" />
      <feComposite
         in="flood"
         in2="SourceGraphic"
         operator="in"
         result="composite1"
         id="feComposite188" />
      <feGaussianBlur
         in="composite1"
         stdDeviation="2"
         result="blur"
         id="feGaussianBlur190" />
      <feOffset
         dx="2"
         dy="2"
         result="offset"
         id="feOffset192" />
      <feComposite
         in="SourceGraphic"
         in2="offset"
         operator="over"
         result="composite2"
         id="feComposite194" />
    </filter>
  </defs>
  <rect
     style="fill:#578376;stroke:none;stroke-width:0.964032"
     id="rect17822"
     width="56.219391"
     height="37.087601"
     x="4.1119566"
     y="13.417299"
     rx="4.7419209"
     ry="3.8988407" />
  <g
     id="g8447"
     style="fill:#f5f7fa"
     transform="matrix(0.68396457,0,0,0.68396457,9.8512902,10.404111)">
    <g
       id="g6292"
       transform="matrix(0.9,0,0,0.9,3.2385868,3.1822498)"
       style="fill:#f5f7fa">
      <path
         d="m 23.314637,41.487873 c -1.85289,-1.206184 -3.7142,-0.42485 -4.623801,0.566467 -0.913812,0.986433 -1.520212,3.247417 -2.556146,5.366784 -1.035933,2.114484 -4.383767,6.065101 -4.383767,6.065101 0,0 3.402578,0.229518 5.234412,0 3.347835,-0.42485 5.845024,-2.119367 6.817791,-3.672267 0.972767,-1.5529 1.09489,-3.672267 1.09489,-3.672267 0,0 0.547444,-3.266951 -1.583379,-4.653818 z"
         id="path4"
         style="fill:#f5f7fa;stroke-width:0.0453478" />
      <path
         d="m 26.965672,33.723371 4.809089,6.069985 -5.7229,3.950618 -3.044635,-4.375467 z"
         id="path6"
         style="fill:#f5f7fa;stroke-width:0.0453478" />
      <path
         d="m 52.897701,10.151516 c -1.035933,-1.1329331 -12.692292,8.218652 -15.286338,10.71892 -3.133068,3.0179 -10.220369,11.798135 -10.220369,11.798135 l 5.293368,6.494835 c 0,0 6.678824,-5.581651 11.344736,-11.612569 4.181635,-5.400968 9.904537,-16.27127 8.868603,-17.399321 z"
         id="path8"
         style="fill:#f5f7fa;stroke-width:0.0453478" />
    </g>
  </g>
  <circle
     cx="30.02"
     cy="32.043999"
     r="0"
     fill="url(#b)"
     stroke-width="1.5715"
     id="circle41"
     style="fill:url(#b)" />
</svg>
