<?xml version="1.0" encoding="UTF-8" standalone="no"?>
<svg
   width="64"
   height="64"
   version="1.1"
   id="svg33319"
   sodipodi:docname="application-x-kword.svg"
   inkscape:version="1.2.2 (1:1.2.2+202212051550+b0a8486541)"
   xmlns:inkscape="http://www.inkscape.org/namespaces/inkscape"
   xmlns:sodipodi="http://sodipodi.sourceforge.net/DTD/sodipodi-0.dtd"
   xmlns="http://www.w3.org/2000/svg"
   xmlns:svg="http://www.w3.org/2000/svg">
  <defs
     id="defs33323">
    <inkscape:path-effect
       effect="powerclip"
       id="path-effect865"
       is_visible="true"
       lpeversion="1"
       inverse="true"
       flatten="false"
       hide_clip="false"
       message="Use fill-rule evenodd on &lt;b&gt;fill and stroke&lt;/b&gt; dialog if no flatten result after convert clip to paths." />
    <clipPath
       clipPathUnits="userSpaceOnUse"
       id="clipPath861">
      <path
         style="display:none;fill:#616161"
         d="M 54,22 36,4 V 19.1875 C 36,20.74675 37.2555,22 38.8125,22 Z"
         id="path863" />
      <path
         id="lpe_path-effect865"
         style="fill:#616161"
         class="powerclip"
         d="M 5,-1 H 59 V 65 H 5 Z M 54,22 36,4 V 19.1875 C 36,20.74675 37.2555,22 38.8125,22 Z" />
    </clipPath>
  </defs>
  <sodipodi:namedview
     id="namedview33321"
     pagecolor="#f5f7fa"
     bordercolor="#111111"
     borderopacity="1"
     inkscape:showpageshadow="0"
     inkscape:pageopacity="0"
     inkscape:pagecheckerboard="1"
     inkscape:deskcolor="#d1d1d1"
     showgrid="false"
     inkscape:zoom="12.953125"
     inkscape:cx="32.154403"
     inkscape:cy="38.214717"
     inkscape:window-width="1489"
     inkscape:window-height="738"
     inkscape:window-x="328"
     inkscape:window-y="254"
     inkscape:window-maximized="0"
     inkscape:current-layer="svg33319" />
  <path
     style="fill:#578376"
     d="M 12.75,4 C 11.2265,4 10,5.2488 10,6.8 v 50.4 c 0,1.55008 1.2265,2.8 2.75,2.8 h 38.5 C 52.7724,60 54,58.75008 54,57.2 V 22 L 40,18 36,4 Z"
     id="path33309"
     clip-path="url(#clipPath861)"
     inkscape:path-effect="#path-effect865"
     inkscape:original-d="M 12.75,4 C 11.2265,4 10,5.2488 10,6.8 v 50.4 c 0,1.55008 1.2265,2.8 2.75,2.8 h 38.5 C 52.7724,60 54,58.75008 54,57.2 V 22 L 40,18 36,4 Z" />
  <g
     aria-label="TEX"
     id="text1753"
     style="font-size:2.82217px;line-height:0;font-family:Cantarell;-inkscape-font-specification:Cantarell;letter-spacing:0.264578px;fill:#616161;stroke:#f5f7fa;stroke-width:0.264578;stroke-opacity:1"
     transform="matrix(3.40164,0,0,3.40164,-2.4520238,7.0692974)">
    <path
       d="M 7.1300307,7.3679795 H 7.3642708 V 5.6125898 H 8.0190143 V 5.4093935 H 6.4781095 v 0.2031963 h 0.6519212 z"
       id="path2127"
       style="stroke:#f5f7fa;stroke-opacity:1" />
    <path
       d="M 8.5714538,7.3679795 H 9.80192 V 7.1647833 H 8.8056939 V 6.4564186 H 9.7257214 V 6.2532224 H 8.8056939 V 5.6125898 H 9.80192 V 5.4093935 H 8.5714538 Z"
       id="path2129"
       style="stroke:#f5f7fa;stroke-opacity:1" />
    <path
       d="m 11.613046,7.3679795 h 0.279395 L 11.181254,6.3407096 11.819065,5.4093935 h -0.265284 l -0.49388,0.7478751 -0.485413,-0.7478751 h -0.279395 l 0.634988,0.9426048 -0.691431,1.0159812 h 0.265284 l 0.547501,-0.8353623 z"
       id="path2131"
       style="stroke:#f5f7fa;stroke-opacity:1" />
  </g>
  <path
     fill="#f5f7fa"
     d="m 45.512157,36.503637 v 1.36982 H 18.871755 v -1.36982 z m 0,6.8491 v 1.369822 H 18.871755 v -1.369822 z m 0,6.8491 v 1.369822 H 18.871755 v -1.369822 z"
     id="path42"
     style="fill:#f5f7fa;stroke-width:0.142703"
     sodipodi:nodetypes="ccccccccccccccc" />
  <path
     style="fill:#616161;stroke-width:0.901405"
     d="M 53.936482,20.330556 37.669444,4.1468851 V 17.801858 c 0,1.40191 1.134626,2.528698 2.541724,2.528698 z"
     id="path33313" />
</svg>
