<?xml version="1.0" encoding="UTF-8" standalone="no"?>
<svg
   width="64"
   height="64"
   version="1.1"
   id="svg33319"
   sodipodi:docname="application-x-musescore.svg"
   inkscape:version="1.2.2 (1:1.2.2+202212051550+b0a8486541)"
   xmlns:inkscape="http://www.inkscape.org/namespaces/inkscape"
   xmlns:sodipodi="http://sodipodi.sourceforge.net/DTD/sodipodi-0.dtd"
   xmlns="http://www.w3.org/2000/svg"
   xmlns:svg="http://www.w3.org/2000/svg">
  <defs
     id="defs33323">
    <inkscape:path-effect
       effect="powerclip"
       id="path-effect865"
       is_visible="true"
       lpeversion="1"
       inverse="true"
       flatten="false"
       hide_clip="false"
       message="Use fill-rule evenodd on &lt;b&gt;fill and stroke&lt;/b&gt; dialog if no flatten result after convert clip to paths." />
    <clipPath
       clipPathUnits="userSpaceOnUse"
       id="clipPath861">
      <path
         style="display:none;fill:#616161"
         d="M 54,22 36,4 V 19.1875 C 36,20.74675 37.2555,22 38.8125,22 Z"
         id="path863" />
      <path
         id="lpe_path-effect865"
         style="fill:#616161"
         class="powerclip"
         d="M 5,-1 H 59 V 65 H 5 Z M 54,22 36,4 V 19.1875 C 36,20.74675 37.2555,22 38.8125,22 Z" />
    </clipPath>
  </defs>
  <sodipodi:namedview
     id="namedview33321"
     pagecolor="#f5f7fa"
     bordercolor="#111111"
     borderopacity="1"
     inkscape:showpageshadow="0"
     inkscape:pageopacity="0"
     inkscape:pagecheckerboard="1"
     inkscape:deskcolor="#d1d1d1"
     showgrid="false"
     inkscape:zoom="12.953125"
     inkscape:cx="32.231604"
     inkscape:cy="38.369119"
     inkscape:window-width="1489"
     inkscape:window-height="738"
     inkscape:window-x="336"
     inkscape:window-y="212"
     inkscape:window-maximized="0"
     inkscape:current-layer="svg33319" />
  <path
     style="fill:#578376"
     d="M 12.75,4 C 11.2265,4 10,5.2488 10,6.8 v 50.4 c 0,1.55008 1.2265,2.8 2.75,2.8 h 38.5 C 52.7724,60 54,58.75008 54,57.2 V 22 L 40,18 36,4 Z"
     id="path33309"
     clip-path="url(#clipPath861)"
     inkscape:path-effect="#path-effect865"
     inkscape:original-d="M 12.75,4 C 11.2265,4 10,5.2488 10,6.8 v 50.4 c 0,1.55008 1.2265,2.8 2.75,2.8 h 38.5 C 52.7724,60 54,58.75008 54,57.2 V 22 L 40,18 36,4 Z" />
  <g
     aria-label="PATCH"
     id="text1753"
     style="font-size:2.11663px;line-height:0;font-family:Cantarell;-inkscape-font-specification:Cantarell;letter-spacing:0.193142px;fill:#f5f7fa;fill-opacity:1;stroke:#f5f7fa;stroke-width:0.264578;stroke-opacity:1"
     transform="matrix(3.557205,3.557205,-3.557205,3.557205,19.443683,-20.387724)"
     inkscape:transform-center-x="-2.5046366"
     inkscape:transform-center-y="0.077201448">
    <path
       d="M 6.6446177,7.3679795 H 6.820298 V 6.855755 h 0.2497624 c 0.3280776,0 0.5482072,-0.1947299 0.5482072,-0.4889415 0,-0.2815118 -0.2074298,-0.4677752 -0.5164578,-0.4677752 H 6.6446177 Z M 6.820298,6.7033577 V 6.0514356 h 0.2603455 c 0.2137797,0 0.3577105,0.1396976 0.3577105,0.3471274 0,0.1989632 -0.1185313,0.3047947 -0.3365442,0.3047947 z"
       id="path2544"
       style="fill:#f5f7fa;fill-opacity:1;stroke:#f5f7fa;stroke-opacity:1" />
    <path
       d="M 7.9066583,7.3679795 H 8.0908051 L 8.2474357,6.9319537 H 8.8591418 L 9.0051893,7.3679795 H 9.2020359 L 8.6855782,5.8990383 H 8.4569821 Z M 8.3003515,6.7795564 8.560697,6.049319 8.8062261,6.7795564 Z"
       id="path2546"
       style="fill:#f5f7fa;fill-opacity:1;stroke:#f5f7fa;stroke-opacity:1" />
    <path
       d="m 9.920101,7.3679795 h 0.17568 V 6.0514356 h 0.491058 V 5.8990383 H 9.4311595 V 6.0514356 H 9.920101 Z"
       id="path2548"
       style="fill:#f5f7fa;fill-opacity:1;stroke:#f5f7fa;stroke-opacity:1" />
    <path
       d="m 11.639333,7.3891458 c 0.141814,0 0.289978,-0.031749 0.429676,-0.093132 l -0.04022,-0.1291144 c -0.105832,0.042333 -0.237063,0.067732 -0.349244,0.067732 -0.351361,0 -0.58419,-0.2497623 -0.58419,-0.6244058 0,-0.3577105 0.21378,-0.5757234 0.567257,-0.5757234 0.118531,0 0.251879,0.0254 0.36406,0.067732 l 0.0508,-0.131231 c -0.107948,-0.057149 -0.260345,-0.091015 -0.404276,-0.091015 -0.455075,0 -0.757754,0.309028 -0.757754,0.7704533 0,0.4423757 0.289979,0.7387039 0.723888,0.7387039 z"
       id="path2550"
       style="fill:#f5f7fa;fill-opacity:1;stroke:#f5f7fa;stroke-opacity:1" />
    <path
       d="m 12.554247,7.3679795 h 0.17568 V 6.684308 h 0.78527 v 0.6836715 h 0.17568 V 5.8990383 h -0.17568 v 0.6328723 h -0.78527 V 5.8990383 h -0.17568 z"
       id="path2552"
       style="fill:#f5f7fa;fill-opacity:1;stroke:#f5f7fa;stroke-opacity:1" />
  </g>
  <g
     id="g472"
     transform="matrix(0.72899999,0,0,0.72899999,10.429647,19.550346)"
     style="stroke:#616161">
    <g
       id="g11814"
       style="stroke:#616161" />
  </g>
  <path
     style="fill:#616161;stroke-width:0.901405"
     d="M 53.936482,20.330556 37.669444,4.1468851 V 17.801858 c 0,1.40191 1.134626,2.528698 2.541724,2.528698 z"
     id="path33313" />
</svg>
