<?xml version="1.0" encoding="UTF-8" standalone="no"?>
<svg
   width="64"
   height="64"
   version="1.1"
   id="svg33319"
   sodipodi:docname="application-bitwig-clip.svg"
   inkscape:version="1.2.2 (1:1.2.2+202212051550+b0a8486541)"
   xmlns:inkscape="http://www.inkscape.org/namespaces/inkscape"
   xmlns:sodipodi="http://sodipodi.sourceforge.net/DTD/sodipodi-0.dtd"
   xmlns="http://www.w3.org/2000/svg"
   xmlns:svg="http://www.w3.org/2000/svg">
  <defs
     id="defs33323">
    <inkscape:path-effect
       effect="powerclip"
       id="path-effect865"
       is_visible="true"
       lpeversion="1"
       inverse="true"
       flatten="false"
       hide_clip="false"
       message="Use fill-rule evenodd on &lt;b&gt;fill and stroke&lt;/b&gt; dialog if no flatten result after convert clip to paths." />
    <clipPath
       clipPathUnits="userSpaceOnUse"
       id="clipPath861">
      <path
         style="display:none;fill:#616161"
         d="M 54,22 36,4 V 19.1875 C 36,20.74675 37.2555,22 38.8125,22 Z"
         id="path863" />
      <path
         id="lpe_path-effect865"
         style="fill:#616161"
         class="powerclip"
         d="M 5,-1 H 59 V 65 H 5 Z M 54,22 36,4 V 19.1875 C 36,20.74675 37.2555,22 38.8125,22 Z" />
    </clipPath>
  </defs>
  <sodipodi:namedview
     id="namedview33321"
     pagecolor="#f5f7fa"
     bordercolor="#111111"
     borderopacity="1"
     inkscape:showpageshadow="0"
     inkscape:pageopacity="0"
     inkscape:pagecheckerboard="1"
     inkscape:deskcolor="#d1d1d1"
     showgrid="false"
     inkscape:zoom="12.953125"
     inkscape:cx="32.115802"
     inkscape:cy="38.253317"
     inkscape:window-width="1489"
     inkscape:window-height="738"
     inkscape:window-x="235"
     inkscape:window-y="170"
     inkscape:window-maximized="0"
     inkscape:current-layer="svg33319" />
  <path
     style="fill:#578376"
     d="M 12.75,4 C 11.2265,4 10,5.2488 10,6.8 v 50.4 c 0,1.55008 1.2265,2.8 2.75,2.8 h 38.5 C 52.7724,60 54,58.75008 54,57.2 V 22 L 40,18 36,4 Z"
     id="path33309"
     clip-path="url(#clipPath861)"
     inkscape:path-effect="#path-effect865"
     inkscape:original-d="M 12.75,4 C 11.2265,4 10,5.2488 10,6.8 v 50.4 c 0,1.55008 1.2265,2.8 2.75,2.8 h 38.5 C 52.7724,60 54,58.75008 54,57.2 V 22 L 40,18 36,4 Z" />
  <path
     style="fill:#f5f7fa;stroke-width:0.999999"
     d="m 31.93391,24.474365 c -7.732,0 -14,6.268 -14,14 0,7.731998 6.268,13.999996 14,13.999996 7.732007,0 14.000005,-6.267998 14.000005,-13.999996 0,-7.732 -6.267998,-14 -14.000005,-14 z m -1.402344,2.675782 c 0.163222,-0.01701 0.370476,0.0098 0.535156,0 0.01962,0.07808 -0.118521,0.355177 -0.304689,0.761718 -1.185385,2.589588 -1.252489,5.625102 -0.15234,7.246094 0.199079,0.293898 0.378906,0.573014 0.378906,0.609374 0,0.03632 -0.214273,0.07422 -0.457032,0.07422 -0.569884,0 -1.109058,-0.346211 -2.210938,-1.21875 -0.489493,-0.38761 -1.124553,-0.71244 -1.371093,-0.76172 -0.387146,-0.07734 -0.491348,-0.04386 -0.992186,0.457032 -0.465986,0.465902 -0.609376,0.71801 -0.609376,1.144532 0,1.617432 1.919072,2.899672 5.488282,3.656254 4.847123,1.027316 6.042085,1.951201 6.175781,4.499993 0.167852,3.196117 -1.534699,5.606954 -5.26172,7.472655 -0.444843,0.22277 -0.727421,0.306941 -0.914061,0.378909 -0.0827,-0.0076 -0.144101,0.0076 -0.226561,0 -0.03171,-0.09884 -0.07812,-0.327352 -0.07812,-0.761718 0,-1.697555 -0.66754,-3.444743 -1.67578,-4.421879 -0.270646,-0.262304 -1.030755,-0.81704 -1.679689,-1.218747 -0.64891,-0.401688 -1.30332,-0.867328 -1.44922,-1.066407 -0.241781,-0.330375 -0.25998,-0.53422 -0.07422,-1.144531 0.338542,-1.114664 0.740072,-1.737111 1.523438,-2.441406 0.410688,-0.369229 0.823082,-0.676191 0.914062,-0.683592 0.091,-0.0076 -0.521608,-0.193855 -1.445312,-0.382813 -0.923652,-0.18932 -2.277978,-0.587009 -2.976562,-0.839842 -1.277422,-0.462218 -2.998728,-1.430546 -3.656252,-2.132814 -0.02782,-0.02976 -0.05396,-0.05176 -0.07812,-0.07812 0.942074,-3.752632 3.585094,-6.826424 7.089844,-8.308594 0.733326,-0.31017 1.491058,-0.52428 2.289062,-0.6875 0.39749,-0.08124 0.80833,-0.11062 1.21875,-0.15234 z m 11.437507,5.71875 c 0.286532,0.17712 1.366926,2.518338 1.67578,3.660156 0.398759,1.474094 0.36991,4.02392 0,5.488277 -0.14079,0.557344 -0.318885,1.079632 -0.378905,1.144531 -0.06002,0.0649 -0.279123,-0.307999 -0.535157,-0.761718 -0.256068,-0.453654 -1.074208,-1.419542 -1.753904,-2.136717 -1.96193,-2.070229 -2.271037,-3.148557 -1.44922,-4.800779 0.414448,-0.83316 2.219631,-2.73063 2.441406,-2.59375 z"
     id="path14" />
  <g
     aria-label="LOG"
     id="text1753"
     style="font-size:2.82217px;line-height:0;font-family:Cantarell;-inkscape-font-specification:Cantarell;letter-spacing:0.206371px;fill:none;stroke:#f5f7fa;stroke-width:0.264578"
     transform="matrix(3.7796,0,0,3.7796,-5.9345184,4.2355253)" />
  <path
     style="fill:#616161;stroke-width:0.901405"
     d="M 53.936482,20.330556 37.669444,4.1468851 V 17.801858 c 0,1.40191 1.134626,2.528698 2.541724,2.528698 z"
     id="path33313" />
</svg>
