<?xml version="1.0" encoding="UTF-8" standalone="no"?>
<svg
   width="64"
   height="64"
   version="1.1"
   id="svg33319"
   sodipodi:docname="application-x-musescore.svg"
   inkscape:version="1.2.2 (1:1.2.2+202212051550+b0a8486541)"
   xmlns:inkscape="http://www.inkscape.org/namespaces/inkscape"
   xmlns:sodipodi="http://sodipodi.sourceforge.net/DTD/sodipodi-0.dtd"
   xmlns="http://www.w3.org/2000/svg"
   xmlns:svg="http://www.w3.org/2000/svg">
  <defs
     id="defs33323">
    <inkscape:path-effect
       effect="powerclip"
       id="path-effect865"
       is_visible="true"
       lpeversion="1"
       inverse="true"
       flatten="false"
       hide_clip="false"
       message="Use fill-rule evenodd on &lt;b&gt;fill and stroke&lt;/b&gt; dialog if no flatten result after convert clip to paths." />
    <clipPath
       clipPathUnits="userSpaceOnUse"
       id="clipPath861">
      <path
         style="display:none;fill:#616161"
         d="M 54,22 36,4 V 19.1875 C 36,20.74675 37.2555,22 38.8125,22 Z"
         id="path863" />
      <path
         id="lpe_path-effect865"
         style="fill:#616161"
         class="powerclip"
         d="M 5,-1 H 59 V 65 H 5 Z M 54,22 36,4 V 19.1875 C 36,20.74675 37.2555,22 38.8125,22 Z" />
    </clipPath>
  </defs>
  <sodipodi:namedview
     id="namedview33321"
     pagecolor="#f5f7fa"
     bordercolor="#111111"
     borderopacity="1"
     inkscape:showpageshadow="0"
     inkscape:pageopacity="0"
     inkscape:pagecheckerboard="1"
     inkscape:deskcolor="#d1d1d1"
     showgrid="false"
     inkscape:zoom="12.953125"
     inkscape:cx="32.231604"
     inkscape:cy="38.369119"
     inkscape:window-width="1489"
     inkscape:window-height="738"
     inkscape:window-x="336"
     inkscape:window-y="212"
     inkscape:window-maximized="0"
     inkscape:current-layer="svg33319" />
  <path
     style="fill:#578376"
     d="M 12.75,4 C 11.2265,4 10,5.2488 10,6.8 v 50.4 c 0,1.55008 1.2265,2.8 2.75,2.8 h 38.5 C 52.7724,60 54,58.75008 54,57.2 V 22 L 40,18 36,4 Z"
     id="path33309"
     clip-path="url(#clipPath861)"
     inkscape:path-effect="#path-effect865"
     inkscape:original-d="M 12.75,4 C 11.2265,4 10,5.2488 10,6.8 v 50.4 c 0,1.55008 1.2265,2.8 2.75,2.8 h 38.5 C 52.7724,60 54,58.75008 54,57.2 V 22 L 40,18 36,4 Z" />
  <path
     fill="#f5f7fa"
     d="m 31.903956,29.021854 c -3.433349,0 -6.153275,1.094371 -8.115189,3.323647 -1.828149,2.026611 -2.719928,4.620679 -2.719928,7.822724 0,3.20205 0.891779,5.796125 2.719928,7.782207 1.917323,2.107675 4.592663,3.161518 8.070599,3.161518 2.853702,0 5.127736,-0.689051 6.866707,-2.026614 1.783563,-1.378099 2.898288,-3.445241 3.433355,-6.120382 H 38.59231 c -0.535067,3.607379 -2.809109,5.431335 -6.732944,5.431335 -2.318625,0 -4.102182,-0.770117 -5.306086,-2.229277 -1.248488,-1.459159 -1.828147,-3.485785 -1.828147,-6.039315 0,-2.55353 0.624246,-4.580146 1.872737,-6.079842 1.293082,-1.540225 3.076638,-2.310341 5.306086,-2.310341 1.828151,0 3.299587,0.364792 4.4589,1.17544 1.114721,0.810645 1.828155,2.02661 2.140278,3.647904 h 3.522526 c -0.401299,-2.553537 -1.471432,-4.458553 -3.254995,-5.715052 -1.738975,-1.21597 -4.013013,-1.823952 -6.866709,-1.823952 z"
     id="path42-5"
     style="fill:#f5f7fa;stroke-width:0.166064;fill-opacity:1" />
  <g
     id="g472"
     transform="matrix(0.72899999,0,0,0.72899999,10.429647,19.550346)"
     style="stroke:#616161">
    <g
       id="g11814"
       style="stroke:#616161" />
  </g>
  <path
     style="fill:#616161;stroke-width:0.901405"
     d="M 53.936482,20.330556 37.669444,4.1468851 V 17.801858 c 0,1.40191 1.134626,2.528698 2.541724,2.528698 z"
     id="path33313" />
</svg>
