<?xml version="1.0" encoding="UTF-8" standalone="no"?>
<svg
   width="64"
   height="64"
   version="1.1"
   id="svg33319"
   sodipodi:docname="application-x-kword.svg"
   inkscape:version="1.2.2 (1:1.2.2+202212051550+b0a8486541)"
   xmlns:inkscape="http://www.inkscape.org/namespaces/inkscape"
   xmlns:sodipodi="http://sodipodi.sourceforge.net/DTD/sodipodi-0.dtd"
   xmlns="http://www.w3.org/2000/svg"
   xmlns:svg="http://www.w3.org/2000/svg">
  <defs
     id="defs33323">
    <inkscape:path-effect
       effect="powerclip"
       id="path-effect865"
       is_visible="true"
       lpeversion="1"
       inverse="true"
       flatten="false"
       hide_clip="false"
       message="Use fill-rule evenodd on &lt;b&gt;fill and stroke&lt;/b&gt; dialog if no flatten result after convert clip to paths." />
    <clipPath
       clipPathUnits="userSpaceOnUse"
       id="clipPath861">
      <path
         style="display:none;fill:#616161"
         d="M 54,22 36,4 V 19.1875 C 36,20.74675 37.2555,22 38.8125,22 Z"
         id="path863" />
      <path
         id="lpe_path-effect865"
         style="fill:#616161"
         class="powerclip"
         d="M 5,-1 H 59 V 65 H 5 Z M 54,22 36,4 V 19.1875 C 36,20.74675 37.2555,22 38.8125,22 Z" />
    </clipPath>
  </defs>
  <sodipodi:namedview
     id="namedview33321"
     pagecolor="#f5f7fa"
     bordercolor="#111111"
     borderopacity="1"
     inkscape:showpageshadow="0"
     inkscape:pageopacity="0"
     inkscape:pagecheckerboard="1"
     inkscape:deskcolor="#d1d1d1"
     showgrid="false"
     inkscape:zoom="12.953125"
     inkscape:cx="32.154403"
     inkscape:cy="38.214717"
     inkscape:window-width="1489"
     inkscape:window-height="738"
     inkscape:window-x="328"
     inkscape:window-y="254"
     inkscape:window-maximized="0"
     inkscape:current-layer="svg33319" />
  <path
     style="fill:#578376"
     d="M 12.75,4 C 11.2265,4 10,5.2488 10,6.8 v 50.4 c 0,1.55008 1.2265,2.8 2.75,2.8 h 38.5 C 52.7724,60 54,58.75008 54,57.2 V 22 L 40,18 36,4 Z"
     id="path33309"
     clip-path="url(#clipPath861)"
     inkscape:path-effect="#path-effect865"
     inkscape:original-d="M 12.75,4 C 11.2265,4 10,5.2488 10,6.8 v 50.4 c 0,1.55008 1.2265,2.8 2.75,2.8 h 38.5 C 52.7724,60 54,58.75008 54,57.2 V 22 L 40,18 36,4 Z" />
  <g
     aria-label="INFO"
     id="text1753-5"
     style="font-size:2.82217px;line-height:0;font-family:Cantarell;-inkscape-font-specification:Cantarell;fill:#616161;stroke:#f5f7fa;stroke-width:0.264578;stroke-opacity:1"
     transform="matrix(3.40164,0,0,3.40164,-3.2989768,7.0426957)">
    <path
       d="M 6.7095274,7.3679795 H 6.9437675 V 5.4093935 H 6.7095274 Z"
       id="path2056"
       style="stroke:#f5f7fa;stroke-opacity:1" />
    <path
       d="M 7.4630473,7.3679795 H 7.6831766 V 5.7226544 L 8.8007559,7.3679795 H 9.0603956 V 5.4093935 H 8.8402663 V 7.0547187 L 7.7311535,5.4093935 H 7.4630473 Z"
       id="path2058"
       style="stroke:#f5f7fa;stroke-opacity:1" />
    <path
       d="M 9.5796749,7.3679795 H 9.813915 V 6.4592408 h 0.900272 V 6.2560445 H 9.813915 V 5.6125898 H 10.79603 V 5.4093935 H 9.5796749 Z"
       id="path2060"
       style="stroke:#f5f7fa;stroke-opacity:1" />
    <path
       d="m 11.958763,7.3877347 c 0.564434,0 0.942605,-0.4092146 0.942605,-1.0244477 0,-0.5870114 -0.366882,-0.979293 -0.914383,-0.979293 -0.555968,0 -0.925672,0.4063925 -0.925672,1.013159 0,0.5954779 0.358416,0.9905817 0.89745,0.9905817 z m 0.02822,-0.2031962 c -0.412037,0 -0.685787,-0.3273717 -0.685787,-0.8212515 0,-0.4628359 0.262461,-0.7732746 0.657565,-0.7732746 0.420504,0 0.702721,0.3217274 0.702721,0.8071406 0,0.4713024 -0.270929,0.7873855 -0.674499,0.7873855 z"
       id="path2062"
       style="stroke:#f5f7fa;stroke-opacity:1" />
  </g>
  <path
     fill="#f5f7fa"
     d="m 45.512157,36.503637 v 1.36982 H 18.871755 v -1.36982 z m 0,6.8491 v 1.369822 H 18.871755 v -1.369822 z m 0,6.8491 v 1.369822 H 18.871755 v -1.369822 z"
     id="path42"
     style="fill:#f5f7fa;stroke-width:0.142703"
     sodipodi:nodetypes="ccccccccccccccc" />
  <path
     style="fill:#616161;stroke-width:0.901405"
     d="M 53.936482,20.330556 37.669444,4.1468851 V 17.801858 c 0,1.40191 1.134626,2.528698 2.541724,2.528698 z"
     id="path33313" />
</svg>
