<?xml version="1.0" encoding="UTF-8" standalone="no"?>
<svg
   width="64"
   height="64"
   version="1.1"
   id="svg33319"
   sodipodi:docname="application-x-musescore.svg"
   inkscape:version="1.2.2 (1:1.2.2+202212051550+b0a8486541)"
   xmlns:inkscape="http://www.inkscape.org/namespaces/inkscape"
   xmlns:sodipodi="http://sodipodi.sourceforge.net/DTD/sodipodi-0.dtd"
   xmlns="http://www.w3.org/2000/svg"
   xmlns:svg="http://www.w3.org/2000/svg">
  <defs
     id="defs33323">
    <inkscape:path-effect
       effect="powerclip"
       id="path-effect865"
       is_visible="true"
       lpeversion="1"
       inverse="true"
       flatten="false"
       hide_clip="false"
       message="Use fill-rule evenodd on &lt;b&gt;fill and stroke&lt;/b&gt; dialog if no flatten result after convert clip to paths." />
    <clipPath
       clipPathUnits="userSpaceOnUse"
       id="clipPath861">
      <path
         style="display:none;fill:#616161"
         d="M 54,22 36,4 V 19.1875 C 36,20.74675 37.2555,22 38.8125,22 Z"
         id="path863" />
      <path
         id="lpe_path-effect865"
         style="fill:#616161"
         class="powerclip"
         d="M 5,-1 H 59 V 65 H 5 Z M 54,22 36,4 V 19.1875 C 36,20.74675 37.2555,22 38.8125,22 Z" />
    </clipPath>
  </defs>
  <sodipodi:namedview
     id="namedview33321"
     pagecolor="#f5f7fa"
     bordercolor="#111111"
     borderopacity="1"
     inkscape:showpageshadow="0"
     inkscape:pageopacity="0"
     inkscape:pagecheckerboard="1"
     inkscape:deskcolor="#d1d1d1"
     showgrid="false"
     inkscape:zoom="12.953125"
     inkscape:cx="32.231604"
     inkscape:cy="38.369119"
     inkscape:window-width="1489"
     inkscape:window-height="738"
     inkscape:window-x="336"
     inkscape:window-y="212"
     inkscape:window-maximized="0"
     inkscape:current-layer="svg33319" />
  <path
     style="fill:#578376"
     d="M 12.75,4 C 11.2265,4 10,5.2488 10,6.8 v 50.4 c 0,1.55008 1.2265,2.8 2.75,2.8 h 38.5 C 52.7724,60 54,58.75008 54,57.2 V 22 L 40,18 36,4 Z"
     id="path33309"
     clip-path="url(#clipPath861)"
     inkscape:path-effect="#path-effect865"
     inkscape:original-d="M 12.75,4 C 11.2265,4 10,5.2488 10,6.8 v 50.4 c 0,1.55008 1.2265,2.8 2.75,2.8 h 38.5 C 52.7724,60 54,58.75008 54,57.2 V 22 L 40,18 36,4 Z" />
  <g
     id="g346"
     transform="matrix(3.7796,0,0,3.7796,0.06548082,8.2355251)"
     style="fill:#f5f7fa;fill-opacity:1">
    <path
       fill="#f5f7fa"
       d="M 5.8984221,8.0978509 H 6.9769196 V 9.078762 H 5.8984221 Z m 1.797496,0 H 8.7744158 V 9.078762 H 7.6959181 Z m 1.7974967,0 H 10.571912 V 9.078762 H 9.4934148 Z M 7.6959181,9.732701 h 1.0784977 v 0.980912 H 7.6959181 Z m -1.797496,0 h 1.0784975 v 0.980912 H 5.8984221 Z m 3.5949927,0 h 1.0784972 v 0.980912 H 9.4934148 Z M 6.2579212,5.6451649 c 0,-0.090065 0.080679,-0.1630783 0.1797496,-0.1630783 0.099273,0 0.1797497,0.072926 0.1797497,0.1630783 v 0.6547547 c 0,0.090065 -0.080679,0.1630783 -0.1797497,0.1630783 -0.099273,0 -0.1797496,-0.072926 -0.1797496,-0.1630783 z m 3.9544918,0 c 0,-0.090065 0.08068,-0.1630783 0.179748,-0.1630783 0.09927,0 0.179751,0.072926 0.179751,0.1630783 v 0.6547547 c 0,0.090065 -0.08068,0.1630783 -0.179751,0.1630783 -0.09927,0 -0.179748,-0.072926 -0.179748,-0.1630783 z M 9.8529138,6.1360283 v 0.163213 c 0,0.2688638 0.2414292,0.4907286 0.5392472,0.4907286 0.299896,0 0.53925,-0.2197074 0.53925,-0.4907286 v -0.163213 h 0.361872 c 0.197235,0 0.357126,0.1453813 0.357126,0.3272558 v 4.9039839 c 0,0.18074 -0.159959,0.327256 -0.357126,0.327256 H 5.1770504 c -0.197235,0 -0.3571255,-0.145381 -0.3571255,-0.327256 V 6.4632841 c 0,-0.1807393 0.159958,-0.3272558 0.3571255,-0.3272558 h 0.7213717 v 0.163213 c 0,0.2688638 0.2414298,0.4907286 0.5392487,0.4907286 0.2998952,0 0.5392488,-0.2197074 0.5392488,-0.4907286 V 6.1360283 Z M 11.29091,7.4439092 H 5.1794242 V 11.367555 H 11.29091 Z"
       id="path42-3"
       style="fill:#f5f7fa;stroke-width:0.0428561;fill-opacity:1" />
  </g>
  <path
     style="fill:#616161;stroke-width:0.901405"
     d="M 53.936482,20.330556 37.669444,4.1468851 V 17.801858 c 0,1.40191 1.134626,2.528698 2.541724,2.528698 z"
     id="path33313" />
</svg>
