<?xml version="1.0" encoding="UTF-8" standalone="no"?>
<svg
   width="64"
   height="64"
   version="1.1"
   id="svg33319"
   sodipodi:docname="jhg.svg"
   inkscape:version="1.2.2 (1:1.2.2+202212051550+b0a8486541)"
   xmlns:inkscape="http://www.inkscape.org/namespaces/inkscape"
   xmlns:sodipodi="http://sodipodi.sourceforge.net/DTD/sodipodi-0.dtd"
   xmlns="http://www.w3.org/2000/svg"
   xmlns:svg="http://www.w3.org/2000/svg">
  <defs
     id="defs33323">
    <inkscape:path-effect
       effect="powerclip"
       id="path-effect865"
       is_visible="true"
       lpeversion="1"
       inverse="true"
       flatten="false"
       hide_clip="false"
       message="Use fill-rule evenodd on &lt;b&gt;fill and stroke&lt;/b&gt; dialog if no flatten result after convert clip to paths." />
    <clipPath
       clipPathUnits="userSpaceOnUse"
       id="clipPath861">
      <path
         style="display:none;fill:#616161"
         d="M 54,22 36,4 V 19.1875 C 36,20.74675 37.2555,22 38.8125,22 Z"
         id="path863" />
      <path
         id="lpe_path-effect865"
         style="fill:#616161"
         class="powerclip"
         d="M 5,-1 H 59 V 65 H 5 Z M 54,22 36,4 V 19.1875 C 36,20.74675 37.2555,22 38.8125,22 Z" />
    </clipPath>
  </defs>
  <sodipodi:namedview
     id="namedview33321"
     pagecolor="#f5f7fa"
     bordercolor="#111111"
     borderopacity="1"
     inkscape:showpageshadow="0"
     inkscape:pageopacity="0"
     inkscape:pagecheckerboard="1"
     inkscape:deskcolor="#d1d1d1"
     showgrid="false"
     inkscape:zoom="12.953125"
     inkscape:cx="32.115802"
     inkscape:cy="38.253317"
     inkscape:window-width="1489"
     inkscape:window-height="738"
     inkscape:window-x="328"
     inkscape:window-y="254"
     inkscape:window-maximized="0"
     inkscape:current-layer="svg33319" />
  <path
     style="fill:#578376"
     d="M 12.75,4 C 11.2265,4 10,5.2488 10,6.8 v 50.4 c 0,1.55008 1.2265,2.8 2.75,2.8 h 38.5 C 52.7724,60 54,58.75008 54,57.2 V 22 L 40,18 36,4 Z"
     id="path33309"
     clip-path="url(#clipPath861)"
     inkscape:path-effect="#path-effect865"
     inkscape:original-d="M 12.75,4 C 11.2265,4 10,5.2488 10,6.8 v 50.4 c 0,1.55008 1.2265,2.8 2.75,2.8 h 38.5 C 52.7724,60 54,58.75008 54,57.2 V 22 L 40,18 36,4 Z" />
  <g
     id="g223"
     transform="matrix(3.7796,0,0,3.7796,0.06548112,6.2355247)"
     style="fill:#f5f7fa">
    <path
       fill="#f5f7fa"
       d="m 7.8650167,5.5330392 c -0.4904828,0 -0.8880971,0.2699678 -0.8880971,0.6029891 0.014268,0.1242412 0.094355,0.2811301 0.1366304,0.3349926 0.2049454,0.2679948 0.2049454,0.4354928 0.1537091,0.5359896 H 5.6106164 c -0.3027729,0 -0.5465213,0.2390526 -0.5465213,0.5359912 v 1.3567251 c 0.1024727,0.050248 0.2732609,0.050248 0.5465213,-0.1507487 0.054921,-0.041459 0.2148924,-0.1200039 0.3415757,-0.1339974 0.3395647,0 0.6148365,0.3899528 0.6148365,0.8709848 0,0.481029 -0.2752718,0.8709805 -0.6148365,0.8709805 -0.1042167,-0.0018 -0.262654,-0.09314 -0.3415757,-0.133997 C 5.337356,10.021955 5.1665678,10.021955 5.0640951,10.072203 v 1.758717 c 0,0.296938 0.2437484,0.535989 0.5465213,0.535989 h 2.203164 c 0.051236,-0.100498 0.051236,-0.267994 -0.1537088,-0.535989 -0.042275,-0.05386 -0.1223625,-0.210751 -0.1366305,-0.334994 0,-0.333022 0.3976146,-0.60299 0.8880969,-0.60299 0.4904826,0 0.8880976,0.269968 0.8880976,0.60299 -0.0018,0.102208 -0.09497,0.257592 -0.136631,0.334994 -0.204945,0.267995 -0.204945,0.435491 -0.153709,0.535989 h 0.973491 c 0.3027734,0 0.5465214,-0.239051 0.5465214,-0.535989 v -1.490722 c 0.102473,-0.05025 0.273259,-0.05025 0.546521,0.150746 0.07892,0.04085 0.237359,0.132268 0.341576,0.133997 0.339565,0 0.614835,-0.389951 0.614835,-0.8709825 0,-0.481029 -0.27527,-0.8709813 -0.614835,-0.8709813 -0.126684,0.01399 -0.286655,0.092536 -0.341576,0.1339973 -0.273262,0.200996 -0.444048,0.200996 -0.546521,0.150747 V 7.5430017 c 0,-0.2969386 -0.243748,-0.5359912 -0.5465214,-0.5359912 H 8.4627744 C 8.4115384,6.9065137 8.4115384,6.7390157 8.6164836,6.4710209 c 0.04166,-0.0774 0.134865,-0.2327844 0.13663,-0.3349926 0,-0.3330213 -0.3976145,-0.6029891 -0.8880969,-0.6029891 z"
       id="path42"
       style="fill:#f5f7fa;stroke-width:0.0375037" />
  </g>
  <g
     aria-label="LOG"
     id="text1753"
     style="font-size:2.82217px;line-height:0;font-family:Cantarell;-inkscape-font-specification:Cantarell;letter-spacing:0.206371px;fill:none;stroke:#f5f7fa;stroke-width:0.264578"
     transform="matrix(3.7796,0,0,3.7796,-5.9345184,4.2355253)" />
  <path
     style="fill:#616161;stroke-width:0.901405"
     d="M 53.936482,20.330556 37.669444,4.1468851 V 17.801858 c 0,1.40191 1.134626,2.528698 2.541724,2.528698 z"
     id="path33313" />
</svg>
