<?xml version="1.0" encoding="UTF-8" standalone="no"?>
<svg
   width="64"
   height="64"
   version="1.1"
   id="svg73"
   sodipodi:docname="org.xfce.settings.default-applications.svg"
   inkscape:version="1.2.2 (1:1.2.2+202212051550+b0a8486541)"
   xmlns:inkscape="http://www.inkscape.org/namespaces/inkscape"
   xmlns:sodipodi="http://sodipodi.sourceforge.net/DTD/sodipodi-0.dtd"
   xmlns="http://www.w3.org/2000/svg"
   xmlns:svg="http://www.w3.org/2000/svg"
   xmlns:rdf="http://www.w3.org/1999/02/22-rdf-syntax-ns#"
   xmlns:cc="http://creativecommons.org/ns#"
   xmlns:dc="http://purl.org/dc/elements/1.1/">
  <metadata
     id="metadata77">
    <rdf:RDF>
      <cc:Work
         rdf:about="">
        <dc:format>image/svg+xml</dc:format>
        <dc:type
           rdf:resource="http://purl.org/dc/dcmitype/StillImage" />
      </cc:Work>
    </rdf:RDF>
  </metadata>
  <sodipodi:namedview
     pagecolor="#f5f7fa"
     bordercolor="#666666"
     borderopacity="1"
     objecttolerance="10"
     gridtolerance="10"
     guidetolerance="10"
     inkscape:pageopacity="0"
     inkscape:pageshadow="2"
     inkscape:window-width="1377"
     inkscape:window-height="886"
     id="namedview75"
     showgrid="false"
     inkscape:zoom="6.2890625"
     inkscape:cx="34.424845"
     inkscape:cy="37.843478"
     inkscape:window-x="221"
     inkscape:window-y="123"
     inkscape:window-maximized="0"
     inkscape:current-layer="svg73"
     inkscape:document-rotation="0"
     inkscape:pagecheckerboard="0"
     inkscape:showpageshadow="2"
     inkscape:deskcolor="#d1d1d1" />
  <defs
     id="defs29">
    <inkscape:path-effect
       effect="powerclip"
       id="path-effect1980"
       is_visible="true"
       lpeversion="1"
       inverse="true"
       flatten="false"
       hide_clip="false"
       message="Use fill-rule evenodd on &lt;b&gt;fill and stroke&lt;/b&gt; dialog if no flatten result after convert clip to paths." />
    <linearGradient
       id="b"
       x1="399.57"
       x2="399.57"
       y1="545.8"
       y2="517.8"
       gradientTransform="matrix(2.1429,0,0,2.1429,-825.86391,-1107.6662)"
       gradientUnits="userSpaceOnUse">
      <stop
         stop-color="#3889e9"
         offset="0"
         id="stop2" />
      <stop
         stop-color="#5ea5fb"
         offset="1"
         id="stop4" />
    </linearGradient>
    <linearGradient
       id="linearGradient862"
       x1="7.9373"
       x2="7.9373"
       y1="15.081"
       y2="1.852"
       gradientTransform="matrix(3.3743 0 0 3.3743 3.4312 3.4278)"
       gradientUnits="userSpaceOnUse">
      <stop
         stop-color="#f1efeb"
         offset="0"
         id="stop7" />
      <stop
         stop-color="#fff"
         offset="1"
         id="stop9" />
    </linearGradient>
    <linearGradient
       id="linearGradient910"
       x1="7.9373"
       x2="7.9373"
       y1="15.081"
       y2="1.852"
       gradientTransform="scale(3.7796)"
       gradientUnits="userSpaceOnUse">
      <stop
         stop-color="#613583"
         offset="0"
         id="stop12" />
      <stop
         stop-color="#a663c0"
         offset="1"
         id="stop14" />
    </linearGradient>
    <linearGradient
       id="linearGradient932"
       x1="379.24"
       x2="374.24"
       y1="546.85"
       y2="546.85"
       gradientTransform="matrix(2.1429 0 0 2.1429 -769.68 -1134.5)"
       gradientUnits="userSpaceOnUse">
      <stop
         stop-color="#f6f5f4"
         offset="0"
         id="stop17" />
      <stop
         stop-color="#fff"
         offset=".6"
         id="stop19" />
      <stop
         stop-color="#dddbd8"
         offset="1"
         id="stop21" />
    </linearGradient>
    <linearGradient
       id="linearGradient1146"
       x1="18"
       x2="18"
       y1="52"
       y2="12"
       gradientUnits="userSpaceOnUse">
      <stop
         stop-color="#5e337f"
         offset="0"
         id="stop24" />
      <stop
         stop-color="#ab60bf"
         offset="1"
         id="stop26" />
    </linearGradient>
    <clipPath
       clipPathUnits="userSpaceOnUse"
       id="clipPath1976">
      <rect
         x="9.6784649"
         y="9.925169"
         width="43.343258"
         height="44.613056"
         rx="8.6689987"
         ry="8.9229689"
         fill="url(#linearGradient862)"
         stroke-width="2.96772"
         id="rect1978"
         style="display:none;fill:#333333;fill-opacity:1"
         d="m 18.347464,9.925169 h 26.00526 c 4.802625,0 8.668999,3.979644 8.668999,8.922969 v 26.767118 c 0,4.943325 -3.866374,8.922969 -8.668999,8.922969 h -26.00526 c -4.802626,0 -8.6689991,-3.979644 -8.6689991,-8.922969 V 18.848138 c 0,-4.943325 3.8663731,-8.922969 8.6689991,-8.922969 z" />
      <path
         id="lpe_path-effect1980"
         style="fill:#333333;fill-opacity:1"
         class="powerclip"
         d="M 2.0757722,2.2464043 H 60.623896 V 62.216811 H 2.0757722 Z M 18.347464,9.925169 c -4.802626,0 -8.6689991,3.979644 -8.6689991,8.922969 v 26.767118 c 0,4.943325 3.8663731,8.922969 8.6689991,8.922969 h 26.00526 c 4.802625,0 8.668999,-3.979644 8.668999,-8.922969 V 18.848138 c 0,-4.943325 -3.866374,-8.922969 -8.668999,-8.922969 z" />
    </clipPath>
    <filter
       style="color-interpolation-filters:sRGB;"
       inkscape:label="Drop Shadow"
       id="filter663"
       x="-0.098870968"
       y="-0.096056853"
       width="1.2389382"
       height="1.2321374">
      <feFlood
         flood-opacity="0.301961"
         flood-color="rgb(0,0,0)"
         result="flood"
         id="feFlood653" />
      <feComposite
         in="flood"
         in2="SourceGraphic"
         operator="in"
         result="composite1"
         id="feComposite655" />
      <feGaussianBlur
         in="composite1"
         stdDeviation="2"
         result="blur"
         id="feGaussianBlur657" />
      <feOffset
         dx="2"
         dy="2"
         result="offset"
         id="feOffset659" />
      <feComposite
         in="SourceGraphic"
         in2="offset"
         operator="over"
         result="composite2"
         id="feComposite661" />
    </filter>
    <clipPath
       clipPathUnits="userSpaceOnUse"
       id="clipPath38">
      <rect
         x="0.97311002"
         y="4.6963"
         width="14.987"
         height="9.9216995"
         ry="0.29919001"
         fill="#fffffc"
         id="rect40"
         style="display:block;opacity:0.85;fill:#f2f2f2;stroke-width:0.999999" />
    </clipPath>
    <inkscape:path-effect
       effect="powerclip"
       id="path-effect42"
       is_visible="true"
       lpeversion="1"
       inverse="true"
       flatten="false"
       hide_clip="false"
       message="Use fill-rule evenodd on &lt;b&gt;fill and stroke&lt;/b&gt; dialog if no flatten result after convert clip to paths." />
    <clipPath
       clipPathUnits="userSpaceOnUse"
       id="clipPath30">
      <path
         id="path32"
         style="color:#000000;display:block;opacity:0.85;fill:#f5f7fa;stroke-linecap:round;-inkscape-stroke:none"
         d="m 27.902344,19.023438 c -5.140587,0.01596 -9.820748,0.752518 -13.330078,2.15625 a 2.5,2.5 0 0 0 -1.392578,3.248046 2.5,2.5 0 0 0 3.248046,1.392578 c 3.180816,-1.272325 8.839301,-2.056673 14.796875,-1.699218 5.957575,0.357454 12.260098,1.820223 17.035157,4.548828 a 2.5,2.5 0 0 0 3.410156,-0.929688 2.5,2.5 0 0 0 -0.929688,-3.410156 c -5.72493,-3.271389 -12.67243,-4.808627 -19.214843,-5.201172 -1.226703,-0.0736 -2.436758,-0.109153 -3.623047,-0.105468 z m -1.240235,9.966796 c -1.05657,-0.0087 -2.093217,0.01082 -3.097656,0.05859 -2.678505,0.127409 -5.127438,0.45996 -7.113281,1.027344 a 2,2 0 0 0 -1.375,2.472656 2,2 0 0 0 2.472656,1.375 c 3.028306,-0.86523 8.701737,-1.165792 14.148438,-0.68164 5.4467,0.484152 10.812065,1.834345 13.193359,3.421874 a 2,2 0 0 0 2.773437,-0.554687 2,2 0 0 0 -0.554687,-2.773437 C 43.490675,30.923467 37.856023,29.773657 32.052734,29.257808 30.239207,29.096607 28.42306,29.004783 26.662109,28.99023 Z m 0.917969,8.988282 c -3.813243,-0.0048 -7.379665,0.410834 -10.064453,1.082031 a 2,2 0 0 0 -1.455078,2.423828 2,2 0 0 0 2.423828,1.455078 c 5.391278,-1.347819 17.438862,-1.241506 23.621094,1.849609 a 2,2 0 0 0 2.683593,-0.894531 2,2 0 0 0 -0.894531,-2.683593 c -3.908877,-1.954439 -8.851018,-2.904387 -13.642578,-3.160157 -0.898417,-0.04796 -1.791896,-0.07116 -2.671875,-0.07227 z" />
    </clipPath>
    <inkscape:path-effect
       effect="powerclip"
       id="path-effect34"
       is_visible="true"
       lpeversion="1"
       inverse="true"
       flatten="false"
       hide_clip="false"
       message="Use fill-rule evenodd on &lt;b&gt;fill and stroke&lt;/b&gt; dialog if no flatten result after convert clip to paths." />
    <clipPath
       clipPathUnits="userSpaceOnUse"
       id="clipPath1299">
      <path
         style="color:#000000;display:block;opacity:0.85;fill:#f5f7fa;-inkscape-stroke:none"
         d="m 24.149464,39.847234 c 1.129182,1.129183 1.129024,2.947446 -3.54e-4,4.076824 L 11.920405,56.152763 c -1.129378,1.129378 -2.9476414,1.129536 -4.0768237,3.54e-4 -1.1291824,-1.129183 -1.1290247,-2.947446 3.535e-4,-4.076825 L 20.072639,39.847588 c 1.129379,-1.129378 2.947642,-1.129536 4.076825,-3.54e-4 z"
         id="path1301" />
    </clipPath>
    <inkscape:path-effect
       effect="powerclip"
       id="path-effect1303"
       is_visible="true"
       lpeversion="1"
       inverse="true"
       flatten="false"
       hide_clip="false"
       message="Use fill-rule evenodd on &lt;b&gt;fill and stroke&lt;/b&gt; dialog if no flatten result after convert clip to paths." />
    <clipPath
       clipPathUnits="userSpaceOnUse"
       id="clipPath835">
      <path
         style="fill:#366adb"
         d="m 32,17.466694 v 15.261759 c -1.345739,-0.476141 -2.698156,-0.725645 -4.199935,-0.727989 -5.412306,0 -9.799847,3.133957 -9.799847,6.999891 0,3.865934 4.387541,6.999891 9.799847,6.999891 5.412306,0 10.199842,-3.133957 10.199842,-6.999891 V 22.000621 c 0,0 2.818336,2.432481 3.768941,4.955137 0.485882,1.289406 0.484445,2.60237 -0.631998,3.626114 -0.906512,0.519986 -1.203761,1.323663 -1.044514,2.023403 0.241826,1.062613 1.53443,1.888098 3.330416,1.123812 2.698508,-1.40694 3.576015,-3.929235 3.576015,-6.029204 0,-6.299902 -7.998876,-11.699817 -13.598789,-11.699817 C 32,16.000066 32,17.466694 32,17.466694 Z"
         id="path837" />
    </clipPath>
    <clipPath
       clipPathUnits="userSpaceOnUse"
       id="clipath_lpe_path-effect15-3">
      <path
         id="path18794"
         style="display:block;opacity:0.85;fill:#f5f7fa;stroke-width:1.14168"
         d="m 22.994141,9.2851562 c -2.426789,0 -4.550782,2.1396028 -4.550782,4.5839848 0,2.444382 2.123925,4.582031 4.550782,4.582031 2.426789,0 4.548828,-2.137649 4.548828,-4.582031 0,-2.444382 -2.122039,-4.5839848 -4.548828,-4.5839848 z m 15.925781,0 c -2.426791,0 -4.550781,2.1396028 -4.550781,4.5839848 0,2.444382 2.123922,4.582031 4.550781,4.582031 2.426789,0 4.548828,-2.137649 4.548828,-4.582031 0,-2.444382 -2.122039,-4.5839848 -4.548828,-4.5839848 z M 11.617188,23.035156 c -2.4268575,0 -4.5488286,2.138846 -4.5488286,4.583985 0,2.445137 2.1219711,4.582031 4.5488286,4.582031 2.426857,0 4.550781,-2.136894 4.550781,-4.582031 0,-2.445139 -2.123924,-4.583985 -4.550781,-4.583985 z m 38.677734,0 c -2.42679,0 -4.550781,2.139602 -4.550781,4.583985 0,2.444381 2.123923,4.582031 4.550781,4.582031 2.42679,0 4.550781,-2.13765 4.550781,-4.582031 0,-2.444383 -2.123991,-4.583985 -4.550781,-4.583985 z" />
    </clipPath>
    <inkscape:path-effect
       effect="powerclip"
       id="path-effect15-3"
       is_visible="true"
       lpeversion="1"
       inverse="true"
       flatten="false"
       hide_clip="false"
       message="Use fill-rule evenodd on &lt;b&gt;fill and stroke&lt;/b&gt; dialog if no flatten result after convert clip to paths." />
    <clipPath
       clipPathUnits="userSpaceOnUse"
       id="clipPath601">
      <ellipse
         style="display:none;fill:#666666;stroke:none;stroke-width:1.2408"
         id="ellipse603"
         cx="32.192383"
         cy="38.023426"
         rx="10.958354"
         ry="10.907267" />
    </clipPath>
    <inkscape:path-effect
       effect="powerclip"
       id="path-effect605"
       is_visible="true"
       lpeversion="1"
       inverse="true"
       flatten="false"
       hide_clip="false"
       message="Use fill-rule evenodd on &lt;b&gt;fill and stroke&lt;/b&gt; dialog if no flatten result after convert clip to paths." />
    <clipPath
       clipPathUnits="userSpaceOnUse"
       id="clipPath601-3">
      <ellipse
         style="display:none;fill:#666666;stroke:none;stroke-width:1.2408"
         id="ellipse603-6"
         cx="32.192383"
         cy="38.023426"
         rx="10.958354"
         ry="10.907267"
         d="M 43.150737,38.023426 A 10.958354,10.907267 0 0 1 32.192383,48.930693 10.958354,10.907267 0 0 1 21.234029,38.023426 10.958354,10.907267 0 0 1 32.192383,27.116159 10.958354,10.907267 0 0 1 43.150737,38.023426 Z" />
      <path
         id="lpe_path-effect605"
         style="fill:#666666;stroke:none;stroke-width:1.2408"
         class="powerclip"
         d="M -3.0605469,4.4863281 H 67.306641 V 58.824219 H -3.0605469 Z M 43.150737,38.023426 A 10.958354,10.907267 0 0 0 32.192383,27.116159 10.958354,10.907267 0 0 0 21.234029,38.023426 10.958354,10.907267 0 0 0 32.192383,48.930693 10.958354,10.907267 0 0 0 43.150737,38.023426 Z" />
    </clipPath>
    <inkscape:path-effect
       effect="powerclip"
       id="path-effect605-7"
       is_visible="true"
       lpeversion="1"
       inverse="true"
       flatten="false"
       hide_clip="false"
       message="Use fill-rule evenodd on &lt;b&gt;fill and stroke&lt;/b&gt; dialog if no flatten result after convert clip to paths." />
    <clipPath
       clipPathUnits="userSpaceOnUse"
       id="clipath_lpe_path-effect605-7">
      <ellipse
         style="display:none;fill:#666666;stroke:none;stroke-width:1.2408"
         id="ellipse2622"
         cx="32.192383"
         cy="38.023426"
         rx="10.958354"
         ry="10.907267" />
    </clipPath>
    <clipPath
       clipPathUnits="userSpaceOnUse"
       id="clipPath44">
      <path
         id="path46"
         style="display:block;opacity:0.85;fill:#f2f2f2;stroke-width:4.39162"
         d="m 17.570312,8.4453125 a 6.5431988,7.4283052 9.9958727e-8 0 0 -6.535156,7.4394535 6.5431988,7.4283052 9.9958727e-8 0 0 6.552735,7.417968 6.5431988,7.4283052 9.9958727e-8 0 0 6.535156,-7.4375 6.5431988,7.4283052 9.9958727e-8 0 0 -6.552735,-7.4199215 z M 45.646484,41.177734 a 6.5431986,7.0703472 2.4665357e-6 0 0 -6.533203,7.080078 6.5431986,7.0703472 2.4665357e-6 0 0 6.550781,7.060547 6.5431986,7.0703472 2.4665357e-6 0 0 6.535157,-7.080078 6.5431986,7.0703472 2.4665357e-6 0 0 -6.552735,-7.060547 z" />
    </clipPath>
    <inkscape:path-effect
       effect="powerclip"
       id="path-effect48"
       is_visible="true"
       lpeversion="1"
       inverse="true"
       flatten="false"
       hide_clip="false"
       message="Use fill-rule evenodd on &lt;b&gt;fill and stroke&lt;/b&gt; dialog if no flatten result after convert clip to paths." />
    <clipPath
       clipPathUnits="userSpaceOnUse"
       id="clipath_lpe_path-effect197-1">
      <g
         id="g22290"
         style="display:block">
        <path
           id="path22288"
           style="color:#000000;opacity:0.85;fill:#f5f7fa;stroke-width:2.97138;-inkscape-stroke:none"
           d="m 20.630859,13.712891 c -3.468166,-0.0017 -6.260369,2.787692 -6.259765,6.255859 6.04e-4,3.468166 2.793552,6.26197 6.261718,6.263672 l 22.275391,0.01172 c 3.468167,0.0017 6.26037,-2.789647 6.259766,-6.257813 -6.04e-4,-3.468167 -2.793552,-6.26197 -6.261719,-6.263672 z m 0.132813,17.759765 c -3.542387,-0.0017 -6.393071,2.848239 -6.392578,6.390625 4.93e-4,3.542386 2.852144,6.394827 6.394531,6.396485 l 22.007813,0.01172 c 3.542385,0.0017 6.395024,-2.850192 6.394531,-6.392578 -4.93e-4,-3.542386 -2.854099,-6.394826 -6.396485,-6.396484 z" />
      </g>
    </clipPath>
    <inkscape:path-effect
       effect="powerclip"
       id="path-effect197-1"
       is_visible="true"
       lpeversion="1"
       inverse="true"
       flatten="false"
       hide_clip="false"
       message="Use fill-rule evenodd on &lt;b&gt;fill and stroke&lt;/b&gt; dialog if no flatten result after convert clip to paths." />
    <clipPath
       clipPathUnits="userSpaceOnUse"
       id="clipPath884">
      <path
         id="path886"
         style="display:block;fill:#68b723;stroke-width:0.0977224"
         d="m 35.271484,14.238281 c -0.370344,0 -0.671875,0.351696 -0.671875,0.785157 v 6.43164 c 0,0.433461 0.301531,0.783203 0.671875,0.783203 h 11.658204 c 0.370344,0 0.669921,-0.349742 0.669921,-0.783203 v -6.43164 c 0,-0.433461 -0.299576,-0.785157 -0.669921,-0.785157 z m -23.691406,8 c -0.540841,0 -0.980469,0.475084 -0.980469,1.058594 v 5.884766 c 0,0.58351 0.439628,1.05664 0.980469,1.05664 h 17.041016 c 0.540841,0 0.978515,-0.47313 0.978515,-1.05664 v -5.884766 c 0,-0.58351 -0.437674,-1.058594 -0.978515,-1.058594 z m 23.691406,8 c -0.370344,0 -0.671875,0.351754 -0.671875,0.785157 v 6.429687 c 0,0.433404 0.301531,0.785156 0.671875,0.785156 h 11.658204 c 0.370344,0 0.669921,-0.351752 0.669921,-0.785156 v -6.429687 c 0,-0.433403 -0.299576,-0.785157 -0.669921,-0.785157 z" />
    </clipPath>
    <inkscape:path-effect
       effect="powerclip"
       id="path-effect888"
       is_visible="true"
       lpeversion="1"
       inverse="true"
       flatten="false"
       hide_clip="false"
       message="Use fill-rule evenodd on &lt;b&gt;fill and stroke&lt;/b&gt; dialog if no flatten result after convert clip to paths." />
    <clipPath
       clipPathUnits="userSpaceOnUse"
       id="clipPath874">
      <path
         style="display:block;fill:#00b7b7;stroke-width:1.58234"
         class="st2"
         d="m 58.556266,10.584997 c 2.979752,-0.291803 5.755802,1.976547 6.35019,5.323836 0.612314,3.445142 -1.301712,6.789323 -4.305052,7.658192 -0.09493,0.01729 -0.185728,0.02826 -0.276198,0.04846 -10.755778,2.33665 -18.21924,12.157677 -18.166314,23.839668 -1.735412,-1.891167 -4.268797,-2.83445 -6.846898,-2.274693 -2.195612,0.473034 -3.983974,1.95266 -5.055522,3.90586 -0.778389,-18.498171 10.825562,-34.726431 27.765386,-38.403404 0.177235,-0.03773 0.355754,-0.06138 0.534404,-0.09792"
         id="path876" />
    </clipPath>
    <inkscape:path-effect
       effect="powerclip"
       id="path-effect878"
       is_visible="true"
       lpeversion="1"
       inverse="true"
       flatten="false"
       hide_clip="false"
       message="Use fill-rule evenodd on &lt;b&gt;fill and stroke&lt;/b&gt; dialog if no flatten result after convert clip to paths." />
    <clipPath
       clipPathUnits="userSpaceOnUse"
       id="clipPath914">
      <path
         style="display:block;fill:#06aff2;stroke-width:1.58234"
         class="st0"
         d="m 25.256917,50.312305 c 3.202994,0.696211 6.332199,-1.648453 6.969603,-5.226853 0.585917,-3.287094 -1.135554,-6.489677 -3.906138,-7.524847 -0.268007,-0.0432 -0.534122,-0.09544 -0.797946,-0.15091 C 16.775285,35.074093 11.024775,24.605741 11.061025,12.935443 9.3312055,14.879502 6.7641655,15.85623 4.1526867,15.28614 1.9946247,14.818037 0.23288457,13.382414 -0.84989079,11.475354 -1.536207,29.897083 8.3408303,46.677042 25.220813,50.341374 c 0.007,0.0031 0.01958,0.0031 0.03048,0.0031 z"
         id="path916" />
    </clipPath>
    <inkscape:path-effect
       effect="powerclip"
       id="path-effect918"
       is_visible="true"
       lpeversion="1"
       inverse="true"
       flatten="false"
       hide_clip="false"
       message="Use fill-rule evenodd on &lt;b&gt;fill and stroke&lt;/b&gt; dialog if no flatten result after convert clip to paths." />
    <clipPath
       clipPathUnits="userSpaceOnUse"
       id="clipath_lpe_path-effect1376">
      <path
         style="display:none;fill:#e52e38"
         d="m 38.999369,10.000031 c -1.152433,0 -2.305636,0.429547 -3.167106,1.290997 L 18.290979,28.834267 c -1.722943,1.722899 -1.720499,4.606188 0.0025,6.32909 l 17.541282,17.543237 c 1.722945,1.722904 4.608804,1.725344 6.331749,0.0025 L 59.707793,35.165858 c 1.72294,-1.722902 1.722943,-4.608659 0,-6.331561 L 42.166476,11.291028 c -0.861469,-0.86145 -2.014674,-1.290997 -3.167107,-1.290997 z"
         id="path45183" />
    </clipPath>
    <inkscape:path-effect
       effect="powerclip"
       id="path-effect1376"
       is_visible="true"
       lpeversion="1"
       inverse="true"
       flatten="false"
       hide_clip="false"
       message="Use fill-rule evenodd on &lt;b&gt;fill and stroke&lt;/b&gt; dialog if no flatten result after convert clip to paths." />
    <inkscape:path-effect
       effect="powerclip"
       id="path-effect1398"
       is_visible="true"
       lpeversion="1"
       inverse="true"
       flatten="false"
       hide_clip="false"
       message="Use fill-rule evenodd on &lt;b&gt;fill and stroke&lt;/b&gt; dialog if no flatten result after convert clip to paths." />
    <clipPath
       clipPathUnits="userSpaceOnUse"
       id="clipath_lpe_path-effect1398">
      <path
         style="display:block;fill:#e52e38"
         d="m 38.999369,10.000031 c -1.152433,0 -2.305636,0.429547 -3.167106,1.290997 L 18.290979,28.834267 c -1.722943,1.722899 -1.720499,4.606188 0.0025,6.32909 l 17.541282,17.543237 c 1.722945,1.722904 4.608804,1.725344 6.331749,0.0025 L 59.707793,35.165858 c 1.72294,-1.722902 1.722943,-4.608659 0,-6.331561 L 42.166476,11.291028 c -0.861469,-0.86145 -2.014674,-1.290997 -3.167107,-1.290997 z"
         id="path5359" />
    </clipPath>
    <clipPath
       clipPathUnits="userSpaceOnUse"
       id="clipPath354">
      <rect
         style="display:block;opacity:0.2"
         width="36"
         height="36"
         x="15.620633"
         y="15.638589"
         rx="2.7690001"
         ry="2.7690001"
         id="rect356" />
    </clipPath>
    <inkscape:path-effect
       effect="powerclip"
       id="path-effect358"
       is_visible="true"
       lpeversion="1"
       inverse="true"
       flatten="false"
       hide_clip="false"
       message="Use fill-rule evenodd on &lt;b&gt;fill and stroke&lt;/b&gt; dialog if no flatten result after convert clip to paths." />
    <clipPath
       clipPathUnits="userSpaceOnUse"
       id="clipPath186">
      <rect
         style="display:block;opacity:0.2"
         width="36"
         height="36"
         x="5.391973"
         y="5.6022935"
         rx="2.7690001"
         ry="2.7690001"
         id="rect188" />
    </clipPath>
    <inkscape:path-effect
       effect="powerclip"
       id="path-effect190"
       is_visible="true"
       lpeversion="1"
       inverse="true"
       flatten="false"
       hide_clip="false"
       message="Use fill-rule evenodd on &lt;b&gt;fill and stroke&lt;/b&gt; dialog if no flatten result after convert clip to paths." />
  </defs>
  <circle
     cx="32.516094"
     cy="31.877844"
     r="0"
     fill="url(#b)"
     stroke-width="1.5715"
     id="circle41"
     style="fill:url(#b)" />
  <g
     aria-label="GZ"
     transform="matrix(1.2212657,0,0,0.81882264,0.4960938,-0.1661539)"
     id="text93"
     style="font-weight:bold;font-size:11.5263px;line-height:1.25;font-family:sans-serif;-inkscape-font-specification:'sans-serif Bold';fill:#f2f2f2;stroke-width:0.288159" />
  <g
     id="g877"
     transform="matrix(1.1,0,0,1.1,-3.1845928,-3.2065454)">
    <path
       d="m 18.347203,7.2464043 c -6.244452,0 -11.2714308,5.1741617 -11.2714308,11.6016437 v 26.767119 c 0,6.427394 5.0268918,11.601644 11.2714308,11.601644 h 26.005262 c 6.244452,0 11.271431,-5.174161 11.271431,-11.601644 V 18.848048 c 0,-6.427393 -5.026893,-11.6016437 -11.271431,-11.6016437 z"
       fill="url(#linearGradient910)"
       stroke-width="3.32418"
       id="path33"
       style="fill:#578376;fill-opacity:1"
       clip-path="url(#clipPath1976)"
       inkscape:path-effect="#path-effect1980"
       inkscape:original-d="m 18.347203,7.2464043 c -6.244452,0 -11.2714308,5.1741617 -11.2714308,11.6016437 v 26.767119 c 0,6.427394 5.0268918,11.601644 11.2714308,11.601644 h 26.005262 c 6.244452,0 11.271431,-5.174161 11.271431,-11.601644 V 18.848048 c 0,-6.427393 -5.026893,-11.6016437 -11.271431,-11.6016437 z"
       transform="matrix(1.1,0,0,1.1,-2.6388896,-3.3893147)" />
    <rect
       x="8.0073938"
       y="7.5283623"
       width="47.677586"
       height="49.074364"
       rx="9.5358982"
       ry="9.8152657"
       fill="url(#linearGradient862)"
       stroke-width="3.26449"
       id="rect35-7"
       style="opacity:1;fill:#f5f7fa;fill-opacity:1" />
    <rect
       x="10.391273"
       y="9.9820805"
       width="42.909828"
       height="44.166924"
       rx="8.5823088"
       ry="8.8337393"
       fill="url(#linearGradient862)"
       stroke-width="2.93805"
       id="rect35-7-3"
       style="fill:#578376;fill-opacity:1" />
  </g>
  <g
     id="g8626"
     transform="matrix(0.729,0,0,0.729,-35.584226,7.782084)">
    <g
       id="g1756"
       transform="matrix(1.331,0,0,1.331,50.203526,-8.6043664)">
      <path
         style="fill:none;stroke:#f5f7fa;stroke-width:2.16821;stroke-linecap:round;stroke-linejoin:round;stroke-opacity:1"
         d="m 19.296822,31.926298 h 5.50599"
         id="path8" />
      <path
         style="fill:none;stroke:#f5f7fa;stroke-width:4.33642;stroke-opacity:1"
         d="m 14.134957,31.926296 c 0,0 0,8.727953 8.258985,8.727953 8.258985,0 11.700229,-17.455905 19.270965,-17.455905 7.570737,0 7.570737,8.727952 7.570737,8.727952 v 0 0"
         id="path10" />
      <path
         style="fill:none;stroke:#f5f7fa;stroke-width:2.16821;stroke-linecap:round;stroke-linejoin:round;stroke-opacity:1"
         d="m 41.320782,28.890486 v 6.07162 m -2.770219,-3.035808 h 5.523214"
         id="path12" />
      <path
         style="fill:none;stroke:#f5f7fa;stroke-width:4.33642;stroke-opacity:1"
         d="m 14.134957,31.926298 c 0,0 0,-8.727954 8.258985,-8.727954 8.258985,0 11.700229,17.455905 19.270965,17.455905 7.570737,0 7.570737,-8.727951 7.570737,-8.727951 v 0 0"
         id="path16-5" />
    </g>
  </g>
</svg>
