<?xml version="1.0" encoding="UTF-8" standalone="no"?>
<svg
   width="64"
   height="64"
   version="1.1"
   id="svg73"
   sodipodi:docname="org.xfce.settings.default-applications.svg"
   inkscape:version="1.2.2 (1:1.2.2+202212051550+b0a8486541)"
   xmlns:inkscape="http://www.inkscape.org/namespaces/inkscape"
   xmlns:sodipodi="http://sodipodi.sourceforge.net/DTD/sodipodi-0.dtd"
   xmlns="http://www.w3.org/2000/svg"
   xmlns:svg="http://www.w3.org/2000/svg"
   xmlns:rdf="http://www.w3.org/1999/02/22-rdf-syntax-ns#"
   xmlns:cc="http://creativecommons.org/ns#"
   xmlns:dc="http://purl.org/dc/elements/1.1/">
  <metadata
     id="metadata77">
    <rdf:RDF>
      <cc:Work
         rdf:about="">
        <dc:format>image/svg+xml</dc:format>
        <dc:type
           rdf:resource="http://purl.org/dc/dcmitype/StillImage" />
      </cc:Work>
    </rdf:RDF>
  </metadata>
  <sodipodi:namedview
     pagecolor="#f5f7fa"
     bordercolor="#666666"
     borderopacity="1"
     objecttolerance="10"
     gridtolerance="10"
     guidetolerance="10"
     inkscape:pageopacity="0"
     inkscape:pageshadow="2"
     inkscape:window-width="1377"
     inkscape:window-height="886"
     id="namedview75"
     showgrid="false"
     inkscape:zoom="6.2890625"
     inkscape:cx="49.371429"
     inkscape:cy="37.843478"
     inkscape:window-x="207"
     inkscape:window-y="108"
     inkscape:window-maximized="0"
     inkscape:current-layer="svg73"
     inkscape:document-rotation="0"
     inkscape:pagecheckerboard="0"
     inkscape:showpageshadow="2"
     inkscape:deskcolor="#d1d1d1" />
  <defs
     id="defs29">
    <inkscape:path-effect
       effect="powerclip"
       id="path-effect1980"
       is_visible="true"
       lpeversion="1"
       inverse="true"
       flatten="false"
       hide_clip="false"
       message="Use fill-rule evenodd on &lt;b&gt;fill and stroke&lt;/b&gt; dialog if no flatten result after convert clip to paths." />
    <linearGradient
       id="b"
       x1="399.57"
       x2="399.57"
       y1="545.8"
       y2="517.8"
       gradientTransform="matrix(2.1429,0,0,2.1429,-825.86391,-1107.6662)"
       gradientUnits="userSpaceOnUse">
      <stop
         stop-color="#3889e9"
         offset="0"
         id="stop2" />
      <stop
         stop-color="#5ea5fb"
         offset="1"
         id="stop4" />
    </linearGradient>
    <linearGradient
       id="linearGradient862"
       x1="7.9373"
       x2="7.9373"
       y1="15.081"
       y2="1.852"
       gradientTransform="matrix(3.3743 0 0 3.3743 3.4312 3.4278)"
       gradientUnits="userSpaceOnUse">
      <stop
         stop-color="#f1efeb"
         offset="0"
         id="stop7" />
      <stop
         stop-color="#fff"
         offset="1"
         id="stop9" />
    </linearGradient>
    <linearGradient
       id="linearGradient910"
       x1="7.9373"
       x2="7.9373"
       y1="15.081"
       y2="1.852"
       gradientTransform="scale(3.7796)"
       gradientUnits="userSpaceOnUse">
      <stop
         stop-color="#613583"
         offset="0"
         id="stop12" />
      <stop
         stop-color="#a663c0"
         offset="1"
         id="stop14" />
    </linearGradient>
    <linearGradient
       id="linearGradient932"
       x1="379.24"
       x2="374.24"
       y1="546.85"
       y2="546.85"
       gradientTransform="matrix(2.1429 0 0 2.1429 -769.68 -1134.5)"
       gradientUnits="userSpaceOnUse">
      <stop
         stop-color="#f6f5f4"
         offset="0"
         id="stop17" />
      <stop
         stop-color="#fff"
         offset=".6"
         id="stop19" />
      <stop
         stop-color="#dddbd8"
         offset="1"
         id="stop21" />
    </linearGradient>
    <linearGradient
       id="linearGradient1146"
       x1="18"
       x2="18"
       y1="52"
       y2="12"
       gradientUnits="userSpaceOnUse">
      <stop
         stop-color="#5e337f"
         offset="0"
         id="stop24" />
      <stop
         stop-color="#ab60bf"
         offset="1"
         id="stop26" />
    </linearGradient>
    <clipPath
       clipPathUnits="userSpaceOnUse"
       id="clipPath1976">
      <rect
         x="9.6784649"
         y="9.925169"
         width="43.343258"
         height="44.613056"
         rx="8.6689987"
         ry="8.9229689"
         fill="url(#linearGradient862)"
         stroke-width="2.96772"
         id="rect1978"
         style="display:none;fill:#333333;fill-opacity:1"
         d="m 18.347464,9.925169 h 26.00526 c 4.802625,0 8.668999,3.979644 8.668999,8.922969 v 26.767118 c 0,4.943325 -3.866374,8.922969 -8.668999,8.922969 h -26.00526 c -4.802626,0 -8.6689991,-3.979644 -8.6689991,-8.922969 V 18.848138 c 0,-4.943325 3.8663731,-8.922969 8.6689991,-8.922969 z" />
      <path
         id="lpe_path-effect1980"
         style="fill:#333333;fill-opacity:1"
         class="powerclip"
         d="M 2.0757722,2.2464043 H 60.623896 V 62.216811 H 2.0757722 Z M 18.347464,9.925169 c -4.802626,0 -8.6689991,3.979644 -8.6689991,8.922969 v 26.767118 c 0,4.943325 3.8663731,8.922969 8.6689991,8.922969 h 26.00526 c 4.802625,0 8.668999,-3.979644 8.668999,-8.922969 V 18.848138 c 0,-4.943325 -3.866374,-8.922969 -8.668999,-8.922969 z" />
    </clipPath>
    <filter
       style="color-interpolation-filters:sRGB;"
       inkscape:label="Drop Shadow"
       id="filter663"
       x="-0.098870968"
       y="-0.096056853"
       width="1.2389382"
       height="1.2321374">
      <feFlood
         flood-opacity="0.301961"
         flood-color="rgb(0,0,0)"
         result="flood"
         id="feFlood653" />
      <feComposite
         in="flood"
         in2="SourceGraphic"
         operator="in"
         result="composite1"
         id="feComposite655" />
      <feGaussianBlur
         in="composite1"
         stdDeviation="2"
         result="blur"
         id="feGaussianBlur657" />
      <feOffset
         dx="2"
         dy="2"
         result="offset"
         id="feOffset659" />
      <feComposite
         in="SourceGraphic"
         in2="offset"
         operator="over"
         result="composite2"
         id="feComposite661" />
    </filter>
    <clipPath
       clipPathUnits="userSpaceOnUse"
       id="clipPath38">
      <rect
         x="0.97311002"
         y="4.6963"
         width="14.987"
         height="9.9216995"
         ry="0.29919001"
         fill="#fffffc"
         id="rect40"
         style="display:block;opacity:0.85;fill:#f2f2f2;stroke-width:0.999999" />
    </clipPath>
    <inkscape:path-effect
       effect="powerclip"
       id="path-effect42"
       is_visible="true"
       lpeversion="1"
       inverse="true"
       flatten="false"
       hide_clip="false"
       message="Use fill-rule evenodd on &lt;b&gt;fill and stroke&lt;/b&gt; dialog if no flatten result after convert clip to paths." />
    <clipPath
       clipPathUnits="userSpaceOnUse"
       id="clipPath30">
      <path
         id="path32"
         style="color:#000000;display:block;opacity:0.85;fill:#f5f7fa;stroke-linecap:round;-inkscape-stroke:none"
         d="m 27.902344,19.023438 c -5.140587,0.01596 -9.820748,0.752518 -13.330078,2.15625 a 2.5,2.5 0 0 0 -1.392578,3.248046 2.5,2.5 0 0 0 3.248046,1.392578 c 3.180816,-1.272325 8.839301,-2.056673 14.796875,-1.699218 5.957575,0.357454 12.260098,1.820223 17.035157,4.548828 a 2.5,2.5 0 0 0 3.410156,-0.929688 2.5,2.5 0 0 0 -0.929688,-3.410156 c -5.72493,-3.271389 -12.67243,-4.808627 -19.214843,-5.201172 -1.226703,-0.0736 -2.436758,-0.109153 -3.623047,-0.105468 z m -1.240235,9.966796 c -1.05657,-0.0087 -2.093217,0.01082 -3.097656,0.05859 -2.678505,0.127409 -5.127438,0.45996 -7.113281,1.027344 a 2,2 0 0 0 -1.375,2.472656 2,2 0 0 0 2.472656,1.375 c 3.028306,-0.86523 8.701737,-1.165792 14.148438,-0.68164 5.4467,0.484152 10.812065,1.834345 13.193359,3.421874 a 2,2 0 0 0 2.773437,-0.554687 2,2 0 0 0 -0.554687,-2.773437 C 43.490675,30.923467 37.856023,29.773657 32.052734,29.257808 30.239207,29.096607 28.42306,29.004783 26.662109,28.99023 Z m 0.917969,8.988282 c -3.813243,-0.0048 -7.379665,0.410834 -10.064453,1.082031 a 2,2 0 0 0 -1.455078,2.423828 2,2 0 0 0 2.423828,1.455078 c 5.391278,-1.347819 17.438862,-1.241506 23.621094,1.849609 a 2,2 0 0 0 2.683593,-0.894531 2,2 0 0 0 -0.894531,-2.683593 c -3.908877,-1.954439 -8.851018,-2.904387 -13.642578,-3.160157 -0.898417,-0.04796 -1.791896,-0.07116 -2.671875,-0.07227 z" />
    </clipPath>
    <inkscape:path-effect
       effect="powerclip"
       id="path-effect34"
       is_visible="true"
       lpeversion="1"
       inverse="true"
       flatten="false"
       hide_clip="false"
       message="Use fill-rule evenodd on &lt;b&gt;fill and stroke&lt;/b&gt; dialog if no flatten result after convert clip to paths." />
    <clipPath
       clipPathUnits="userSpaceOnUse"
       id="clipPath1299">
      <path
         style="color:#000000;display:block;opacity:0.85;fill:#f5f7fa;-inkscape-stroke:none"
         d="m 24.149464,39.847234 c 1.129182,1.129183 1.129024,2.947446 -3.54e-4,4.076824 L 11.920405,56.152763 c -1.129378,1.129378 -2.9476414,1.129536 -4.0768237,3.54e-4 -1.1291824,-1.129183 -1.1290247,-2.947446 3.535e-4,-4.076825 L 20.072639,39.847588 c 1.129379,-1.129378 2.947642,-1.129536 4.076825,-3.54e-4 z"
         id="path1301" />
    </clipPath>
    <inkscape:path-effect
       effect="powerclip"
       id="path-effect1303"
       is_visible="true"
       lpeversion="1"
       inverse="true"
       flatten="false"
       hide_clip="false"
       message="Use fill-rule evenodd on &lt;b&gt;fill and stroke&lt;/b&gt; dialog if no flatten result after convert clip to paths." />
    <clipPath
       clipPathUnits="userSpaceOnUse"
       id="clipPath835">
      <path
         style="fill:#366adb"
         d="m 32,17.466694 v 15.261759 c -1.345739,-0.476141 -2.698156,-0.725645 -4.199935,-0.727989 -5.412306,0 -9.799847,3.133957 -9.799847,6.999891 0,3.865934 4.387541,6.999891 9.799847,6.999891 5.412306,0 10.199842,-3.133957 10.199842,-6.999891 V 22.000621 c 0,0 2.818336,2.432481 3.768941,4.955137 0.485882,1.289406 0.484445,2.60237 -0.631998,3.626114 -0.906512,0.519986 -1.203761,1.323663 -1.044514,2.023403 0.241826,1.062613 1.53443,1.888098 3.330416,1.123812 2.698508,-1.40694 3.576015,-3.929235 3.576015,-6.029204 0,-6.299902 -7.998876,-11.699817 -13.598789,-11.699817 C 32,16.000066 32,17.466694 32,17.466694 Z"
         id="path837" />
    </clipPath>
    <clipPath
       clipPathUnits="userSpaceOnUse"
       id="clipath_lpe_path-effect15-3">
      <path
         id="path18794"
         style="display:block;opacity:0.85;fill:#f5f7fa;stroke-width:1.14168"
         d="m 22.994141,9.2851562 c -2.426789,0 -4.550782,2.1396028 -4.550782,4.5839848 0,2.444382 2.123925,4.582031 4.550782,4.582031 2.426789,0 4.548828,-2.137649 4.548828,-4.582031 0,-2.444382 -2.122039,-4.5839848 -4.548828,-4.5839848 z m 15.925781,0 c -2.426791,0 -4.550781,2.1396028 -4.550781,4.5839848 0,2.444382 2.123922,4.582031 4.550781,4.582031 2.426789,0 4.548828,-2.137649 4.548828,-4.582031 0,-2.444382 -2.122039,-4.5839848 -4.548828,-4.5839848 z M 11.617188,23.035156 c -2.4268575,0 -4.5488286,2.138846 -4.5488286,4.583985 0,2.445137 2.1219711,4.582031 4.5488286,4.582031 2.426857,0 4.550781,-2.136894 4.550781,-4.582031 0,-2.445139 -2.123924,-4.583985 -4.550781,-4.583985 z m 38.677734,0 c -2.42679,0 -4.550781,2.139602 -4.550781,4.583985 0,2.444381 2.123923,4.582031 4.550781,4.582031 2.42679,0 4.550781,-2.13765 4.550781,-4.582031 0,-2.444383 -2.123991,-4.583985 -4.550781,-4.583985 z" />
    </clipPath>
    <inkscape:path-effect
       effect="powerclip"
       id="path-effect15-3"
       is_visible="true"
       lpeversion="1"
       inverse="true"
       flatten="false"
       hide_clip="false"
       message="Use fill-rule evenodd on &lt;b&gt;fill and stroke&lt;/b&gt; dialog if no flatten result after convert clip to paths." />
    <clipPath
       clipPathUnits="userSpaceOnUse"
       id="clipPath601">
      <ellipse
         style="display:none;fill:#666666;stroke:none;stroke-width:1.2408"
         id="ellipse603"
         cx="32.192383"
         cy="38.023426"
         rx="10.958354"
         ry="10.907267" />
    </clipPath>
    <inkscape:path-effect
       effect="powerclip"
       id="path-effect605"
       is_visible="true"
       lpeversion="1"
       inverse="true"
       flatten="false"
       hide_clip="false"
       message="Use fill-rule evenodd on &lt;b&gt;fill and stroke&lt;/b&gt; dialog if no flatten result after convert clip to paths." />
    <clipPath
       clipPathUnits="userSpaceOnUse"
       id="clipPath601-3">
      <ellipse
         style="display:none;fill:#666666;stroke:none;stroke-width:1.2408"
         id="ellipse603-6"
         cx="32.192383"
         cy="38.023426"
         rx="10.958354"
         ry="10.907267"
         d="M 43.150737,38.023426 A 10.958354,10.907267 0 0 1 32.192383,48.930693 10.958354,10.907267 0 0 1 21.234029,38.023426 10.958354,10.907267 0 0 1 32.192383,27.116159 10.958354,10.907267 0 0 1 43.150737,38.023426 Z" />
      <path
         id="lpe_path-effect605"
         style="fill:#666666;stroke:none;stroke-width:1.2408"
         class="powerclip"
         d="M -3.0605469,4.4863281 H 67.306641 V 58.824219 H -3.0605469 Z M 43.150737,38.023426 A 10.958354,10.907267 0 0 0 32.192383,27.116159 10.958354,10.907267 0 0 0 21.234029,38.023426 10.958354,10.907267 0 0 0 32.192383,48.930693 10.958354,10.907267 0 0 0 43.150737,38.023426 Z" />
    </clipPath>
    <inkscape:path-effect
       effect="powerclip"
       id="path-effect605-7"
       is_visible="true"
       lpeversion="1"
       inverse="true"
       flatten="false"
       hide_clip="false"
       message="Use fill-rule evenodd on &lt;b&gt;fill and stroke&lt;/b&gt; dialog if no flatten result after convert clip to paths." />
    <clipPath
       clipPathUnits="userSpaceOnUse"
       id="clipath_lpe_path-effect605-7">
      <ellipse
         style="display:none;fill:#666666;stroke:none;stroke-width:1.2408"
         id="ellipse2622"
         cx="32.192383"
         cy="38.023426"
         rx="10.958354"
         ry="10.907267" />
    </clipPath>
    <clipPath
       clipPathUnits="userSpaceOnUse"
       id="clipPath44">
      <path
         id="path46"
         style="display:block;opacity:0.85;fill:#f2f2f2;stroke-width:4.39162"
         d="m 17.570312,8.4453125 a 6.5431988,7.4283052 9.9958727e-8 0 0 -6.535156,7.4394535 6.5431988,7.4283052 9.9958727e-8 0 0 6.552735,7.417968 6.5431988,7.4283052 9.9958727e-8 0 0 6.535156,-7.4375 6.5431988,7.4283052 9.9958727e-8 0 0 -6.552735,-7.4199215 z M 45.646484,41.177734 a 6.5431986,7.0703472 2.4665357e-6 0 0 -6.533203,7.080078 6.5431986,7.0703472 2.4665357e-6 0 0 6.550781,7.060547 6.5431986,7.0703472 2.4665357e-6 0 0 6.535157,-7.080078 6.5431986,7.0703472 2.4665357e-6 0 0 -6.552735,-7.060547 z" />
    </clipPath>
    <inkscape:path-effect
       effect="powerclip"
       id="path-effect48"
       is_visible="true"
       lpeversion="1"
       inverse="true"
       flatten="false"
       hide_clip="false"
       message="Use fill-rule evenodd on &lt;b&gt;fill and stroke&lt;/b&gt; dialog if no flatten result after convert clip to paths." />
    <clipPath
       clipPathUnits="userSpaceOnUse"
       id="clipath_lpe_path-effect197-1">
      <g
         id="g22290"
         style="display:block">
        <path
           id="path22288"
           style="color:#000000;opacity:0.85;fill:#f5f7fa;stroke-width:2.97138;-inkscape-stroke:none"
           d="m 20.630859,13.712891 c -3.468166,-0.0017 -6.260369,2.787692 -6.259765,6.255859 6.04e-4,3.468166 2.793552,6.26197 6.261718,6.263672 l 22.275391,0.01172 c 3.468167,0.0017 6.26037,-2.789647 6.259766,-6.257813 -6.04e-4,-3.468167 -2.793552,-6.26197 -6.261719,-6.263672 z m 0.132813,17.759765 c -3.542387,-0.0017 -6.393071,2.848239 -6.392578,6.390625 4.93e-4,3.542386 2.852144,6.394827 6.394531,6.396485 l 22.007813,0.01172 c 3.542385,0.0017 6.395024,-2.850192 6.394531,-6.392578 -4.93e-4,-3.542386 -2.854099,-6.394826 -6.396485,-6.396484 z" />
      </g>
    </clipPath>
    <inkscape:path-effect
       effect="powerclip"
       id="path-effect197-1"
       is_visible="true"
       lpeversion="1"
       inverse="true"
       flatten="false"
       hide_clip="false"
       message="Use fill-rule evenodd on &lt;b&gt;fill and stroke&lt;/b&gt; dialog if no flatten result after convert clip to paths." />
    <clipPath
       clipPathUnits="userSpaceOnUse"
       id="clipPath884">
      <path
         id="path886"
         style="display:block;fill:#68b723;stroke-width:0.0977224"
         d="m 35.271484,14.238281 c -0.370344,0 -0.671875,0.351696 -0.671875,0.785157 v 6.43164 c 0,0.433461 0.301531,0.783203 0.671875,0.783203 h 11.658204 c 0.370344,0 0.669921,-0.349742 0.669921,-0.783203 v -6.43164 c 0,-0.433461 -0.299576,-0.785157 -0.669921,-0.785157 z m -23.691406,8 c -0.540841,0 -0.980469,0.475084 -0.980469,1.058594 v 5.884766 c 0,0.58351 0.439628,1.05664 0.980469,1.05664 h 17.041016 c 0.540841,0 0.978515,-0.47313 0.978515,-1.05664 v -5.884766 c 0,-0.58351 -0.437674,-1.058594 -0.978515,-1.058594 z m 23.691406,8 c -0.370344,0 -0.671875,0.351754 -0.671875,0.785157 v 6.429687 c 0,0.433404 0.301531,0.785156 0.671875,0.785156 h 11.658204 c 0.370344,0 0.669921,-0.351752 0.669921,-0.785156 v -6.429687 c 0,-0.433403 -0.299576,-0.785157 -0.669921,-0.785157 z" />
    </clipPath>
    <inkscape:path-effect
       effect="powerclip"
       id="path-effect888"
       is_visible="true"
       lpeversion="1"
       inverse="true"
       flatten="false"
       hide_clip="false"
       message="Use fill-rule evenodd on &lt;b&gt;fill and stroke&lt;/b&gt; dialog if no flatten result after convert clip to paths." />
    <clipPath
       clipPathUnits="userSpaceOnUse"
       id="clipPath874">
      <path
         style="display:none;fill:#00b7b7;stroke-width:1.58234"
         class="st2"
         d="m 58.556266,10.584997 c 2.979752,-0.291803 5.755802,1.976547 6.35019,5.323836 0.612314,3.445142 -1.301712,6.789323 -4.305052,7.658192 -0.09493,0.01729 -0.185728,0.02826 -0.276198,0.04846 -10.755778,2.33665 -18.21924,12.157677 -18.166314,23.839668 -1.735412,-1.891167 -4.268797,-2.83445 -6.846898,-2.274693 -2.195612,0.473034 -3.983974,1.95266 -5.055522,3.90586 -0.778389,-18.498171 10.825562,-34.726431 27.765386,-38.403404 0.177235,-0.03773 0.355754,-0.06138 0.534404,-0.09792"
         id="path876" />
      <path
         id="lpe_path-effect878"
         style="fill:#00b7b7;stroke-width:1.58234"
         class="powerclip"
         d="M 26.092171,3.6125957 H 64.573014 V 43.784891 H 26.092171 Z m 32.464091,6.9724003 c -0.17865,0.03654 -0.357169,0.06019 -0.534404,0.09792 -16.939824,3.676973 -28.543775,19.905233 -27.765386,38.403404 1.071548,-1.9532 2.85991,-3.432826 5.055522,-3.90586 2.578101,-0.559757 5.111486,0.383526 6.846898,2.274693 -0.05293,-11.681991 7.410536,-21.503018 18.166314,-23.839668 0.09047,-0.0202 0.181268,-0.03117 0.276198,-0.04846 3.00334,-0.868869 4.917366,-4.21305 4.305052,-7.658192 -0.594388,-3.347289 -3.370438,-5.615639 -6.35019,-5.323836" />
    </clipPath>
    <inkscape:path-effect
       effect="powerclip"
       id="path-effect878"
       is_visible="true"
       lpeversion="1"
       inverse="true"
       flatten="false"
       hide_clip="false"
       message="Use fill-rule evenodd on &lt;b&gt;fill and stroke&lt;/b&gt; dialog if no flatten result after convert clip to paths." />
    <clipPath
       clipPathUnits="userSpaceOnUse"
       id="clipPath914">
      <path
         style="display:none;fill:#06aff2;stroke-width:1.58234"
         class="st0"
         d="m 25.256917,50.312305 c 3.202994,0.696211 6.332199,-1.648453 6.969603,-5.226853 0.585917,-3.287094 -1.135554,-6.489677 -3.906138,-7.524847 -0.268007,-0.0432 -0.534122,-0.09544 -0.797946,-0.15091 C 16.775285,35.074093 11.024775,24.605741 11.061025,12.935443 9.3312055,14.879502 6.7641655,15.85623 4.1526867,15.28614 1.9946247,14.818037 0.23288457,13.382414 -0.84989079,11.475354 -1.536207,29.897083 8.3408303,46.677042 25.220813,50.341374 c 0.007,0.0031 0.01958,0.0031 0.03048,0.0031 z"
         id="path916" />
      <path
         id="lpe_path-effect918"
         style="fill:#06aff2;stroke-width:1.58234"
         class="powerclip"
         d="M -3.1092278,14.578495 H 36.008851 V 54.867673 H -3.1092278 Z m 28.3661448,35.73381 c 3.202994,0.696211 6.332199,-1.648453 6.969603,-5.226853 0.585917,-3.287094 -1.135554,-6.489677 -3.906138,-7.524847 -0.268007,-0.0432 -0.534122,-0.09544 -0.797946,-0.15091 C 16.775285,35.074093 11.024775,24.605741 11.061025,12.935443 9.3312055,14.879502 6.7641655,15.85623 4.1526867,15.28614 1.9946247,14.818037 0.23288457,13.382414 -0.84989079,11.475354 -1.536207,29.897083 8.3408303,46.677042 25.220813,50.341374 c 0.007,0.0031 0.01958,0.0031 0.03048,0.0031 z" />
    </clipPath>
    <inkscape:path-effect
       effect="powerclip"
       id="path-effect918"
       is_visible="true"
       lpeversion="1"
       inverse="true"
       flatten="false"
       hide_clip="false"
       message="Use fill-rule evenodd on &lt;b&gt;fill and stroke&lt;/b&gt; dialog if no flatten result after convert clip to paths." />
  </defs>
  <circle
     cx="32.516094"
     cy="31.877844"
     r="0"
     fill="url(#b)"
     stroke-width="1.5715"
     id="circle41"
     style="fill:url(#b)" />
  <g
     aria-label="GZ"
     transform="matrix(1.2212657,0,0,0.81882264,0.4960938,-0.1661539)"
     id="text93"
     style="font-weight:bold;font-size:11.5263px;line-height:1.25;font-family:sans-serif;-inkscape-font-specification:'sans-serif Bold';fill:#f2f2f2;stroke-width:0.288159" />
  <g
     id="g877"
     transform="matrix(1.1,0,0,1.1,-3.1845928,-3.2065454)">
    <path
       d="m 18.347203,7.2464043 c -6.244452,0 -11.2714308,5.1741617 -11.2714308,11.6016437 v 26.767119 c 0,6.427394 5.0268918,11.601644 11.2714308,11.601644 h 26.005262 c 6.244452,0 11.271431,-5.174161 11.271431,-11.601644 V 18.848048 c 0,-6.427393 -5.026893,-11.6016437 -11.271431,-11.6016437 z"
       fill="url(#linearGradient910)"
       stroke-width="3.32418"
       id="path33"
       style="fill:#578376;fill-opacity:1"
       clip-path="url(#clipPath1976)"
       inkscape:path-effect="#path-effect1980"
       inkscape:original-d="m 18.347203,7.2464043 c -6.244452,0 -11.2714308,5.1741617 -11.2714308,11.6016437 v 26.767119 c 0,6.427394 5.0268918,11.601644 11.2714308,11.601644 h 26.005262 c 6.244452,0 11.271431,-5.174161 11.271431,-11.601644 V 18.848048 c 0,-6.427393 -5.026893,-11.6016437 -11.271431,-11.6016437 z"
       transform="matrix(1.1,0,0,1.1,-2.6388896,-3.3893147)" />
    <rect
       x="8.0073938"
       y="7.5283623"
       width="47.677586"
       height="49.074364"
       rx="9.5358982"
       ry="9.8152657"
       fill="url(#linearGradient862)"
       stroke-width="3.26449"
       id="rect35-7"
       style="opacity:1;fill:#f5f7fa;fill-opacity:1" />
    <rect
       x="10.391273"
       y="9.9820805"
       width="42.909828"
       height="44.166924"
       rx="8.5823088"
       ry="8.8337393"
       fill="url(#linearGradient862)"
       stroke-width="2.93805"
       id="rect35-7-3"
       style="fill:#578376;fill-opacity:1" />
  </g>
  <g
     id="g27"
     style="fill:#f5f7fa;fill-opacity:1"
     transform="matrix(0.58968441,0,0,0.58456758,12.956328,12.872068)">
    <path
       style="fill:#f5f7fa;fill-opacity:1;stroke-width:1.31862"
       d="m 33.449923,8.6125957 c 1.195818,2.6734163 1.114998,5.9761793 -0.41175,8.6060133 -0.532899,0.917924 -1.203177,1.669522 -1.946002,2.289524 8.853009,-0.100594 16.808483,4.932632 18.577713,14.862962 0.0012,0.0052 0.0026,0.01303 0.005,0.02161 l 0.0148,-0.0056 c 0.523324,2.95301 3.146698,4.880161 5.847814,4.292184 2.421682,-0.526368 4.089956,-2.897059 4.034157,-5.510015 -0.04891,-0.304948 -0.08753,-0.60598 -0.142149,-0.914727 C 56.887722,17.982092 45.988716,9.5185863 33.449923,8.6125957 Z"
       id="path10"
       clip-path="url(#clipPath874)"
       inkscape:path-effect="#path-effect878"
       inkscape:original-d="m 33.449923,8.6125957 c 1.195818,2.6734163 1.114998,5.9761793 -0.41175,8.6060133 -0.532899,0.917924 -1.203177,1.669522 -1.946002,2.289524 8.853009,-0.100594 16.808483,4.932632 18.577713,14.862962 0.0012,0.0052 0.0026,0.01303 0.005,0.02161 l 0.0148,-0.0056 c 0.523324,2.95301 3.146698,4.880161 5.847814,4.292184 2.421682,-0.526368 4.089956,-2.897059 4.034157,-5.510015 -0.04891,-0.304948 -0.08753,-0.60598 -0.142149,-0.914727 C 56.887722,17.982092 45.988716,9.5185863 33.449923,8.6125957 Z" />
    <path
       style="fill:#f5f7fa;fill-opacity:1;stroke-width:1.31862"
       d="m 31.008841,19.578496 c -1.89253,1.53743 -4.304958,2.127043 -6.60759,1.656253 -1.082828,-0.221395 -2.141467,-0.674809 -3.102821,-1.363973 -0.08375,-0.06003 -0.144258,-0.143052 -0.225472,-0.205682 -0.426959,9.270779 -6.474781,17.418375 -15.0876535,19.290459 -0.1394091,0.03095 -0.2847602,0.05035 -0.4264542,0.0812 -2.4948657,0.729089 -4.0815553,3.507752 -3.5733918,6.370613 0.4997663,2.793255 2.8159834,4.687566 5.3037178,4.43832 0.2046914,-0.03841 0.4117878,-0.07804 0.6176232,-0.11908 C 21.283819,46.820448 30.61189,34.026734 31.008851,19.578495 Z"
       id="path16"
       clip-path="url(#clipPath914)"
       inkscape:path-effect="#path-effect918"
       inkscape:original-d="m 31.008841,19.578496 c -1.89253,1.53743 -4.304958,2.127043 -6.60759,1.656253 -1.082828,-0.221395 -2.141467,-0.674809 -3.102821,-1.363973 -0.08375,-0.06003 -0.144258,-0.143052 -0.225472,-0.205682 -0.426959,9.270779 -6.474781,17.418375 -15.0876535,19.290459 -0.1394091,0.03095 -0.2847602,0.05035 -0.4264542,0.0812 -2.4948657,0.729089 -4.0815553,3.507752 -3.5733918,6.370613 0.4997663,2.793255 2.8159834,4.687566 5.3037178,4.43832 0.2046914,-0.03841 0.4117878,-0.07804 0.6176232,-0.11908 C 21.283819,46.820448 30.61189,34.026734 31.008851,19.578495 Z" />
    <path
       style="fill:#f5f7fa;fill-opacity:1;fill-rule:evenodd;stroke-width:1.31862"
       d="m 38.579952,52.686367 c 0.381015,0.309101 -0.189361,0.719622 -0.465262,0.699264 -0.747674,-0.05516 -1.005578,-1.058282 -0.801281,-1.726756 0.365437,-1.195742 1.694977,-1.553124 2.662324,-1.070304 1.41962,0.70856 1.817486,2.695212 1.137305,4.152777 -0.906575,1.942705 -3.18993,2.465211 -4.859388,1.441342 -2.100843,-1.288432 -2.64974,-4.351161 -1.473328,-6.578795 1.424793,-2.697964 4.691954,-3.387875 7.056452,-1.812382 2.78648,1.856663 3.487313,6.011225 1.80935,9.004816 -1.937275,3.456218 -6.196226,4.31414 -9.253516,2.183421 -3.473886,-2.421057 -4.327027,-7.672918 -2.145372,-11.430837 2.447488,-4.215816 7.701523,-5.242042 11.45058,-2.55446 4.162164,2.983726 5.167814,9.33543 2.481395,13.856856"
       id="path28" />
    <path
       style="fill:#f5f7fa;fill-opacity:1;fill-rule:evenodd;stroke-width:1.31862"
       d="m 26.427309,11.993457 c -0.317513,-0.257585 0.157799,-0.599684 0.387716,-0.582721 0.623062,0.04598 0.837983,0.881901 0.667736,1.438964 -0.304532,0.996451 -1.412482,1.29427 -2.218603,0.891918 -1.183017,-0.590466 -1.514572,-2.246007 -0.947755,-3.460646 0.75548,-1.6189206 2.658276,-2.0543426 4.049491,-1.2011195 1.750701,1.0736955 2.208117,3.6259685 1.227772,5.4823305 -1.187328,2.248302 -3.909961,2.82323 -5.880376,1.51032 -2.322066,-1.547221 -2.906094,-5.009355 -1.507792,-7.5040143 1.614395,-2.8801819 5.163521,-3.5951172 7.711263,-1.8195186 2.894906,2.0175476 3.605857,6.3940989 1.787811,9.5256969 -2.039574,3.51318 -6.417936,4.36837 -9.54215,2.128718 -3.46847,-2.486437 -4.306512,-7.779526 -2.067829,-11.5473798"
       id="path30" />
    <path
       style="fill:#f5f7fa;fill-opacity:1;fill-rule:evenodd;stroke-width:1.31862"
       d="m 7.1288816,11.797562 c 0.2307053,-0.18716 -0.114656,-0.435731 -0.2817152,-0.423405 -0.4527164,0.03341 -0.6088787,0.64079 -0.4851756,1.04555 0.2212721,0.724023 1.026308,0.940418 1.6120363,0.64807 0.8595804,-0.429033 1.1004882,-1.63195 0.6886382,-2.514505 C 8.1137344,9.3769629 6.7311637,9.0605852 5.7203057,9.6805375 4.4482458,10.460684 4.1158884,12.315167 4.828206,13.663999 5.6909183,15.297615 7.6691837,15.715357 9.1008877,14.761397 10.788102,13.637188 11.212456,11.1216 10.196449,9.3089801 9.0234298,7.2162404 6.4446351,6.6967679 4.5934455,7.9869179 2.4900067,9.4528673 1.9734298,12.63287 3.2944223,14.908289 c 1.4819537,2.552678 4.6632722,3.174059 6.9333257,1.546727 2.52019,-1.806645 3.129113,-5.652604 1.502485,-8.3903273"
       id="path32-3" />
    <path
       style="fill:#f5f7fa;fill-opacity:1;stroke-width:1.31862"
       class="st2"
       d="m 56.873052,12.465677 c 2.483127,-0.243169 4.796502,1.647123 5.291825,4.43653 0.510262,2.870952 -1.08476,5.657769 -3.587543,6.381827 -0.07911,0.01441 -0.154774,0.02355 -0.230165,0.04038 -8.963149,1.947208 -15.1827,10.131397 -15.138595,19.86639 -1.446177,-1.575973 -3.557331,-2.362042 -5.705749,-1.895578 -1.829676,0.394195 -3.319978,1.627217 -4.212935,3.254884 -0.648657,-15.415143 9.021302,-28.938693 23.137822,-32.002837 0.147696,-0.03144 0.296462,-0.05115 0.445337,-0.0816"
       id="path26-3" />
    <path
       style="fill:#f5f7fa;fill-opacity:1;stroke-width:1.31862"
       class="st0"
       d="m 23.951416,48.64406 c 2.669162,0.580176 5.276833,-1.373711 5.808003,-4.355711 0.488264,-2.739245 -0.946295,-5.408064 -3.255115,-6.270706 -0.223339,-0.036 -0.445102,-0.07953 -0.664955,-0.125758 C 16.88339,35.94555 12.091298,27.221923 12.121506,17.496675 c -1.441516,1.620049 -3.5807162,2.433989 -5.7569482,1.958914 -1.798385,-0.390086 -3.266502,-1.586438 -4.168815,-3.175655 -0.57193,15.351441 7.658934,29.33474 21.7255872,32.38835 0.0058,0.0026 0.01632,0.0026 0.0254,0.0026 z"
       id="path20-6" />
  </g>
</svg>
