<?xml version="1.0" encoding="UTF-8" standalone="no"?>
<svg
   width="64"
   height="64"
   version="1.1"
   id="svg73"
   sodipodi:docname="zorin-appearance.svg"
   inkscape:version="1.2.2 (1:1.2.2+202212051550+b0a8486541)"
   xmlns:inkscape="http://www.inkscape.org/namespaces/inkscape"
   xmlns:sodipodi="http://sodipodi.sourceforge.net/DTD/sodipodi-0.dtd"
   xmlns="http://www.w3.org/2000/svg"
   xmlns:svg="http://www.w3.org/2000/svg"
   xmlns:rdf="http://www.w3.org/1999/02/22-rdf-syntax-ns#"
   xmlns:cc="http://creativecommons.org/ns#"
   xmlns:dc="http://purl.org/dc/elements/1.1/">
  <metadata
     id="metadata77">
    <rdf:RDF>
      <cc:Work
         rdf:about="">
        <dc:format>image/svg+xml</dc:format>
        <dc:type
           rdf:resource="http://purl.org/dc/dcmitype/StillImage" />
      </cc:Work>
    </rdf:RDF>
  </metadata>
  <sodipodi:namedview
     pagecolor="#f5f7fa"
     bordercolor="#666666"
     borderopacity="1"
     objecttolerance="10"
     gridtolerance="10"
     guidetolerance="10"
     inkscape:pageopacity="0"
     inkscape:pageshadow="2"
     inkscape:window-width="1377"
     inkscape:window-height="886"
     id="namedview75"
     showgrid="false"
     inkscape:zoom="6.2890625"
     inkscape:cx="49.212422"
     inkscape:cy="37.843478"
     inkscape:window-x="207"
     inkscape:window-y="108"
     inkscape:window-maximized="0"
     inkscape:current-layer="svg73"
     inkscape:document-rotation="0"
     inkscape:pagecheckerboard="0"
     inkscape:showpageshadow="2"
     inkscape:deskcolor="#d1d1d1" />
  <defs
     id="defs29">
    <inkscape:path-effect
       effect="powerclip"
       id="path-effect1980"
       is_visible="true"
       lpeversion="1"
       inverse="true"
       flatten="false"
       hide_clip="false"
       message="Use fill-rule evenodd on &lt;b&gt;fill and stroke&lt;/b&gt; dialog if no flatten result after convert clip to paths." />
    <linearGradient
       id="b"
       x1="399.57"
       x2="399.57"
       y1="545.8"
       y2="517.8"
       gradientTransform="matrix(2.1429,0,0,2.1429,-825.86391,-1107.6662)"
       gradientUnits="userSpaceOnUse">
      <stop
         stop-color="#3889e9"
         offset="0"
         id="stop2" />
      <stop
         stop-color="#5ea5fb"
         offset="1"
         id="stop4" />
    </linearGradient>
    <linearGradient
       id="linearGradient862"
       x1="7.9373"
       x2="7.9373"
       y1="15.081"
       y2="1.852"
       gradientTransform="matrix(3.3743 0 0 3.3743 3.4312 3.4278)"
       gradientUnits="userSpaceOnUse">
      <stop
         stop-color="#f1efeb"
         offset="0"
         id="stop7" />
      <stop
         stop-color="#fff"
         offset="1"
         id="stop9" />
    </linearGradient>
    <linearGradient
       id="linearGradient910"
       x1="7.9373"
       x2="7.9373"
       y1="15.081"
       y2="1.852"
       gradientTransform="scale(3.7796)"
       gradientUnits="userSpaceOnUse">
      <stop
         stop-color="#613583"
         offset="0"
         id="stop12" />
      <stop
         stop-color="#a663c0"
         offset="1"
         id="stop14" />
    </linearGradient>
    <linearGradient
       id="linearGradient932"
       x1="379.24"
       x2="374.24"
       y1="546.85"
       y2="546.85"
       gradientTransform="matrix(2.1429 0 0 2.1429 -769.68 -1134.5)"
       gradientUnits="userSpaceOnUse">
      <stop
         stop-color="#f6f5f4"
         offset="0"
         id="stop17" />
      <stop
         stop-color="#fff"
         offset=".6"
         id="stop19" />
      <stop
         stop-color="#dddbd8"
         offset="1"
         id="stop21" />
    </linearGradient>
    <linearGradient
       id="linearGradient1146"
       x1="18"
       x2="18"
       y1="52"
       y2="12"
       gradientUnits="userSpaceOnUse">
      <stop
         stop-color="#5e337f"
         offset="0"
         id="stop24" />
      <stop
         stop-color="#ab60bf"
         offset="1"
         id="stop26" />
    </linearGradient>
    <clipPath
       clipPathUnits="userSpaceOnUse"
       id="clipPath1976">
      <rect
         x="9.6784649"
         y="9.925169"
         width="43.343258"
         height="44.613056"
         rx="8.6689987"
         ry="8.9229689"
         fill="url(#linearGradient862)"
         stroke-width="2.96772"
         id="rect1978"
         style="display:none;fill:#333333;fill-opacity:1"
         d="m 18.347464,9.925169 h 26.00526 c 4.802625,0 8.668999,3.979644 8.668999,8.922969 v 26.767118 c 0,4.943325 -3.866374,8.922969 -8.668999,8.922969 h -26.00526 c -4.802626,0 -8.6689991,-3.979644 -8.6689991,-8.922969 V 18.848138 c 0,-4.943325 3.8663731,-8.922969 8.6689991,-8.922969 z" />
      <path
         id="lpe_path-effect1980"
         style="fill:#333333;fill-opacity:1"
         class="powerclip"
         d="M 2.0757722,2.2464043 H 60.623896 V 62.216811 H 2.0757722 Z M 18.347464,9.925169 c -4.802626,0 -8.6689991,3.979644 -8.6689991,8.922969 v 26.767118 c 0,4.943325 3.8663731,8.922969 8.6689991,8.922969 h 26.00526 c 4.802625,0 8.668999,-3.979644 8.668999,-8.922969 V 18.848138 c 0,-4.943325 -3.866374,-8.922969 -8.668999,-8.922969 z" />
    </clipPath>
    <filter
       style="color-interpolation-filters:sRGB;"
       inkscape:label="Drop Shadow"
       id="filter663"
       x="-0.098870968"
       y="-0.096056853"
       width="1.2389382"
       height="1.2321374">
      <feFlood
         flood-opacity="0.301961"
         flood-color="rgb(0,0,0)"
         result="flood"
         id="feFlood653" />
      <feComposite
         in="flood"
         in2="SourceGraphic"
         operator="in"
         result="composite1"
         id="feComposite655" />
      <feGaussianBlur
         in="composite1"
         stdDeviation="2"
         result="blur"
         id="feGaussianBlur657" />
      <feOffset
         dx="2"
         dy="2"
         result="offset"
         id="feOffset659" />
      <feComposite
         in="SourceGraphic"
         in2="offset"
         operator="over"
         result="composite2"
         id="feComposite661" />
    </filter>
    <clipPath
       clipPathUnits="userSpaceOnUse"
       id="clipPath38">
      <rect
         x="0.97311002"
         y="4.6963"
         width="14.987"
         height="9.9216995"
         ry="0.29919001"
         fill="#fffffc"
         id="rect40"
         style="display:block;opacity:0.85;fill:#f2f2f2;stroke-width:0.999999" />
    </clipPath>
    <inkscape:path-effect
       effect="powerclip"
       id="path-effect42"
       is_visible="true"
       lpeversion="1"
       inverse="true"
       flatten="false"
       hide_clip="false"
       message="Use fill-rule evenodd on &lt;b&gt;fill and stroke&lt;/b&gt; dialog if no flatten result after convert clip to paths." />
    <clipPath
       clipPathUnits="userSpaceOnUse"
       id="clipPath30">
      <path
         id="path32"
         style="color:#000000;display:block;opacity:0.85;fill:#f5f7fa;stroke-linecap:round;-inkscape-stroke:none"
         d="m 27.902344,19.023438 c -5.140587,0.01596 -9.820748,0.752518 -13.330078,2.15625 a 2.5,2.5 0 0 0 -1.392578,3.248046 2.5,2.5 0 0 0 3.248046,1.392578 c 3.180816,-1.272325 8.839301,-2.056673 14.796875,-1.699218 5.957575,0.357454 12.260098,1.820223 17.035157,4.548828 a 2.5,2.5 0 0 0 3.410156,-0.929688 2.5,2.5 0 0 0 -0.929688,-3.410156 c -5.72493,-3.271389 -12.67243,-4.808627 -19.214843,-5.201172 -1.226703,-0.0736 -2.436758,-0.109153 -3.623047,-0.105468 z m -1.240235,9.966796 c -1.05657,-0.0087 -2.093217,0.01082 -3.097656,0.05859 -2.678505,0.127409 -5.127438,0.45996 -7.113281,1.027344 a 2,2 0 0 0 -1.375,2.472656 2,2 0 0 0 2.472656,1.375 c 3.028306,-0.86523 8.701737,-1.165792 14.148438,-0.68164 5.4467,0.484152 10.812065,1.834345 13.193359,3.421874 a 2,2 0 0 0 2.773437,-0.554687 2,2 0 0 0 -0.554687,-2.773437 C 43.490675,30.923467 37.856023,29.773657 32.052734,29.257808 30.239207,29.096607 28.42306,29.004783 26.662109,28.99023 Z m 0.917969,8.988282 c -3.813243,-0.0048 -7.379665,0.410834 -10.064453,1.082031 a 2,2 0 0 0 -1.455078,2.423828 2,2 0 0 0 2.423828,1.455078 c 5.391278,-1.347819 17.438862,-1.241506 23.621094,1.849609 a 2,2 0 0 0 2.683593,-0.894531 2,2 0 0 0 -0.894531,-2.683593 c -3.908877,-1.954439 -8.851018,-2.904387 -13.642578,-3.160157 -0.898417,-0.04796 -1.791896,-0.07116 -2.671875,-0.07227 z" />
    </clipPath>
    <inkscape:path-effect
       effect="powerclip"
       id="path-effect34"
       is_visible="true"
       lpeversion="1"
       inverse="true"
       flatten="false"
       hide_clip="false"
       message="Use fill-rule evenodd on &lt;b&gt;fill and stroke&lt;/b&gt; dialog if no flatten result after convert clip to paths." />
    <clipPath
       clipPathUnits="userSpaceOnUse"
       id="clipPath1299">
      <path
         style="color:#000000;display:block;opacity:0.85;fill:#f5f7fa;-inkscape-stroke:none"
         d="m 24.149464,39.847234 c 1.129182,1.129183 1.129024,2.947446 -3.54e-4,4.076824 L 11.920405,56.152763 c -1.129378,1.129378 -2.9476414,1.129536 -4.0768237,3.54e-4 -1.1291824,-1.129183 -1.1290247,-2.947446 3.535e-4,-4.076825 L 20.072639,39.847588 c 1.129379,-1.129378 2.947642,-1.129536 4.076825,-3.54e-4 z"
         id="path1301" />
    </clipPath>
    <inkscape:path-effect
       effect="powerclip"
       id="path-effect1303"
       is_visible="true"
       lpeversion="1"
       inverse="true"
       flatten="false"
       hide_clip="false"
       message="Use fill-rule evenodd on &lt;b&gt;fill and stroke&lt;/b&gt; dialog if no flatten result after convert clip to paths." />
    <clipPath
       clipPathUnits="userSpaceOnUse"
       id="clipPath65">
      <rect
         style="display:block;fill:#29292a;stroke-width:1.04339"
         width="39.68671"
         height="39.611187"
         x="20.884548"
         y="-42.184746"
         rx="3.1331613"
         ry="3.1271992"
         id="rect67" />
    </clipPath>
    <inkscape:path-effect
       effect="powerclip"
       id="path-effect69"
       is_visible="true"
       lpeversion="1"
       inverse="true"
       flatten="false"
       hide_clip="false"
       message="Use fill-rule evenodd on &lt;b&gt;fill and stroke&lt;/b&gt; dialog if no flatten result after convert clip to paths." />
    <clipPath
       clipPathUnits="userSpaceOnUse"
       id="clipPath490">
      <path
         style="color:#000000;display:block;stroke-width:0.856501;-inkscape-stroke:none"
         d="m 31.927734,-10.148438 h 23.589844 v -9.83789 c 0,-7.177478 -5.188572,-12.820314 -11.722656,-12.820314 -6.639685,0 -11.867188,5.642489 -11.867188,12.820314 z m 5.054688,-6.474609 v -3.226562 c 0,-3.812601 3.037221,-6.484375 6.8125,-6.484375 3.696036,0 6.27186,2.690808 6.667969,6.484375 v 3.226562 z"
         id="path492" />
    </clipPath>
    <inkscape:path-effect
       effect="powerclip"
       id="path-effect494"
       is_visible="true"
       lpeversion="1"
       inverse="true"
       flatten="false"
       hide_clip="false"
       message="Use fill-rule evenodd on &lt;b&gt;fill and stroke&lt;/b&gt; dialog if no flatten result after convert clip to paths." />
    <clipPath
       clipPathUnits="userSpaceOnUse"
       id="clipPath258">
      <path
         style="display:block;fill:#f5f7fa"
         d="m 31.978516,12.001953 c -1.699625,0.01432 -3.591033,0.145945 -4.63086,0.408203 -3.480707,0.877876 -5.264692,2.529356 -5.21289,4.820313 0.04502,1.990368 1.016741,3.283374 5.548828,6.626953 2.245133,1.65636 4.031839,3.555105 3.974609,3.724609 -0.05722,0.16948 -1.082251,0.553402 -2.279297,0.853516 -4.729771,1.185798 -8.659107,3.975287 -10.332031,7.330078 -1.408888,3.322427 -1.376533,6.838563 -0.0098,9.597656 2.230713,4.473358 7.145706,6.980528 12.933594,6.59961 1.205134,-0.07932 3.04217,-0.402264 4.080078,-0.71875 2.309711,-0.704286 4.654063,-2.192498 6.478516,-4 3.417547,-3.325731 4.369021,-9.224241 2.599609,-13.048829 -1.437493,-2.92214 -4.332378,-5.461695 -9.947265,-8.722656 -7.920447,-4.599963 -8.922569,-5.733546 -9.892579,-6.824218 -0.510851,-0.574395 -0.927734,-1.356117 -0.927734,-1.736329 0,-2.615801 5.650409,-4.08274 9.183594,-2.439453 0.826338,0.384331 2.380834,1.400565 3.455078,2.259766 3.156047,2.524283 4.660945,2.861711 6.238281,1.408203 1.795311,-1.654367 0.168062,-4.135777 -3.470703,-5.298828 -1.756146,-0.561305 -4.956349,-0.863699 -7.789062,-0.839844 z M 33.451172,30 c 0.643225,0.0016 0.986374,0.316876 2.3125,1.558594 3.061827,2.866924 4.5329,6.331522 4.185547,9.859375 C 39.474382,45.421924 36.759923,48.896222 32.164062,49 27.385053,49.04098 24.027366,44.17543 24,40.056641 c -0.01733,-3.527365 0.549749,-5.164408 2.439453,-7.03711 1.448476,-1.435446 3.946288,-2.615126 6.222656,-2.939453 0.328273,-0.04676 0.574652,-0.08066 0.789063,-0.08008 z"
         id="path260" />
    </clipPath>
    <inkscape:path-effect
       effect="powerclip"
       id="path-effect262"
       is_visible="true"
       lpeversion="1"
       inverse="true"
       flatten="false"
       hide_clip="false"
       message="Use fill-rule evenodd on &lt;b&gt;fill and stroke&lt;/b&gt; dialog if no flatten result after convert clip to paths." />
    <clipPath
       clipPathUnits="userSpaceOnUse"
       id="clipPath347">
      <path
         style="display:block;fill:#f5f7fa"
         d="m 38.300902,56.78249 c -1.334364,-2.291496 -2.778704,-4.519898 -4.052904,-6.845668 2.758196,-2.264734 5.675506,-4.331474 8.42268,-6.610076 -3.96146,-12.028254 -7.958836,-24.045099 -11.99137,-36.0497144 -0.04516,1.527943 0.284274,3.5325754 0.399994,5.2497554 0.878524,9.457905 1.745728,18.916859 2.61645,28.375485 -0.784614,1.393886 -1.498442,2.831802 -2.369634,4.173796 -0.958346,-1.29726 -1.713402,-2.738048 -2.568356,-4.106854 0.518808,-8.366858 1.082348,-16.7312 1.547318,-25.101197 -0.606784,0.746665 -1.342692,3.250065 -1.99753,4.694141 -3.014154,7.636922 -6.091728,15.255056 -9.061312,22.905698 3.008362,2.2725 6.200884,4.365594 9.251822,6.608386 -0.552964,1.716498 -1.739008,3.276658 -2.52842,4.930376 -0.493194,0.864084 -1.598648,2.686948 -8.94e-4,1.196562 1.809218,-1.35921 3.58661,-2.760762 5.408358,-4.103182 2.343612,1.595132 4.629712,3.273498 6.974562,4.866824 l -0.05078,-0.18434 z"
         id="path349" />
    </clipPath>
    <inkscape:path-effect
       effect="powerclip"
       id="path-effect351"
       is_visible="true"
       lpeversion="1"
       inverse="true"
       flatten="false"
       hide_clip="false"
       message="Use fill-rule evenodd on &lt;b&gt;fill and stroke&lt;/b&gt; dialog if no flatten result after convert clip to paths." />
    <clipPath
       clipPathUnits="userSpaceOnUse"
       id="clipPath2828">
      <path
         style="display:block;fill:#f5f7fa"
         d="M 29.636364,16 C 22.081818,16 16,22.081818 16,29.636364 v 2.727272 C 16,39.918182 22.081818,46 29.636364,46 H 44 V 38 H 29.636364 C 26.473024,38 24,35.526976 24,32.363636 V 29.636364 C 24,26.473024 26.473024,24 29.636364,24 H 44 v -8 z"
         id="path2830" />
    </clipPath>
    <inkscape:path-effect
       effect="powerclip"
       id="path-effect2832"
       is_visible="true"
       lpeversion="1"
       inverse="true"
       flatten="false"
       hide_clip="false"
       message="Use fill-rule evenodd on &lt;b&gt;fill and stroke&lt;/b&gt; dialog if no flatten result after convert clip to paths." />
    <clipPath
       clipPathUnits="userSpaceOnUse"
       id="clipPath616">
      <path
         id="path618"
         style="color:#000000;display:block;fill:#e6e6e6;-inkscape-stroke:none"
         d="m 25.150391,32.707031 a 0.94761002,0.94761002 0 0 0 -0.90625,0.789063 l -0.251953,1.480468 -0.931641,0.69336 a 0.94761002,0.94761002 0 0 0 -0.197266,1.324219 0.94761002,0.94761002 0 0 0 1.326172,0.197265 l 0.613281,-0.457031 c 1.40345,0.890289 3.928081,2.123047 7.169922,2.123047 3.47836,0 6.137212,-1.420121 7.464844,-2.3125 l 0.871094,0.646484 A 0.94761002,0.94761002 0 0 0 41.634766,36.994141 0.94761002,0.94761002 0 0 0 41.4375,35.669922 l -0.931641,-0.69336 -0.251953,-1.480468 a 0.94761002,0.94761002 0 0 0 -1.091797,-0.775391 0.94761002,0.94761002 0 0 0 -0.77539,1.091797 l 0.175781,1.039062 c -1.010532,0.718966 -3.380547,2.111329 -6.589844,2.111329 -2.766496,0 -4.907105,-1.034816 -6.09375,-1.78125 L 26.111328,33.8125 a 0.94761002,0.94761002 0 0 0 -0.77539,-1.091797 0.94761002,0.94761002 0 0 0 -0.185547,-0.01367 z" />
    </clipPath>
    <inkscape:path-effect
       effect="powerclip"
       id="path-effect620"
       is_visible="true"
       lpeversion="1"
       inverse="true"
       flatten="false"
       hide_clip="false"
       message="Use fill-rule evenodd on &lt;b&gt;fill and stroke&lt;/b&gt; dialog if no flatten result after convert clip to paths." />
    <clipPath
       clipPathUnits="userSpaceOnUse"
       id="clipPath221">
      <g
         id="g227"
         style="display:block">
        <path
           id="path223"
           d="M 400,230 A 100,100 0 0 1 300,330 100,100 0 0 1 200,230 100,100 0 0 1 300,130 100,100 0 0 1 400,230 Z" />
        <path
           id="path225"
           clip-path="url(#circular-border)"
           d="M 490,550 A 190,190 0 0 1 300,740 190,190 0 0 1 110,550 190,190 0 0 1 300,360 190,190 0 0 1 490,550 Z" />
      </g>
    </clipPath>
    <inkscape:path-effect
       effect="powerclip"
       id="path-effect229"
       is_visible="true"
       lpeversion="1"
       inverse="true"
       flatten="false"
       hide_clip="false"
       message="Use fill-rule evenodd on &lt;b&gt;fill and stroke&lt;/b&gt; dialog if no flatten result after convert clip to paths." />
  </defs>
  <circle
     cx="32.516094"
     cy="31.877844"
     r="0"
     fill="url(#b)"
     stroke-width="1.5715"
     id="circle41"
     style="fill:url(#b)" />
  <g
     aria-label="GZ"
     transform="matrix(1.2212657,0,0,0.81882264,0.4960938,-0.1661539)"
     id="text93"
     style="font-weight:bold;font-size:11.5263px;line-height:1.25;font-family:sans-serif;-inkscape-font-specification:'sans-serif Bold';fill:#f2f2f2;stroke-width:0.288159" />
  <g
     id="g877"
     transform="matrix(1.1,0,0,1.1,-3.1845928,-3.2065454)">
    <path
       d="m 18.347203,7.2464043 c -6.244452,0 -11.2714308,5.1741617 -11.2714308,11.6016437 v 26.767119 c 0,6.427394 5.0268918,11.601644 11.2714308,11.601644 h 26.005262 c 6.244452,0 11.271431,-5.174161 11.271431,-11.601644 V 18.848048 c 0,-6.427393 -5.026893,-11.6016437 -11.271431,-11.6016437 z"
       fill="url(#linearGradient910)"
       stroke-width="3.32418"
       id="path33"
       style="fill:#578376;fill-opacity:1"
       clip-path="url(#clipPath1976)"
       inkscape:path-effect="#path-effect1980"
       inkscape:original-d="m 18.347203,7.2464043 c -6.244452,0 -11.2714308,5.1741617 -11.2714308,11.6016437 v 26.767119 c 0,6.427394 5.0268918,11.601644 11.2714308,11.601644 h 26.005262 c 6.244452,0 11.271431,-5.174161 11.271431,-11.601644 V 18.848048 c 0,-6.427393 -5.026893,-11.6016437 -11.271431,-11.6016437 z"
       transform="matrix(1.1,0,0,1.1,-2.6388896,-3.3893147)" />
    <rect
       x="8.0073938"
       y="7.5283623"
       width="47.677586"
       height="49.074364"
       rx="9.5358982"
       ry="9.8152657"
       fill="url(#linearGradient862)"
       stroke-width="3.26449"
       id="rect35-7"
       style="opacity:1;fill:#f5f7fa;fill-opacity:1" />
    <rect
       x="10.391273"
       y="9.9820805"
       width="42.909828"
       height="44.166924"
       rx="8.5823088"
       ry="8.8337393"
       fill="url(#linearGradient862)"
       stroke-width="2.93805"
       id="rect35-7-3"
       style="fill:#578376;fill-opacity:1" />
  </g>
  <g
     id="g1736"
     transform="matrix(0.970299,0,0,0.970299,0.97953858,0.96336447)"
     style="fill:#f5f7fa;fill-opacity:1">
    <path
       style="fill:#f5f7fa;fill-opacity:1;stroke:none;stroke-width:0.0698182"
       d="M 18.728374,51.636096 C 17.985695,51.521111 17.324632,51.031921 16.988295,50.34843 L 16.817407,50.001161 V 32.406979 14.812797 l 0.185752,-0.351894 c 0.226058,-0.428253 0.723516,-0.89981 1.163438,-1.102862 0.2547,-0.117559 0.456876,-0.150316 0.919901,-0.149039 0.539625,0.0015 0.633259,0.02305 1.032277,0.237753 0.514764,0.27698 0.804609,0.584207 1.055209,1.118493 l 0.181605,0.387185 0.01853,17.314909 c 0.01841,17.20391 0.01762,17.317897 -0.122632,17.781048 -0.323081,1.066868 -1.421754,1.758226 -2.523112,1.587706 z"
       id="path13585" />
    <path
       style="fill:#f5f7fa;fill-opacity:1;stroke:none;stroke-width:0.0698182"
       d="m 33.364317,43.027301 c -0.805589,-0.195905 -1.482388,-0.750219 -1.842497,-1.50905 -0.15868,-0.334373 -0.182231,-0.474229 -0.182231,-1.082181 0,-0.607952 0.02355,-0.747808 0.182231,-1.082182 0.370711,-0.781173 1.093692,-1.352767 1.933206,-1.52841 0.490234,-0.102568 12.954683,-0.108674 13.496852,-0.0066 0.864515,0.162741 1.595183,0.730323 1.975834,1.534823 0.190335,0.402275 0.214818,0.525632 0.214818,1.082382 0,0.557976 -0.02418,0.679199 -0.215907,1.082182 -0.367473,0.772392 -0.983662,1.283497 -1.805339,1.49746 -0.362491,0.09439 -1.253356,0.107592 -6.912,0.10242 -4.844027,-0.0044 -6.584648,-0.02752 -6.844967,-0.09083 z"
       id="path13587" />
    <path
       style="fill:#f5f7fa;fill-opacity:1;stroke:none;stroke-width:0.0698182"
       d="m 33.364317,34.928392 c -0.805589,-0.195905 -1.482388,-0.750219 -1.842497,-1.50905 -0.15868,-0.334373 -0.182231,-0.47423 -0.182231,-1.082181 0,-0.607952 0.02355,-0.747809 0.182231,-1.082182 0.370711,-0.781173 1.093692,-1.352767 1.933206,-1.528411 0.490234,-0.102566 12.954683,-0.108674 13.496852,-0.0066 0.864515,0.162742 1.595183,0.730323 1.975834,1.534824 0.190335,0.402274 0.214818,0.525632 0.214818,1.082382 0,0.55675 -0.02448,0.680107 -0.214818,1.082381 -0.380651,0.804501 -1.111319,1.372083 -1.975834,1.534824 -0.574254,0.108101 -13.134964,0.08409 -13.587561,-0.02597 z"
       id="path13589" />
    <path
       style="fill:#f5f7fa;fill-opacity:1;stroke:none;stroke-width:0.0698182"
       d="m 33.364317,26.829484 c -0.805589,-0.195906 -1.482388,-0.75022 -1.842497,-1.509051 -0.15868,-0.334373 -0.182231,-0.47423 -0.182231,-1.082182 0,-0.607951 0.02355,-0.747808 0.182231,-1.082181 0.370711,-0.781172 1.093692,-1.352768 1.933206,-1.528411 0.255383,-0.05343 2.36474,-0.07741 6.810058,-0.07741 5.595122,0 6.494673,0.01422 6.8562,0.108358 0.821677,0.213964 1.437866,0.725068 1.805339,1.497461 0.191721,0.402982 0.215907,0.524206 0.215907,1.082182 0,0.556749 -0.02448,0.680107 -0.214818,1.082382 -0.380651,0.8045 -1.111319,1.372081 -1.975834,1.534823 -0.574254,0.108101 -13.134964,0.08409 -13.587561,-0.02597 z"
       id="path13591" />
    <path
       style="fill:#f5f7fa;fill-opacity:1;stroke:none;stroke-width:0.0698182"
       d="m 29.841661,18.751076 c -0.78963,-0.154788 -1.522384,-0.740874 -1.909563,-1.527344 -0.201026,-0.408345 -0.22302,-0.515289 -0.222706,-1.082922 3.08e-4,-0.559216 0.02455,-0.680712 0.216255,-1.083649 0.370154,-0.778029 0.98854,-1.287662 1.821313,-1.501009 0.374956,-0.09606 1.091947,-0.107316 5.72337,-0.08986 l 5.294714,0.01995 0.403868,0.163011 c 0.518464,0.209264 1.173105,0.809854 1.409586,1.293204 0.09793,0.200154 0.211583,0.5543 0.252571,0.786989 0.24094,1.367843 -0.754989,2.761711 -2.162828,3.027016 -0.465154,0.08766 -10.377078,0.08272 -10.82658,-0.0054 z"
       id="path13593" />
    <path
       style="fill:#f5f7fa;fill-opacity:1;stroke:none;stroke-width:0.0698182"
       d="m 29.700554,51.112313 c -0.795936,-0.216509 -1.414472,-0.737553 -1.774907,-1.495152 -0.191701,-0.402938 -0.215947,-0.524434 -0.216255,-1.08365 -3.14e-4,-0.567633 0.02168,-0.674577 0.222706,-1.082921 0.40041,-0.813348 1.118979,-1.372937 1.968293,-1.532816 0.508314,-0.09569 10.260047,-0.09562 10.76785,7.5e-5 1.411864,0.266065 2.413269,1.67578 2.161361,3.04263 -0.0418,0.226775 -0.15545,0.574988 -0.252571,0.773807 -0.234849,0.480769 -0.890634,1.081904 -1.408119,1.290773 l -0.403868,0.163011 -5.341092,0.01412 c -4.544609,0.01201 -5.398101,-0.0014 -5.723398,-0.08987 z"
       id="path13595" />
  </g>
</svg>
