<?xml version="1.0" encoding="UTF-8" standalone="no"?>
<svg
   width="64"
   height="64"
   version="1.1"
   id="svg73"
   sodipodi:docname="firefox.svg"
   inkscape:version="1.2.2 (1:1.2.2+202212051550+b0a8486541)"
   xmlns:inkscape="http://www.inkscape.org/namespaces/inkscape"
   xmlns:sodipodi="http://sodipodi.sourceforge.net/DTD/sodipodi-0.dtd"
   xmlns="http://www.w3.org/2000/svg"
   xmlns:svg="http://www.w3.org/2000/svg"
   xmlns:rdf="http://www.w3.org/1999/02/22-rdf-syntax-ns#"
   xmlns:cc="http://creativecommons.org/ns#"
   xmlns:dc="http://purl.org/dc/elements/1.1/">
  <metadata
     id="metadata77">
    <rdf:RDF>
      <cc:Work
         rdf:about="">
        <dc:format>image/svg+xml</dc:format>
        <dc:type
           rdf:resource="http://purl.org/dc/dcmitype/StillImage" />
      </cc:Work>
    </rdf:RDF>
  </metadata>
  <sodipodi:namedview
     pagecolor="#f5f7fa"
     bordercolor="#666666"
     borderopacity="1"
     objecttolerance="10"
     gridtolerance="10"
     guidetolerance="10"
     inkscape:pageopacity="0"
     inkscape:pageshadow="2"
     inkscape:window-width="1377"
     inkscape:window-height="886"
     id="namedview75"
     showgrid="false"
     inkscape:zoom="8.8940775"
     inkscape:cx="32.268664"
     inkscape:cy="36.484953"
     inkscape:window-x="367"
     inkscape:window-y="117"
     inkscape:window-maximized="0"
     inkscape:current-layer="svg73"
     inkscape:document-rotation="0"
     inkscape:pagecheckerboard="0"
     inkscape:showpageshadow="2"
     inkscape:deskcolor="#d1d1d1" />
  <defs
     id="defs29">
    <inkscape:path-effect
       effect="powerclip"
       id="path-effect1980"
       is_visible="true"
       lpeversion="1"
       inverse="true"
       flatten="false"
       hide_clip="false"
       message="Use fill-rule evenodd on &lt;b&gt;fill and stroke&lt;/b&gt; dialog if no flatten result after convert clip to paths." />
    <linearGradient
       id="b"
       x1="399.57"
       x2="399.57"
       y1="545.8"
       y2="517.8"
       gradientTransform="matrix(2.1429,0,0,2.1429,-825.86391,-1107.6662)"
       gradientUnits="userSpaceOnUse">
      <stop
         stop-color="#3889e9"
         offset="0"
         id="stop2" />
      <stop
         stop-color="#5ea5fb"
         offset="1"
         id="stop4" />
    </linearGradient>
    <linearGradient
       id="linearGradient862"
       x1="7.9373"
       x2="7.9373"
       y1="15.081"
       y2="1.852"
       gradientTransform="matrix(3.3743 0 0 3.3743 3.4312 3.4278)"
       gradientUnits="userSpaceOnUse">
      <stop
         stop-color="#f1efeb"
         offset="0"
         id="stop7" />
      <stop
         stop-color="#fff"
         offset="1"
         id="stop9" />
    </linearGradient>
    <linearGradient
       id="linearGradient910"
       x1="7.9373"
       x2="7.9373"
       y1="15.081"
       y2="1.852"
       gradientTransform="scale(3.7796)"
       gradientUnits="userSpaceOnUse">
      <stop
         stop-color="#613583"
         offset="0"
         id="stop12" />
      <stop
         stop-color="#a663c0"
         offset="1"
         id="stop14" />
    </linearGradient>
    <linearGradient
       id="linearGradient932"
       x1="379.24"
       x2="374.24"
       y1="546.85"
       y2="546.85"
       gradientTransform="matrix(2.1429 0 0 2.1429 -769.68 -1134.5)"
       gradientUnits="userSpaceOnUse">
      <stop
         stop-color="#f6f5f4"
         offset="0"
         id="stop17" />
      <stop
         stop-color="#fff"
         offset=".6"
         id="stop19" />
      <stop
         stop-color="#dddbd8"
         offset="1"
         id="stop21" />
    </linearGradient>
    <linearGradient
       id="linearGradient1146"
       x1="18"
       x2="18"
       y1="52"
       y2="12"
       gradientUnits="userSpaceOnUse">
      <stop
         stop-color="#5e337f"
         offset="0"
         id="stop24" />
      <stop
         stop-color="#ab60bf"
         offset="1"
         id="stop26" />
    </linearGradient>
    <clipPath
       clipPathUnits="userSpaceOnUse"
       id="clipPath1976">
      <rect
         x="9.6784649"
         y="9.925169"
         width="43.343258"
         height="44.613056"
         rx="8.6689987"
         ry="8.9229689"
         fill="url(#linearGradient862)"
         stroke-width="2.96772"
         id="rect1978"
         style="display:none;fill:#333333;fill-opacity:1"
         d="m 18.347464,9.925169 h 26.00526 c 4.802625,0 8.668999,3.979644 8.668999,8.922969 v 26.767118 c 0,4.943325 -3.866374,8.922969 -8.668999,8.922969 h -26.00526 c -4.802626,0 -8.6689991,-3.979644 -8.6689991,-8.922969 V 18.848138 c 0,-4.943325 3.8663731,-8.922969 8.6689991,-8.922969 z" />
      <path
         id="lpe_path-effect1980"
         style="fill:#333333;fill-opacity:1"
         class="powerclip"
         d="M 2.0757722,2.2464043 H 60.623896 V 62.216811 H 2.0757722 Z M 18.347464,9.925169 c -4.802626,0 -8.6689991,3.979644 -8.6689991,8.922969 v 26.767118 c 0,4.943325 3.8663731,8.922969 8.6689991,8.922969 h 26.00526 c 4.802625,0 8.668999,-3.979644 8.668999,-8.922969 V 18.848138 c 0,-4.943325 -3.866374,-8.922969 -8.668999,-8.922969 z" />
    </clipPath>
    <filter
       style="color-interpolation-filters:sRGB;"
       inkscape:label="Drop Shadow"
       id="filter663"
       x="-0.098870968"
       y="-0.096056853"
       width="1.2389382"
       height="1.2321374">
      <feFlood
         flood-opacity="0.301961"
         flood-color="rgb(0,0,0)"
         result="flood"
         id="feFlood653" />
      <feComposite
         in="flood"
         in2="SourceGraphic"
         operator="in"
         result="composite1"
         id="feComposite655" />
      <feGaussianBlur
         in="composite1"
         stdDeviation="2"
         result="blur"
         id="feGaussianBlur657" />
      <feOffset
         dx="2"
         dy="2"
         result="offset"
         id="feOffset659" />
      <feComposite
         in="SourceGraphic"
         in2="offset"
         operator="over"
         result="composite2"
         id="feComposite661" />
    </filter>
    <clipPath
       clipPathUnits="userSpaceOnUse"
       id="clipPath38">
      <rect
         x="0.97311002"
         y="4.6963"
         width="14.987"
         height="9.9216995"
         ry="0.29919001"
         fill="#fffffc"
         id="rect40"
         style="display:block;opacity:0.85;fill:#f2f2f2;stroke-width:0.999999" />
    </clipPath>
    <inkscape:path-effect
       effect="powerclip"
       id="path-effect42"
       is_visible="true"
       lpeversion="1"
       inverse="true"
       flatten="false"
       hide_clip="false"
       message="Use fill-rule evenodd on &lt;b&gt;fill and stroke&lt;/b&gt; dialog if no flatten result after convert clip to paths." />
    <clipPath
       clipPathUnits="userSpaceOnUse"
       id="clipPath1081">
      <path
         style="display:block;fill:#f5f7fa"
         d="m 33.233163,36.530296 c 7.937213,-4.515902 7.766553,-4.416854 7.766553,-4.507516 0,-0.08484 -13.892995,-8.068501 -13.960737,-8.022557 -0.04576,0.03106 -0.05426,15.935265 -0.0092,15.985451 0.017,0.0184 0.06502,0.0192 0.10682,0.0015 0.04182,-0.0178 2.785048,-1.573296 6.095916,-3.457018 z"
         id="path1083" />
    </clipPath>
    <inkscape:path-effect
       effect="powerclip"
       id="path-effect1085"
       is_visible="true"
       lpeversion="1"
       inverse="true"
       flatten="false"
       hide_clip="false"
       message="Use fill-rule evenodd on &lt;b&gt;fill and stroke&lt;/b&gt; dialog if no flatten result after convert clip to paths." />
    <clipPath
       clipPathUnits="userSpaceOnUse"
       id="clipPath260">
      <circle
         style="display:none;fill:#f5f7fa"
         cx="32"
         cy="36"
         r="16"
         id="circle262" />
    </clipPath>
    <inkscape:path-effect
       effect="powerclip"
       id="path-effect264"
       is_visible="true"
       lpeversion="1"
       inverse="true"
       flatten="false"
       hide_clip="false"
       message="Use fill-rule evenodd on &lt;b&gt;fill and stroke&lt;/b&gt; dialog if no flatten result after convert clip to paths." />
    <clipPath
       clipPathUnits="userSpaceOnUse"
       id="clipPath258">
      <path
         style="display:none;fill:#278cd7"
         d="M 32,20 A 16,16 0 0 0 16,36 16,16 0 0 0 32,52 16,16 0 0 0 47.470703,40 H 40.050781 A 9,9 0 0 1 32,45 a 9,9 0 0 1 -9,-9 9,9 0 0 1 9,-9 9,9 0 0 1 8.058594,5 h 7.419922 A 16,16 0 0 0 32,20 Z"
         id="path260" />
      <path
         id="lpe_path-effect262"
         style="fill:#278cd7"
         class="powerclip"
         d="M -0.99999993,1.9999456 H 65 V 61.999998 H -0.99999993 Z M 32,20 A 16,16 0 0 0 16,36 16,16 0 0 0 32,52 16,16 0 0 0 47.470703,40 H 40.050781 A 9,9 0 0 1 32,45 a 9,9 0 0 1 -9,-9 9,9 0 0 1 9,-9 9,9 0 0 1 8.058594,5 h 7.419922 A 16,16 0 0 0 32,20 Z" />
    </clipPath>
    <inkscape:path-effect
       effect="powerclip"
       id="path-effect262"
       is_visible="true"
       lpeversion="1"
       inverse="true"
       flatten="false"
       hide_clip="false"
       message="Use fill-rule evenodd on &lt;b&gt;fill and stroke&lt;/b&gt; dialog if no flatten result after convert clip to paths." />
  </defs>
  <circle
     cx="32.516094"
     cy="31.877844"
     r="0"
     fill="url(#b)"
     stroke-width="1.5715"
     id="circle41"
     style="fill:url(#b)" />
  <g
     aria-label="GZ"
     transform="matrix(1.2212657,0,0,0.81882264,0.4960938,-0.1661539)"
     id="text93"
     style="font-weight:bold;font-size:11.5263px;line-height:1.25;font-family:sans-serif;-inkscape-font-specification:'sans-serif Bold';fill:#f2f2f2;stroke-width:0.288159" />
  <g
     id="g877"
     transform="matrix(1.1,0,0,1.1,-3.1845928,-3.2065454)">
    <path
       d="m 18.347203,7.2464043 c -6.244452,0 -11.2714308,5.1741617 -11.2714308,11.6016437 v 26.767119 c 0,6.427394 5.0268918,11.601644 11.2714308,11.601644 h 26.005262 c 6.244452,0 11.271431,-5.174161 11.271431,-11.601644 V 18.848048 c 0,-6.427393 -5.026893,-11.6016437 -11.271431,-11.6016437 z"
       fill="url(#linearGradient910)"
       stroke-width="3.32418"
       id="path33"
       style="fill:#578376;fill-opacity:1"
       clip-path="url(#clipPath1976)"
       inkscape:path-effect="#path-effect1980"
       inkscape:original-d="m 18.347203,7.2464043 c -6.244452,0 -11.2714308,5.1741617 -11.2714308,11.6016437 v 26.767119 c 0,6.427394 5.0268918,11.601644 11.2714308,11.601644 h 26.005262 c 6.244452,0 11.271431,-5.174161 11.271431,-11.601644 V 18.848048 c 0,-6.427393 -5.026893,-11.6016437 -11.271431,-11.6016437 z"
       transform="matrix(1.1,0,0,1.1,-2.6388896,-3.3893147)" />
    <rect
       x="8.0073938"
       y="7.5283623"
       width="47.677586"
       height="49.074364"
       rx="9.5358982"
       ry="9.8152657"
       fill="url(#linearGradient862)"
       stroke-width="3.26449"
       id="rect35-7"
       style="opacity:1;fill:#f5f7fa;fill-opacity:1" />
    <rect
       x="10.391273"
       y="9.9820805"
       width="42.909828"
       height="44.166924"
       rx="8.5823088"
       ry="8.8337393"
       fill="url(#linearGradient862)"
       stroke-width="2.93805"
       id="rect35-7-3"
       style="fill:#578376;fill-opacity:1" />
  </g>
  <path
     style="fill:#f5f7fa;fill-opacity:1"
     d="m 23.357082,7.0082497 c -0.27899,0.0169 -0.561222,0.060992 -0.842148,0.1357201 -2.247409,0.5978276 -3.571583,2.8774352 -2.96939,5.1085582 l 1.632344,6.053181 c -1.416071,0.837041 -2.728678,1.798203 -3.950984,2.836583 l -4.650953,-4.818207 c -1.610063,-1.667962 -4.2962985,-1.633296 -5.9415171,0 -1.6452183,1.633297 -1.6104079,4.228114 0,5.895746 l 4.6974341,4.864349 c -2.0764027,2.310445 -3.9812375,4.473007 -5.8704255,5.890314 -1.9485898,1.42035 -1.94859,4.972134 0,6.392485 C 13.800279,44.51785 19.399849,57.03611 31.9973,56.99992 h 0.0054 c 12.597451,0.0362 18.197021,-12.48207 26.535857,-17.632941 1.94859,-1.420351 1.94859,-4.972135 0,-6.392485 -1.888434,-1.416725 -3.792294,-3.578243 -5.867692,-5.887602 l 4.700169,-4.867061 c 1.610428,-1.667612 1.645218,-4.262449 0,-5.895746 -1.64522,-1.633296 -4.32869,-1.667934 -5.938784,0 L 46.775891,21.14772 C 45.560776,20.11511 44.258754,19.156043 42.852257,18.321998 L 44.490069,12.25253 C 45.092259,10.021407 43.768088,7.7417988 41.520678,7.1439712 39.273269,6.5461438 36.979753,7.8634346 36.377562,10.094557 l -1.460089,5.211831 C 33.983148,15.178999 33.012979,15.105643 32.000034,15.10552 h -0.0028 c -1.000153,1.19e-4 -1.95569,0.07386 -2.879161,0.198154 L 27.658051,10.094556 C 27.131132,8.1423248 25.310007,6.8899341 23.357082,7.0082497 Z"
     id="path4-5"
     clip-path="url(#clipPath258)"
     inkscape:path-effect="#path-effect262"
     inkscape:original-d="m 23.357082,7.0082497 c -0.27899,0.0169 -0.561222,0.060992 -0.842148,0.1357201 -2.247409,0.5978276 -3.571583,2.8774352 -2.96939,5.1085582 l 1.632344,6.053181 c -1.416071,0.837041 -2.728678,1.798203 -3.950984,2.836583 l -4.650953,-4.818207 c -1.610063,-1.667962 -4.2962985,-1.633296 -5.9415171,0 -1.6452183,1.633297 -1.6104079,4.228114 0,5.895746 l 4.6974341,4.864349 c -2.0764027,2.310445 -3.9812375,4.473007 -5.8704255,5.890314 -1.9485898,1.42035 -1.94859,4.972134 0,6.392485 C 13.800279,44.51785 19.399849,57.03611 31.9973,56.99992 h 0.0054 c 12.597451,0.0362 18.197021,-12.48207 26.535857,-17.632941 1.94859,-1.420351 1.94859,-4.972135 0,-6.392485 -1.888434,-1.416725 -3.792294,-3.578243 -5.867692,-5.887602 l 4.700169,-4.867061 c 1.610428,-1.667612 1.645218,-4.262449 0,-5.895746 -1.64522,-1.633296 -4.32869,-1.667934 -5.938784,0 L 46.775891,21.14772 C 45.560776,20.11511 44.258754,19.156043 42.852257,18.321998 L 44.490069,12.25253 C 45.092259,10.021407 43.768088,7.7417988 41.520678,7.1439712 39.273269,6.5461438 36.979753,7.8634346 36.377562,10.094557 l -1.460089,5.211831 C 33.983148,15.178999 33.012979,15.105643 32.000034,15.10552 h -0.0028 c -1.000153,1.19e-4 -1.95569,0.07386 -2.879161,0.198154 L 27.658051,10.094556 C 27.131132,8.1423248 25.310007,6.8899341 23.357082,7.0082497 Z"
     transform="matrix(0.67718765,0,0,0.68038836,10.403691,10.500423)" />
  <g
     id="g3807" />
  <g
     id="g1010" />
</svg>
