<?xml version="1.0" encoding="UTF-8" standalone="no"?>
<svg
   width="64"
   height="64"
   version="1.1"
   id="svg73"
   sodipodi:docname="mpv.svg"
   inkscape:version="1.2.2 (1:1.2.2+202212051550+b0a8486541)"
   xmlns:inkscape="http://www.inkscape.org/namespaces/inkscape"
   xmlns:sodipodi="http://sodipodi.sourceforge.net/DTD/sodipodi-0.dtd"
   xmlns="http://www.w3.org/2000/svg"
   xmlns:svg="http://www.w3.org/2000/svg"
   xmlns:rdf="http://www.w3.org/1999/02/22-rdf-syntax-ns#"
   xmlns:cc="http://creativecommons.org/ns#"
   xmlns:dc="http://purl.org/dc/elements/1.1/">
  <metadata
     id="metadata77">
    <rdf:RDF>
      <cc:Work
         rdf:about="">
        <dc:format>image/svg+xml</dc:format>
        <dc:type
           rdf:resource="http://purl.org/dc/dcmitype/StillImage" />
      </cc:Work>
    </rdf:RDF>
  </metadata>
  <sodipodi:namedview
     pagecolor="#f5f7fa"
     bordercolor="#666666"
     borderopacity="1"
     objecttolerance="10"
     gridtolerance="10"
     guidetolerance="10"
     inkscape:pageopacity="0"
     inkscape:pageshadow="2"
     inkscape:window-width="1377"
     inkscape:window-height="886"
     id="namedview75"
     showgrid="false"
     inkscape:zoom="6.2890625"
     inkscape:cx="49.371429"
     inkscape:cy="37.843478"
     inkscape:window-x="207"
     inkscape:window-y="108"
     inkscape:window-maximized="0"
     inkscape:current-layer="svg73"
     inkscape:document-rotation="0"
     inkscape:pagecheckerboard="0"
     inkscape:showpageshadow="2"
     inkscape:deskcolor="#d1d1d1" />
  <defs
     id="defs29">
    <inkscape:path-effect
       effect="powerclip"
       id="path-effect1980"
       is_visible="true"
       lpeversion="1"
       inverse="true"
       flatten="false"
       hide_clip="false"
       message="Use fill-rule evenodd on &lt;b&gt;fill and stroke&lt;/b&gt; dialog if no flatten result after convert clip to paths." />
    <linearGradient
       id="b"
       x1="399.57"
       x2="399.57"
       y1="545.8"
       y2="517.8"
       gradientTransform="matrix(2.1429,0,0,2.1429,-825.86391,-1107.6662)"
       gradientUnits="userSpaceOnUse">
      <stop
         stop-color="#3889e9"
         offset="0"
         id="stop2" />
      <stop
         stop-color="#5ea5fb"
         offset="1"
         id="stop4" />
    </linearGradient>
    <linearGradient
       id="linearGradient862"
       x1="7.9373"
       x2="7.9373"
       y1="15.081"
       y2="1.852"
       gradientTransform="matrix(3.3743 0 0 3.3743 3.4312 3.4278)"
       gradientUnits="userSpaceOnUse">
      <stop
         stop-color="#f1efeb"
         offset="0"
         id="stop7" />
      <stop
         stop-color="#fff"
         offset="1"
         id="stop9" />
    </linearGradient>
    <linearGradient
       id="linearGradient910"
       x1="7.9373"
       x2="7.9373"
       y1="15.081"
       y2="1.852"
       gradientTransform="scale(3.7796)"
       gradientUnits="userSpaceOnUse">
      <stop
         stop-color="#613583"
         offset="0"
         id="stop12" />
      <stop
         stop-color="#a663c0"
         offset="1"
         id="stop14" />
    </linearGradient>
    <linearGradient
       id="linearGradient932"
       x1="379.24"
       x2="374.24"
       y1="546.85"
       y2="546.85"
       gradientTransform="matrix(2.1429 0 0 2.1429 -769.68 -1134.5)"
       gradientUnits="userSpaceOnUse">
      <stop
         stop-color="#f6f5f4"
         offset="0"
         id="stop17" />
      <stop
         stop-color="#fff"
         offset=".6"
         id="stop19" />
      <stop
         stop-color="#dddbd8"
         offset="1"
         id="stop21" />
    </linearGradient>
    <linearGradient
       id="linearGradient1146"
       x1="18"
       x2="18"
       y1="52"
       y2="12"
       gradientUnits="userSpaceOnUse">
      <stop
         stop-color="#5e337f"
         offset="0"
         id="stop24" />
      <stop
         stop-color="#ab60bf"
         offset="1"
         id="stop26" />
    </linearGradient>
    <clipPath
       clipPathUnits="userSpaceOnUse"
       id="clipPath1976">
      <rect
         x="9.6784649"
         y="9.925169"
         width="43.343258"
         height="44.613056"
         rx="8.6689987"
         ry="8.9229689"
         fill="url(#linearGradient862)"
         stroke-width="2.96772"
         id="rect1978"
         style="display:none;fill:#333333;fill-opacity:1"
         d="m 18.347464,9.925169 h 26.00526 c 4.802625,0 8.668999,3.979644 8.668999,8.922969 v 26.767118 c 0,4.943325 -3.866374,8.922969 -8.668999,8.922969 h -26.00526 c -4.802626,0 -8.6689991,-3.979644 -8.6689991,-8.922969 V 18.848138 c 0,-4.943325 3.8663731,-8.922969 8.6689991,-8.922969 z" />
      <path
         id="lpe_path-effect1980"
         style="fill:#333333;fill-opacity:1"
         class="powerclip"
         d="M 2.0757722,2.2464043 H 60.623896 V 62.216811 H 2.0757722 Z M 18.347464,9.925169 c -4.802626,0 -8.6689991,3.979644 -8.6689991,8.922969 v 26.767118 c 0,4.943325 3.8663731,8.922969 8.6689991,8.922969 h 26.00526 c 4.802625,0 8.668999,-3.979644 8.668999,-8.922969 V 18.848138 c 0,-4.943325 -3.866374,-8.922969 -8.668999,-8.922969 z" />
    </clipPath>
    <filter
       style="color-interpolation-filters:sRGB;"
       inkscape:label="Drop Shadow"
       id="filter663"
       x="-0.098870968"
       y="-0.096056853"
       width="1.2389382"
       height="1.2321374">
      <feFlood
         flood-opacity="0.301961"
         flood-color="rgb(0,0,0)"
         result="flood"
         id="feFlood653" />
      <feComposite
         in="flood"
         in2="SourceGraphic"
         operator="in"
         result="composite1"
         id="feComposite655" />
      <feGaussianBlur
         in="composite1"
         stdDeviation="2"
         result="blur"
         id="feGaussianBlur657" />
      <feOffset
         dx="2"
         dy="2"
         result="offset"
         id="feOffset659" />
      <feComposite
         in="SourceGraphic"
         in2="offset"
         operator="over"
         result="composite2"
         id="feComposite661" />
    </filter>
    <clipPath
       clipPathUnits="userSpaceOnUse"
       id="clipPath38">
      <rect
         x="0.97311002"
         y="4.6963"
         width="14.987"
         height="9.9216995"
         ry="0.29919001"
         fill="#fffffc"
         id="rect40"
         style="display:block;opacity:0.85;fill:#f2f2f2;stroke-width:0.999999" />
    </clipPath>
    <inkscape:path-effect
       effect="powerclip"
       id="path-effect42"
       is_visible="true"
       lpeversion="1"
       inverse="true"
       flatten="false"
       hide_clip="false"
       message="Use fill-rule evenodd on &lt;b&gt;fill and stroke&lt;/b&gt; dialog if no flatten result after convert clip to paths." />
    <clipPath
       clipPathUnits="userSpaceOnUse"
       id="clipPath30">
      <path
         id="path32"
         style="color:#000000;display:block;opacity:0.85;fill:#f5f7fa;stroke-linecap:round;-inkscape-stroke:none"
         d="m 27.902344,19.023438 c -5.140587,0.01596 -9.820748,0.752518 -13.330078,2.15625 a 2.5,2.5 0 0 0 -1.392578,3.248046 2.5,2.5 0 0 0 3.248046,1.392578 c 3.180816,-1.272325 8.839301,-2.056673 14.796875,-1.699218 5.957575,0.357454 12.260098,1.820223 17.035157,4.548828 a 2.5,2.5 0 0 0 3.410156,-0.929688 2.5,2.5 0 0 0 -0.929688,-3.410156 c -5.72493,-3.271389 -12.67243,-4.808627 -19.214843,-5.201172 -1.226703,-0.0736 -2.436758,-0.109153 -3.623047,-0.105468 z m -1.240235,9.966796 c -1.05657,-0.0087 -2.093217,0.01082 -3.097656,0.05859 -2.678505,0.127409 -5.127438,0.45996 -7.113281,1.027344 a 2,2 0 0 0 -1.375,2.472656 2,2 0 0 0 2.472656,1.375 c 3.028306,-0.86523 8.701737,-1.165792 14.148438,-0.68164 5.4467,0.484152 10.812065,1.834345 13.193359,3.421874 a 2,2 0 0 0 2.773437,-0.554687 2,2 0 0 0 -0.554687,-2.773437 C 43.490675,30.923467 37.856023,29.773657 32.052734,29.257808 30.239207,29.096607 28.42306,29.004783 26.662109,28.99023 Z m 0.917969,8.988282 c -3.813243,-0.0048 -7.379665,0.410834 -10.064453,1.082031 a 2,2 0 0 0 -1.455078,2.423828 2,2 0 0 0 2.423828,1.455078 c 5.391278,-1.347819 17.438862,-1.241506 23.621094,1.849609 a 2,2 0 0 0 2.683593,-0.894531 2,2 0 0 0 -0.894531,-2.683593 c -3.908877,-1.954439 -8.851018,-2.904387 -13.642578,-3.160157 -0.898417,-0.04796 -1.791896,-0.07116 -2.671875,-0.07227 z" />
    </clipPath>
    <inkscape:path-effect
       effect="powerclip"
       id="path-effect34"
       is_visible="true"
       lpeversion="1"
       inverse="true"
       flatten="false"
       hide_clip="false"
       message="Use fill-rule evenodd on &lt;b&gt;fill and stroke&lt;/b&gt; dialog if no flatten result after convert clip to paths." />
    <clipPath
       clipPathUnits="userSpaceOnUse"
       id="clipPath1299">
      <path
         style="color:#000000;display:block;opacity:0.85;fill:#f5f7fa;-inkscape-stroke:none"
         d="m 24.149464,39.847234 c 1.129182,1.129183 1.129024,2.947446 -3.54e-4,4.076824 L 11.920405,56.152763 c -1.129378,1.129378 -2.9476414,1.129536 -4.0768237,3.54e-4 -1.1291824,-1.129183 -1.1290247,-2.947446 3.535e-4,-4.076825 L 20.072639,39.847588 c 1.129379,-1.129378 2.947642,-1.129536 4.076825,-3.54e-4 z"
         id="path1301" />
    </clipPath>
    <inkscape:path-effect
       effect="powerclip"
       id="path-effect1303"
       is_visible="true"
       lpeversion="1"
       inverse="true"
       flatten="false"
       hide_clip="false"
       message="Use fill-rule evenodd on &lt;b&gt;fill and stroke&lt;/b&gt; dialog if no flatten result after convert clip to paths." />
    <clipPath
       clipPathUnits="userSpaceOnUse"
       id="clipPath221">
      <g
         id="g227"
         style="display:block">
        <path
           id="path223"
           d="M 400,230 A 100,100 0 0 1 300,330 100,100 0 0 1 200,230 100,100 0 0 1 300,130 100,100 0 0 1 400,230 Z" />
        <path
           id="path225"
           clip-path="url(#circular-border)"
           d="M 490,550 A 190,190 0 0 1 300,740 190,190 0 0 1 110,550 190,190 0 0 1 300,360 190,190 0 0 1 490,550 Z" />
      </g>
    </clipPath>
    <inkscape:path-effect
       effect="powerclip"
       id="path-effect229"
       is_visible="true"
       lpeversion="1"
       inverse="true"
       flatten="false"
       hide_clip="false"
       message="Use fill-rule evenodd on &lt;b&gt;fill and stroke&lt;/b&gt; dialog if no flatten result after convert clip to paths." />
    <clipPath
       clipPathUnits="userSpaceOnUse"
       id="clipPath2088">
      <path
         style="display:none;fill:#578376;fill-opacity:1;stroke-width:0.948737"
         class="cls-3"
         d="m 26.164949,55.36686 c -1.850933,-1.148662 -3.45501,-2.653778 -4.718967,-4.42784 -6.1331,-8.401614 -2.407378,-20.302417 6.924751,-24.898815 0.647458,-0.305009 1.753529,-0.856934 3.224836,-0.829958 2.10133,0.01537 4.074264,1.013531 5.331143,2.69737 0.838008,1.118752 1.300047,2.474168 1.319818,3.871764 0,-0.04357 5.075901,-16.516213 -16.601466,-16.516213 -9.110057,0 -16.6014679,8.644039 -16.6014679,16.227803 -0.035933,4.011711 0.8225476,7.981027 2.5130471,11.619445 C 13.275361,55.310452 27.224559,61.295893 40.008361,57.03508 35.632002,58.414733 30.074085,57.8081 26.183627,55.375159 Z"
         id="path2090" />
      <path
         id="lpe_path-effect2092"
         style="fill:#578376;fill-opacity:1;stroke-width:0.948737"
         class="powerclip"
         d="M 0.1307744,0.35347867 H 63.054568 V 63.263407 H 0.1307744 Z M 26.164949,55.36686 c -1.850933,-1.148662 -3.45501,-2.653778 -4.718967,-4.42784 -6.1331,-8.401614 -2.407378,-20.302417 6.924751,-24.898815 0.647458,-0.305009 1.753529,-0.856934 3.224836,-0.829958 2.10133,0.01537 4.074264,1.013531 5.331143,2.69737 0.838008,1.118752 1.300047,2.474168 1.319818,3.871764 0,-0.04357 5.075901,-16.516213 -16.601466,-16.516213 -9.110057,0 -16.6014679,8.644039 -16.6014679,16.227803 -0.035933,4.011711 0.8225476,7.981027 2.5130471,11.619445 C 13.275361,55.310452 27.224559,61.295893 40.008361,57.03508 35.632002,58.414733 30.074085,57.8081 26.183627,55.375159 Z" />
    </clipPath>
    <inkscape:path-effect
       effect="powerclip"
       id="path-effect2092"
       is_visible="true"
       lpeversion="1"
       inverse="true"
       flatten="false"
       hide_clip="false"
       message="Use fill-rule evenodd on &lt;b&gt;fill and stroke&lt;/b&gt; dialog if no flatten result after convert clip to paths." />
  </defs>
  <circle
     cx="32.516094"
     cy="31.877844"
     r="0"
     fill="url(#b)"
     stroke-width="1.5715"
     id="circle41"
     style="fill:url(#b)" />
  <g
     aria-label="GZ"
     transform="matrix(1.2212657,0,0,0.81882264,0.4960938,-0.1661539)"
     id="text93"
     style="font-weight:bold;font-size:11.5263px;line-height:1.25;font-family:sans-serif;-inkscape-font-specification:'sans-serif Bold';fill:#f2f2f2;stroke-width:0.288159" />
  <g
     id="g877"
     transform="matrix(1.1,0,0,1.1,-3.1845928,-3.2065454)">
    <path
       d="m 18.347203,7.2464043 c -6.244452,0 -11.2714308,5.1741617 -11.2714308,11.6016437 v 26.767119 c 0,6.427394 5.0268918,11.601644 11.2714308,11.601644 h 26.005262 c 6.244452,0 11.271431,-5.174161 11.271431,-11.601644 V 18.848048 c 0,-6.427393 -5.026893,-11.6016437 -11.271431,-11.6016437 z"
       fill="url(#linearGradient910)"
       stroke-width="3.32418"
       id="path33"
       style="fill:#578376;fill-opacity:1"
       clip-path="url(#clipPath1976)"
       inkscape:path-effect="#path-effect1980"
       inkscape:original-d="m 18.347203,7.2464043 c -6.244452,0 -11.2714308,5.1741617 -11.2714308,11.6016437 v 26.767119 c 0,6.427394 5.0268918,11.601644 11.2714308,11.601644 h 26.005262 c 6.244452,0 11.271431,-5.174161 11.271431,-11.601644 V 18.848048 c 0,-6.427393 -5.026893,-11.6016437 -11.271431,-11.6016437 z"
       transform="matrix(1.1,0,0,1.1,-2.6388896,-3.3893147)" />
    <rect
       x="8.0073938"
       y="7.5283623"
       width="47.677586"
       height="49.074364"
       rx="9.5358982"
       ry="9.8152657"
       fill="url(#linearGradient862)"
       stroke-width="3.26449"
       id="rect35-7"
       style="opacity:1;fill:#f5f7fa;fill-opacity:1" />
    <rect
       x="10.391273"
       y="9.9820805"
       width="42.909828"
       height="44.166924"
       rx="8.5823088"
       ry="8.8337393"
       fill="url(#linearGradient862)"
       stroke-width="2.93805"
       id="rect35-7-3"
       style="fill:#578376;fill-opacity:1" />
  </g>
  <g
     id="g416"
     transform="matrix(0.77808277,0,0,0.77808277,8.2941963,7.6844132)"
     style="fill:#f5f7fa;fill-opacity:1;stroke:none">
    <g
       id="g404"
       style="fill:#f5f7fa;fill-opacity:1;stroke:none">
      <path
         style="fill:#f5f7fa;fill-opacity:1;stroke:none;stroke-width:0.117269"
         d="M 28.221027,58.126464 C 20.191693,56.999432 13.274723,52.5368 9.0929339,45.785563 6.6424788,41.829457 5.29345,37.319179 5.1509029,32.605967 5.0921312,30.662724 5.147759,29.99342 5.510676,28.277244 5.5622278,28.033464 5.555937,28.026003 5.4632772,28.221027 5.0733807,29.041654 5.7079065,25.77365 6.3015357,23.903736 9.290377,14.488979 17.252428,7.4795207 26.928032,5.7450289 c 3.680336,-0.6597535 8.167062,-0.4784172 12.086694,0.488498 4.828726,1.1911753 8.927697,3.41292 12.238856,6.6337661 2.05697,2.000864 3.310966,3.719135 4.669421,6.398207 1.41155,2.783787 1.995827,4.904548 2.112627,7.668244 0.124138,2.937348 -0.350812,4.786477 -1.756649,6.839189 -1.424037,2.079286 -4.699254,4.367052 -7.326402,5.117551 -2.308109,0.659359 -5.414359,0.700249 -8.363771,0.110099 -1.934207,-0.387017 -3.855186,-1.315303 -4.32857,-2.091721 -0.376024,-0.616735 -0.300606,-1.079624 0.288314,-1.769561 1.001801,-1.17364 1.542907,-2.620073 1.557601,-4.163632 0.0086,-0.902962 -0.01741,-1.010869 -0.471358,-1.955732 -1.200325,-2.498397 -3.869476,-4.063411 -6.542474,-3.836074 -3.411583,0.290154 -5.96404,2.898492 -6.152736,6.287439 -0.111182,1.996808 0.511405,4.590481 1.614651,6.726567 2.274771,4.404376 6.80321,7.857602 12.04673,9.186406 3.329938,0.843867 7.78705,0.721164 10.626959,-0.292559 1.166816,-0.416502 2.407612,-1.08529 3.203725,-1.726805 0.759352,-0.611893 1.121711,-0.693866 1.48063,-0.334946 0.35543,0.35543 0.272047,0.675746 -0.452194,1.737093 -2.74662,4.025067 -6.446781,7.114472 -11.072329,9.244702 -1.244794,0.573272 -3.148921,1.216318 -4.145246,1.399898 -0.410106,0.07556 -0.745649,0.177976 -0.745649,0.22758 0,0.0496 -0.159653,0.05826 -0.354785,0.01923 -0.231424,-0.04629 -0.329821,-0.03056 -0.282986,0.04522 0.26804,0.433696 -6.277804,0.754072 -8.638064,0.422776 z"
         id="path2072"
         transform="matrix(0.84322649,0,0,0.84322649,3.3036631,4.1827301)"
         clip-path="url(#clipPath2088)"
         inkscape:path-effect="#path-effect2092"
         inkscape:original-d="M 28.221027,58.126464 C 20.191693,56.999432 13.274723,52.5368 9.0929339,45.785563 6.6424788,41.829457 5.29345,37.319179 5.1509029,32.605967 5.0921312,30.662724 5.147759,29.99342 5.510676,28.277244 5.5622278,28.033464 5.555937,28.026003 5.4632772,28.221027 5.0733807,29.041654 5.7079065,25.77365 6.3015357,23.903736 9.290377,14.488979 17.252428,7.4795207 26.928032,5.7450289 c 3.680336,-0.6597535 8.167062,-0.4784172 12.086694,0.488498 4.828726,1.1911753 8.927697,3.41292 12.238856,6.6337661 2.05697,2.000864 3.310966,3.719135 4.669421,6.398207 1.41155,2.783787 1.995827,4.904548 2.112627,7.668244 0.124138,2.937348 -0.350812,4.786477 -1.756649,6.839189 -1.424037,2.079286 -4.699254,4.367052 -7.326402,5.117551 -2.308109,0.659359 -5.414359,0.700249 -8.363771,0.110099 -1.934207,-0.387017 -3.855186,-1.315303 -4.32857,-2.091721 -0.376024,-0.616735 -0.300606,-1.079624 0.288314,-1.769561 1.001801,-1.17364 1.542907,-2.620073 1.557601,-4.163632 0.0086,-0.902962 -0.01741,-1.010869 -0.471358,-1.955732 -1.200325,-2.498397 -3.869476,-4.063411 -6.542474,-3.836074 -3.411583,0.290154 -5.96404,2.898492 -6.152736,6.287439 -0.111182,1.996808 0.511405,4.590481 1.614651,6.726567 2.274771,4.404376 6.80321,7.857602 12.04673,9.186406 3.329938,0.843867 7.78705,0.721164 10.626959,-0.292559 1.166816,-0.416502 2.407612,-1.08529 3.203725,-1.726805 0.759352,-0.611893 1.121711,-0.693866 1.48063,-0.334946 0.35543,0.35543 0.272047,0.675746 -0.452194,1.737093 -2.74662,4.025067 -6.446781,7.114472 -11.072329,9.244702 -1.244794,0.573272 -3.148921,1.216318 -4.145246,1.399898 -0.410106,0.07556 -0.745649,0.177976 -0.745649,0.22758 0,0.0496 -0.159653,0.05826 -0.354785,0.01923 -0.231424,-0.04629 -0.329821,-0.03056 -0.282986,0.04522 0.26804,0.433696 -6.277804,0.754072 -8.638064,0.422776 z" />
      <path
         style="fill:#f5f7fa;fill-opacity:1;stroke:none;stroke-width:0.706315"
         class="cls-3"
         d="m 23.141247,50.477053 c -1.275732,-0.923696 -2.38132,-2.134036 -3.252485,-3.560647 -4.227155,-6.756158 -1.659253,-16.326189 4.772791,-20.022381 0.446251,-0.245274 1.208596,-0.689104 2.222674,-0.667411 1.448314,0.01235 2.808133,0.81503 3.674419,2.16909 0.577585,0.899643 0.896041,1.989602 0.909667,3.113479 0,-0.03504 3.498495,-13.281513 -11.442337,-13.281513 -6.278982,0 -11.4423364,6.951104 -11.4423364,13.049588 -0.024763,3.226017 0.5669298,6.417941 1.7320844,9.343776 3.941548,9.810659 13.555845,14.623851 22.366907,11.197518 -3.016346,1.109449 -6.847066,0.621624 -9.52851,-1.334825 z"
         id="path8" />
    </g>
  </g>
</svg>
