<?xml version="1.0" encoding="UTF-8" standalone="no"?>
<svg
   width="64"
   height="64"
   version="1.1"
   id="svg73"
   sodipodi:docname="mpv.svg"
   inkscape:version="1.2.2 (1:1.2.2+202212051550+b0a8486541)"
   xmlns:inkscape="http://www.inkscape.org/namespaces/inkscape"
   xmlns:sodipodi="http://sodipodi.sourceforge.net/DTD/sodipodi-0.dtd"
   xmlns="http://www.w3.org/2000/svg"
   xmlns:svg="http://www.w3.org/2000/svg"
   xmlns:rdf="http://www.w3.org/1999/02/22-rdf-syntax-ns#"
   xmlns:cc="http://creativecommons.org/ns#"
   xmlns:dc="http://purl.org/dc/elements/1.1/">
  <metadata
     id="metadata77">
    <rdf:RDF>
      <cc:Work
         rdf:about="">
        <dc:format>image/svg+xml</dc:format>
        <dc:type
           rdf:resource="http://purl.org/dc/dcmitype/StillImage" />
      </cc:Work>
    </rdf:RDF>
  </metadata>
  <sodipodi:namedview
     pagecolor="#f5f7fa"
     bordercolor="#666666"
     borderopacity="1"
     objecttolerance="10"
     gridtolerance="10"
     guidetolerance="10"
     inkscape:pageopacity="0"
     inkscape:pageshadow="2"
     inkscape:window-width="1377"
     inkscape:window-height="886"
     id="namedview75"
     showgrid="false"
     inkscape:zoom="6.2890625"
     inkscape:cx="49.371429"
     inkscape:cy="37.843478"
     inkscape:window-x="207"
     inkscape:window-y="108"
     inkscape:window-maximized="0"
     inkscape:current-layer="svg73"
     inkscape:document-rotation="0"
     inkscape:pagecheckerboard="0"
     inkscape:showpageshadow="2"
     inkscape:deskcolor="#d1d1d1" />
  <defs
     id="defs29">
    <inkscape:path-effect
       effect="powerclip"
       id="path-effect1980"
       is_visible="true"
       lpeversion="1"
       inverse="true"
       flatten="false"
       hide_clip="false"
       message="Use fill-rule evenodd on &lt;b&gt;fill and stroke&lt;/b&gt; dialog if no flatten result after convert clip to paths." />
    <linearGradient
       id="b"
       x1="399.57"
       x2="399.57"
       y1="545.8"
       y2="517.8"
       gradientTransform="matrix(2.1429,0,0,2.1429,-825.86391,-1107.6662)"
       gradientUnits="userSpaceOnUse">
      <stop
         stop-color="#3889e9"
         offset="0"
         id="stop2" />
      <stop
         stop-color="#5ea5fb"
         offset="1"
         id="stop4" />
    </linearGradient>
    <linearGradient
       id="linearGradient862"
       x1="7.9373"
       x2="7.9373"
       y1="15.081"
       y2="1.852"
       gradientTransform="matrix(3.3743 0 0 3.3743 3.4312 3.4278)"
       gradientUnits="userSpaceOnUse">
      <stop
         stop-color="#f1efeb"
         offset="0"
         id="stop7" />
      <stop
         stop-color="#fff"
         offset="1"
         id="stop9" />
    </linearGradient>
    <linearGradient
       id="linearGradient910"
       x1="7.9373"
       x2="7.9373"
       y1="15.081"
       y2="1.852"
       gradientTransform="scale(3.7796)"
       gradientUnits="userSpaceOnUse">
      <stop
         stop-color="#613583"
         offset="0"
         id="stop12" />
      <stop
         stop-color="#a663c0"
         offset="1"
         id="stop14" />
    </linearGradient>
    <linearGradient
       id="linearGradient932"
       x1="379.24"
       x2="374.24"
       y1="546.85"
       y2="546.85"
       gradientTransform="matrix(2.1429 0 0 2.1429 -769.68 -1134.5)"
       gradientUnits="userSpaceOnUse">
      <stop
         stop-color="#f6f5f4"
         offset="0"
         id="stop17" />
      <stop
         stop-color="#fff"
         offset=".6"
         id="stop19" />
      <stop
         stop-color="#dddbd8"
         offset="1"
         id="stop21" />
    </linearGradient>
    <linearGradient
       id="linearGradient1146"
       x1="18"
       x2="18"
       y1="52"
       y2="12"
       gradientUnits="userSpaceOnUse">
      <stop
         stop-color="#5e337f"
         offset="0"
         id="stop24" />
      <stop
         stop-color="#ab60bf"
         offset="1"
         id="stop26" />
    </linearGradient>
    <clipPath
       clipPathUnits="userSpaceOnUse"
       id="clipPath1976">
      <rect
         x="9.6784649"
         y="9.925169"
         width="43.343258"
         height="44.613056"
         rx="8.6689987"
         ry="8.9229689"
         fill="url(#linearGradient862)"
         stroke-width="2.96772"
         id="rect1978"
         style="display:none;fill:#333333;fill-opacity:1"
         d="m 18.347464,9.925169 h 26.00526 c 4.802625,0 8.668999,3.979644 8.668999,8.922969 v 26.767118 c 0,4.943325 -3.866374,8.922969 -8.668999,8.922969 h -26.00526 c -4.802626,0 -8.6689991,-3.979644 -8.6689991,-8.922969 V 18.848138 c 0,-4.943325 3.8663731,-8.922969 8.6689991,-8.922969 z" />
      <path
         id="lpe_path-effect1980"
         style="fill:#333333;fill-opacity:1"
         class="powerclip"
         d="M 2.0757722,2.2464043 H 60.623896 V 62.216811 H 2.0757722 Z M 18.347464,9.925169 c -4.802626,0 -8.6689991,3.979644 -8.6689991,8.922969 v 26.767118 c 0,4.943325 3.8663731,8.922969 8.6689991,8.922969 h 26.00526 c 4.802625,0 8.668999,-3.979644 8.668999,-8.922969 V 18.848138 c 0,-4.943325 -3.866374,-8.922969 -8.668999,-8.922969 z" />
    </clipPath>
    <filter
       style="color-interpolation-filters:sRGB;"
       inkscape:label="Drop Shadow"
       id="filter663"
       x="-0.098870968"
       y="-0.096056853"
       width="1.2389382"
       height="1.2321374">
      <feFlood
         flood-opacity="0.301961"
         flood-color="rgb(0,0,0)"
         result="flood"
         id="feFlood653" />
      <feComposite
         in="flood"
         in2="SourceGraphic"
         operator="in"
         result="composite1"
         id="feComposite655" />
      <feGaussianBlur
         in="composite1"
         stdDeviation="2"
         result="blur"
         id="feGaussianBlur657" />
      <feOffset
         dx="2"
         dy="2"
         result="offset"
         id="feOffset659" />
      <feComposite
         in="SourceGraphic"
         in2="offset"
         operator="over"
         result="composite2"
         id="feComposite661" />
    </filter>
    <clipPath
       clipPathUnits="userSpaceOnUse"
       id="clipPath38">
      <rect
         x="0.97311002"
         y="4.6963"
         width="14.987"
         height="9.9216995"
         ry="0.29919001"
         fill="#fffffc"
         id="rect40"
         style="display:block;opacity:0.85;fill:#f2f2f2;stroke-width:0.999999" />
    </clipPath>
    <inkscape:path-effect
       effect="powerclip"
       id="path-effect42"
       is_visible="true"
       lpeversion="1"
       inverse="true"
       flatten="false"
       hide_clip="false"
       message="Use fill-rule evenodd on &lt;b&gt;fill and stroke&lt;/b&gt; dialog if no flatten result after convert clip to paths." />
    <clipPath
       clipPathUnits="userSpaceOnUse"
       id="clipPath30">
      <path
         id="path32"
         style="color:#000000;display:block;opacity:0.85;fill:#f5f7fa;stroke-linecap:round;-inkscape-stroke:none"
         d="m 27.902344,19.023438 c -5.140587,0.01596 -9.820748,0.752518 -13.330078,2.15625 a 2.5,2.5 0 0 0 -1.392578,3.248046 2.5,2.5 0 0 0 3.248046,1.392578 c 3.180816,-1.272325 8.839301,-2.056673 14.796875,-1.699218 5.957575,0.357454 12.260098,1.820223 17.035157,4.548828 a 2.5,2.5 0 0 0 3.410156,-0.929688 2.5,2.5 0 0 0 -0.929688,-3.410156 c -5.72493,-3.271389 -12.67243,-4.808627 -19.214843,-5.201172 -1.226703,-0.0736 -2.436758,-0.109153 -3.623047,-0.105468 z m -1.240235,9.966796 c -1.05657,-0.0087 -2.093217,0.01082 -3.097656,0.05859 -2.678505,0.127409 -5.127438,0.45996 -7.113281,1.027344 a 2,2 0 0 0 -1.375,2.472656 2,2 0 0 0 2.472656,1.375 c 3.028306,-0.86523 8.701737,-1.165792 14.148438,-0.68164 5.4467,0.484152 10.812065,1.834345 13.193359,3.421874 a 2,2 0 0 0 2.773437,-0.554687 2,2 0 0 0 -0.554687,-2.773437 C 43.490675,30.923467 37.856023,29.773657 32.052734,29.257808 30.239207,29.096607 28.42306,29.004783 26.662109,28.99023 Z m 0.917969,8.988282 c -3.813243,-0.0048 -7.379665,0.410834 -10.064453,1.082031 a 2,2 0 0 0 -1.455078,2.423828 2,2 0 0 0 2.423828,1.455078 c 5.391278,-1.347819 17.438862,-1.241506 23.621094,1.849609 a 2,2 0 0 0 2.683593,-0.894531 2,2 0 0 0 -0.894531,-2.683593 c -3.908877,-1.954439 -8.851018,-2.904387 -13.642578,-3.160157 -0.898417,-0.04796 -1.791896,-0.07116 -2.671875,-0.07227 z" />
    </clipPath>
    <inkscape:path-effect
       effect="powerclip"
       id="path-effect34"
       is_visible="true"
       lpeversion="1"
       inverse="true"
       flatten="false"
       hide_clip="false"
       message="Use fill-rule evenodd on &lt;b&gt;fill and stroke&lt;/b&gt; dialog if no flatten result after convert clip to paths." />
    <clipPath
       clipPathUnits="userSpaceOnUse"
       id="clipPath1299">
      <path
         style="color:#000000;display:block;opacity:0.85;fill:#f5f7fa;-inkscape-stroke:none"
         d="m 24.149464,39.847234 c 1.129182,1.129183 1.129024,2.947446 -3.54e-4,4.076824 L 11.920405,56.152763 c -1.129378,1.129378 -2.9476414,1.129536 -4.0768237,3.54e-4 -1.1291824,-1.129183 -1.1290247,-2.947446 3.535e-4,-4.076825 L 20.072639,39.847588 c 1.129379,-1.129378 2.947642,-1.129536 4.076825,-3.54e-4 z"
         id="path1301" />
    </clipPath>
    <inkscape:path-effect
       effect="powerclip"
       id="path-effect1303"
       is_visible="true"
       lpeversion="1"
       inverse="true"
       flatten="false"
       hide_clip="false"
       message="Use fill-rule evenodd on &lt;b&gt;fill and stroke&lt;/b&gt; dialog if no flatten result after convert clip to paths." />
    <clipPath
       clipPathUnits="userSpaceOnUse"
       id="clipPath221">
      <g
         id="g227"
         style="display:block">
        <path
           id="path223"
           d="M 400,230 A 100,100 0 0 1 300,330 100,100 0 0 1 200,230 100,100 0 0 1 300,130 100,100 0 0 1 400,230 Z" />
        <path
           id="path225"
           clip-path="url(#circular-border)"
           d="M 490,550 A 190,190 0 0 1 300,740 190,190 0 0 1 110,550 190,190 0 0 1 300,360 190,190 0 0 1 490,550 Z" />
      </g>
    </clipPath>
    <inkscape:path-effect
       effect="powerclip"
       id="path-effect229"
       is_visible="true"
       lpeversion="1"
       inverse="true"
       flatten="false"
       hide_clip="false"
       message="Use fill-rule evenodd on &lt;b&gt;fill and stroke&lt;/b&gt; dialog if no flatten result after convert clip to paths." />
    <clipPath
       clipPathUnits="userSpaceOnUse"
       id="clipPath2088">
      <path
         style="display:block;fill:#578376;fill-opacity:1;stroke-width:0.948737"
         class="cls-3"
         d="m 26.164949,55.36686 c -1.850933,-1.148662 -3.45501,-2.653778 -4.718967,-4.42784 -6.1331,-8.401614 -2.407378,-20.302417 6.924751,-24.898815 0.647458,-0.305009 1.753529,-0.856934 3.224836,-0.829958 2.10133,0.01537 4.074264,1.013531 5.331143,2.69737 0.838008,1.118752 1.300047,2.474168 1.319818,3.871764 0,-0.04357 5.075901,-16.516213 -16.601466,-16.516213 -9.110057,0 -16.6014679,8.644039 -16.6014679,16.227803 -0.035933,4.011711 0.8225476,7.981027 2.5130471,11.619445 C 13.275361,55.310452 27.224559,61.295893 40.008361,57.03508 35.632002,58.414733 30.074085,57.8081 26.183627,55.375159 Z"
         id="path2090" />
    </clipPath>
    <inkscape:path-effect
       effect="powerclip"
       id="path-effect2092"
       is_visible="true"
       lpeversion="1"
       inverse="true"
       flatten="false"
       hide_clip="false"
       message="Use fill-rule evenodd on &lt;b&gt;fill and stroke&lt;/b&gt; dialog if no flatten result after convert clip to paths." />
    <clipPath
       clipPathUnits="userSpaceOnUse"
       id="clipPath1880">
      <g
         id="g1898"
         style="display:block">
        <path
           style="color:#000000;opacity:0.85;fill:#f5f7fa;-inkscape-stroke:none"
           d="M 14.095703,26.000002 C 13.501406,26.000002 13,26.504334 13,27.098634 v 3.805662 C 13,31.498598 13.501406,32 14.095703,32 h 3.808593 C 18.498593,32 19,31.498598 19,30.904296 v -3.805662 c 0,-0.5943 -0.501407,-1.098632 -1.095704,-1.098632 z"
           id="path1882" />
        <path
           style="color:#000000;fill:#f5f7fa;-inkscape-stroke:none"
           d="M 14.095703,12 C 13.501406,12 13,12.504333 13,13.098633 v 3.805663 C 13,17.498596 13.501406,18 14.095703,18 h 3.808593 c 0.594297,0 1.095703,-0.501404 1.095703,-1.095704 V 13.098633 C 18.999999,12.504333 18.498593,12 17.904296,12 Z"
           id="path1884" />
        <g
           id="g1890"
           style="opacity:0.85">
          <path
             style="color:#000000;fill:#f5f7fa;stroke-width:6;stroke-linecap:round;-inkscape-stroke:none"
             d="M 28,28.9997 H 48"
             id="path1886" />
          <path
             style="color:#000000;fill:#f5f7fa;stroke-linecap:round;-inkscape-stroke:none"
             d="m 28,26 a 3,3 0 0 0 -3,3 3,3 0 0 0 3,3 h 20 a 3,3 0 0 0 3,-3 3,3 0 0 0 -3,-3 z"
             id="path1888" />
        </g>
        <path
           style="color:#000000;opacity:0.85;fill:#f5f7fa;stroke-linecap:round;-inkscape-stroke:none"
           d="m 28,12 a 3,3 0 0 0 -3,3 3,3 0 0 0 3,3 h 20 a 3,3 0 0 0 3,-3 3,3 0 0 0 -3,-3 z"
           id="path1892" />
        <path
           style="color:#000000;fill:#f5f7fa;-inkscape-stroke:none"
           d="M 14.095703,40 C 13.501406,40 13,40.504332 13,41.098632 v 3.805664 C 13,45.498594 13.501406,46 14.095703,46 h 3.808593 C 18.498593,46 19,45.498594 19,44.904296 V 41.098632 C 19,40.504332 18.498593,40 17.904296,40 Z"
           id="path1894" />
        <path
           style="color:#000000;opacity:0.85;fill:#f5f7fa;stroke-linecap:round;-inkscape-stroke:none"
           d="m 28,40 a 3,3 0 0 0 -3,3 3,3 0 0 0 3,3 h 20 a 3,3 0 0 0 3,-3 3,3 0 0 0 -3,-3 z"
           id="path1896" />
      </g>
    </clipPath>
    <inkscape:path-effect
       effect="powerclip"
       id="path-effect1900"
       is_visible="true"
       lpeversion="1"
       inverse="true"
       flatten="false"
       hide_clip="false"
       message="Use fill-rule evenodd on &lt;b&gt;fill and stroke&lt;/b&gt; dialog if no flatten result after convert clip to paths." />
    <clipPath
       clipPathUnits="userSpaceOnUse"
       id="clipPath686">
      <ellipse
         style="display:none;opacity:1;fill:#f5f7fa;stroke-width:1.08318"
         cx="49.118294"
         cy="25.66626"
         id="ellipse688"
         rx="4.3522716"
         ry="4.3132734" />
    </clipPath>
    <inkscape:path-effect
       effect="powerclip"
       id="path-effect690"
       is_visible="true"
       lpeversion="1"
       inverse="true"
       flatten="false"
       hide_clip="false"
       message="Use fill-rule evenodd on &lt;b&gt;fill and stroke&lt;/b&gt; dialog if no flatten result after convert clip to paths." />
    <clipPath
       clipPathUnits="userSpaceOnUse"
       id="clipPath186">
      <rect
         style="display:block;opacity:0.2"
         width="36"
         height="36"
         x="5.391973"
         y="5.6022935"
         rx="2.7690001"
         ry="2.7690001"
         id="rect188" />
    </clipPath>
    <inkscape:path-effect
       effect="powerclip"
       id="path-effect190"
       is_visible="true"
       lpeversion="1"
       inverse="true"
       flatten="false"
       hide_clip="false"
       message="Use fill-rule evenodd on &lt;b&gt;fill and stroke&lt;/b&gt; dialog if no flatten result after convert clip to paths." />
    <clipPath
       clipPathUnits="userSpaceOnUse"
       id="clipPath6813">
      <g
         aria-label="Libre Office"
         transform="scale(0.96678721,1.0343538)"
         id="g6817"
         style="font-size:12.8905px;line-height:1.25;font-family:'padmaa-Bold.1.1';-inkscape-font-specification:'padmaa-Bold.1.1';display:block;stroke-width:0.966787">
        <path
           id="path6815"
           d="m 17.095703,11.072266 c -0.27586,0 -0.503143,0.09917 -0.681641,0.298828 -0.178497,0.199653 -0.267578,0.439019 -0.267578,0.716797 0,0.286458 0.08908,0.523871 0.267578,0.714843 0.178498,0.190972 0.405781,0.28711 0.681641,0.28711 0.267746,0 0.491424,-0.09614 0.669922,-0.28711 0.178497,-0.190972 0.267578,-0.428385 0.267578,-0.714843 0,-0.286459 -0.09269,-0.525825 -0.279297,-0.716797 -0.178497,-0.199653 -0.39857,-0.298828 -0.658203,-0.298828 z M 7.53125,11.267578 v 0.324219 c 0.3407679,0 0.5824722,0.04904 0.7285156,0.144531 0.2109516,0.138889 0.3164063,0.399306 0.3164063,0.78125 v 6.300781 c 0,0.364584 -0.089081,0.608942 -0.2675781,0.730469 -0.1135894,0.07813 -0.3716677,0.143229 -0.7773438,0.195313 v 0.324218 h 7.033203 l 0.5,-2.955078 h -0.353515 c -0.324541,0.859376 -0.677259,1.471354 -1.058594,1.835938 -0.494925,0.477431 -1.169565,0.716797 -2.021485,0.716797 -0.430016,0 -0.717237,-0.04405 -0.863281,-0.13086 -0.146043,-0.09549 -0.21875,-0.295789 -0.21875,-0.599609 v -6.144531 c 0,-0.538195 0.09629,-0.881727 0.291016,-1.029297 0.146043,-0.112847 0.458802,-0.169922 0.9375,-0.169922 v -0.324219 z m 11.476562,0 v 0.3125 c 0.316428,0.06944 0.505405,0.155599 0.570313,0.259766 0.06491,0.104166 0.09766,0.268446 0.09766,0.49414 v 7.904297 h 0.146485 l 0.960937,-0.728515 c 0.267747,0.277777 0.544152,0.476128 0.828125,0.597656 0.227179,0.09549 0.458067,0.144531 0.69336,0.144531 0.941168,0 1.668535,-0.348523 2.179687,-1.042969 0.43813,-0.598958 0.65625,-1.357204 0.65625,-2.277343 0,-0.868056 -0.210909,-1.589193 -0.632813,-2.16211 -0.421902,-0.572917 -0.97276,-0.859375 -1.654296,-0.859375 -0.356996,0 -0.686128,0.09614 -0.986328,0.28711 -0.162271,0.104167 -0.329617,0.250434 -0.5,0.441406 v -3.371094 z m 10.830079,2.642578 c -0.348882,0 -0.685225,0.148221 -1.009766,0.44336 -0.170384,0.15625 -0.37213,0.403645 -0.607422,0.742187 v -1.029297 h -2.300781 v 0.3125 c 0.235292,0.03472 0.393474,0.08681 0.474609,0.15625 0.121703,0.104167 0.181641,0.307509 0.181641,0.611328 v 3.828125 c 0,0.295139 -0.05994,0.500434 -0.181641,0.613282 -0.07302,0.06076 -0.231203,0.115885 -0.474609,0.167968 v 0.3125 h 3.236328 v -0.3125 c -0.365108,0 -0.603208,-0.06814 -0.716797,-0.207031 -0.113589,-0.138889 -0.169922,-0.412326 -0.169922,-0.820312 v -2.460938 c 0,-0.321181 0.05994,-0.594618 0.181641,-0.820312 0.154157,-0.277778 0.332318,-0.417969 0.535156,-0.417969 0.113589,0 0.228207,0.08312 0.341797,0.248047 0.235292,0.347222 0.482555,0.521484 0.742187,0.521484 0.27586,0 0.483165,-0.104167 0.621094,-0.3125 0.105476,-0.15625 0.158203,-0.343533 0.158203,-0.560547 0,-0.234375 -0.0655,-0.442708 -0.195312,-0.625 -0.178498,-0.260416 -0.451298,-0.390625 -0.816406,-0.390625 z m 3.943359,0 c -0.71399,0 -1.310364,0.29145 -1.789062,0.873047 -0.478698,0.581598 -0.716797,1.339844 -0.716797,2.277344 0,1.041667 0.258078,1.853949 0.777343,2.435547 0.454357,0.503472 1.019937,0.755859 1.69336,0.755859 0.503038,0 0.935673,-0.122178 1.300781,-0.365234 0.373222,-0.243056 0.742313,-0.664714 1.107422,-1.263672 l -0.291016,-0.181641 c -0.259632,0.329861 -0.496079,0.559245 -0.707031,0.689453 -0.202838,0.121528 -0.424563,0.183594 -0.667969,0.183594 -0.527379,0 -0.918403,-0.270399 -1.169922,-0.808594 -0.194725,-0.416666 -0.291015,-0.958549 -0.291015,-1.626953 h 3.066406 c 0,-0.928819 -0.21812,-1.671007 -0.65625,-2.226562 -0.38945,-0.494792 -0.94226,-0.742188 -1.65625,-0.742188 z m -18.169922,0.15625 v 0.3125 c 0.259633,0.05208 0.430584,0.125217 0.511719,0.220703 0.08925,0.08681 0.132812,0.269098 0.132812,0.546875 v 3.828125 c 0,0.286459 -0.05273,0.481771 -0.158203,0.585938 -0.06491,0.06076 -0.226695,0.125868 -0.486328,0.195312 v 0.3125 h 2.908203 v -0.3125 c -0.235292,-0.02604 -0.387916,-0.09418 -0.460937,-0.207031 -0.07302,-0.121527 -0.111328,-0.300781 -0.111328,-0.535156 v -4.947266 z m 18.21875,0.248047 c 0.194725,0 0.349302,0.0651 0.462891,0.195313 0.08114,0.09549 0.146631,0.238715 0.195312,0.429687 0.04868,0.190972 0.07587,0.399306 0.08398,0.625 0.01623,0.217014 0.02539,0.49349 0.02539,0.832031 h -1.630859 c 0,-0.815972 0.08908,-1.388888 0.267578,-1.71875 0.129816,-0.243055 0.327957,-0.363281 0.595703,-0.363281 z m -11.609375,0.298828 c 0.462471,0 0.786046,0.32552 0.972656,0.976563 0.105476,0.373264 0.158203,0.886067 0.158203,1.537109 0,0.989584 -0.09629,1.687717 -0.291015,2.095703 -0.194725,0.407986 -0.483899,0.611328 -0.865235,0.611328 -0.3002,0 -0.523878,-0.125217 -0.669921,-0.376953 -0.105476,-0.182291 -0.158203,-0.398654 -0.158203,-0.65039 v -3.425782 c 0.08925,-0.234375 0.174724,-0.398654 0.255859,-0.49414 0.154157,-0.182292 0.354251,-0.273438 0.597656,-0.273438 z m -11.791015,8.371094 c -1.2170292,0 -2.2388275,0.424695 -3.0664068,1.275391 -0.8275793,0.842013 -1.2421875,1.958766 -1.2421874,3.347656 0,1.371528 0.4018394,2.486328 1.2050781,3.345703 0.8113522,0.850695 1.8459193,1.275391 3.1035161,1.275391 1.249482,0 2.280444,-0.429687 3.091796,-1.289063 0.811353,-0.859375 1.216797,-1.969183 1.216797,-3.332031 0,-1.38889 -0.425424,-2.518663 -1.277343,-3.386719 -0.811353,-0.824653 -1.822336,-1.236328 -3.03125,-1.236328 z m 7.814453,0 c -0.965509,0 -1.611006,0.343533 -1.935547,1.029297 -0.186611,0.399306 -0.279297,1.053385 -0.279297,1.964844 h -0.695313 v 0.574218 h 0.695313 v 4.335938 c 0,0.3125 -0.0655,0.523871 -0.195313,0.636719 -0.07302,0.06077 -0.240367,0.109811 -0.5,0.144531 v 0.3125 h 3.384766 v -0.3125 c -0.41379,0 -0.68659,-0.06207 -0.816406,-0.183594 -0.121703,-0.121527 -0.181641,-0.402994 -0.181641,-0.845703 v -4.087891 h 1.058594 v -0.574218 h -1.058594 v -1.587891 c 0,-0.269097 0.02719,-0.482422 0.08398,-0.638672 0.08925,-0.243056 0.260199,-0.363281 0.511718,-0.363281 0.09736,0 0.182838,0.02105 0.25586,0.06445 0.07302,0.03472 0.109375,0.09484 0.109375,0.181641 0,0.05208 -0.04552,0.161241 -0.134766,0.326172 -0.08925,0.16493 -0.132813,0.308159 -0.132813,0.429687 0,0.164931 0.05994,0.326172 0.181641,0.482422 0.121703,0.14757 0.301817,0.220703 0.537109,0.220703 0.243406,0 0.428778,-0.07313 0.558594,-0.220703 0.13793,-0.15625 0.207032,-0.351562 0.207032,-0.585938 0,-0.416666 -0.181767,-0.747179 -0.546876,-0.990234 -0.316426,-0.208334 -0.685518,-0.3125 -1.107421,-0.3125 z m 4.052734,0 c -0.965509,0 -1.611005,0.343533 -1.935547,1.029297 -0.18661,0.399306 -0.279297,1.053385 -0.279297,1.964844 h -0.695312 v 0.574218 h 0.695312 v 4.335938 c 0,0.3125 -0.0655,0.523871 -0.195312,0.636719 -0.07302,0.06077 -0.240368,0.109811 -0.5,0.144531 v 0.3125 h 3.384765 v -0.3125 c -0.413789,0 -0.68659,-0.06207 -0.816406,-0.183594 -0.121703,-0.121527 -0.181641,-0.402994 -0.18164,-0.845703 v -4.087891 h 1.058593 v -0.574218 h -1.058593 v -1.587891 c -10e-7,-0.269097 0.02719,-0.482422 0.08398,-0.638672 0.08925,-0.243056 0.260199,-0.363281 0.511719,-0.363281 0.09736,0 0.182837,0.02105 0.255859,0.06445 0.07302,0.03472 0.109375,0.09484 0.109375,0.181641 0,0.05208 -0.04552,0.161241 -0.134766,0.326172 -0.08925,0.16493 -0.132812,0.308159 -0.132812,0.429687 0,0.164931 0.05994,0.326172 0.181641,0.482422 0.121702,0.14757 0.301817,0.220703 0.537109,0.220703 0.243406,0 0.428777,-0.07313 0.558594,-0.220703 0.137929,-0.15625 0.207031,-0.351562 0.207031,-0.585938 0,-0.416666 -0.181767,-0.747179 -0.546875,-0.990234 -0.316428,-0.208334 -0.685519,-0.3125 -1.107422,-0.3125 z m 2.652344,0 c -0.27586,0 -0.503144,0.09917 -0.681641,0.298828 C 24.08908,23.482856 24,23.722222 24,24 c 0,0.286459 0.08908,0.525825 0.267578,0.716797 0.178497,0.190972 0.405781,0.285156 0.681641,0.285156 0.267746,0 0.491424,-0.09418 0.669922,-0.285156 0.178497,-0.190972 0.267578,-0.430338 0.267578,-0.716797 0,-0.286458 -0.09269,-0.525824 -0.279297,-0.716797 -0.178497,-0.199653 -0.398571,-0.298828 -0.658203,-0.298828 z m -14.519531,0.429687 c 0.778897,10e-7 1.351688,0.460721 1.716796,1.38086 0.292087,0.729167 0.4375,1.666666 0.4375,2.8125 0,1.024306 -0.101849,1.865668 -0.304687,2.52539 -0.340768,1.111112 -0.957122,1.666016 -1.849609,1.666016 -0.7058772,0 -1.2403608,-0.341579 -1.6054692,-1.027344 -0.3651086,-0.685764 -0.5488282,-1.740451 -0.5488282,-3.164062 0,-1.154514 0.1473664,-2.092013 0.4394532,-2.8125 0.373222,-0.920139 0.9440588,-1.38086 1.7148442,-1.38086 z m 19.40039,2.408204 c -0.722103,0 -1.347621,0.239366 -1.875,0.716796 -0.665309,0.598959 -0.998047,1.479384 -0.998047,2.642579 0,0.824653 0.243657,1.527777 0.730469,2.109375 0.486811,0.581597 1.112329,0.873046 1.875,0.873046 0.470584,0 0.899614,-0.117186 1.289062,-0.351562 0.397563,-0.243055 0.74307,-0.581597 1.035157,-1.015625 L 31.667969,30.5625 c -0.194725,0.234375 -0.362071,0.398655 -0.5,0.494141 -0.227179,0.15625 -0.494421,0.234375 -0.802735,0.234375 -0.494924,0 -0.900369,-0.255426 -1.216796,-0.767578 -0.316428,-0.520834 -0.47461,-1.223959 -0.47461,-2.109376 0,-0.711806 0.09269,-1.253689 0.279297,-1.626953 0.186611,-0.373263 0.437479,-0.560547 0.753906,-0.560547 0.121703,0 0.236321,0.04405 0.341797,0.13086 0.105476,0.07813 0.158203,0.203342 0.158203,0.376953 0,0.572917 0.05273,0.942491 0.158203,1.107422 0.113589,0.15625 0.288146,0.234375 0.523438,0.234375 0.243406,0 0.441546,-0.0701 0.595703,-0.208984 0.154157,-0.138889 0.232422,-0.347222 0.232422,-0.625 0,-0.442709 -0.207304,-0.799262 -0.621094,-1.06836 -0.365108,-0.234375 -0.786927,-0.351562 -1.265625,-0.351562 z m 5.03711,0 c -0.71399,0 -1.310365,0.291449 -1.789063,0.873046 -0.478698,0.581598 -0.716797,1.341797 -0.716797,2.279297 0,1.041667 0.260032,1.851996 0.779297,2.433594 0.454358,0.503473 1.017984,0.755859 1.691406,0.755859 0.503038,0 0.935672,-0.122178 1.300781,-0.365234 0.373222,-0.243056 0.744267,-0.66276 1.109376,-1.261719 l -0.292969,-0.183593 c -0.259633,0.329861 -0.494127,0.561197 -0.705078,0.691406 -0.202839,0.121527 -0.426517,0.18164 -0.669922,0.18164 -0.527379,10e-7 -0.91645,-0.268446 -1.167969,-0.80664 -0.194724,-0.416667 -0.292969,-0.960504 -0.292969,-1.628906 h 3.066407 c 0,-0.92882 -0.218121,-1.671007 -0.65625,-2.226563 -0.38945,-0.494792 -0.942261,-0.742187 -1.65625,-0.742187 z m -11.402344,0.15625 v 0.3125 c 0.259632,0.05208 0.430584,0.12717 0.511718,0.222656 0.08925,0.08681 0.132813,0.269097 0.132813,0.546875 v 3.828125 c 0,0.286458 -0.05273,0.48177 -0.158203,0.585937 -0.06491,0.06076 -0.226696,0.125868 -0.486328,0.195313 v 0.3125 h 2.908203 v -0.3125 c -0.235292,-0.02604 -0.389869,-0.09614 -0.462891,-0.208984 -0.07302,-0.121528 -0.109375,-0.298829 -0.109375,-0.533204 v -4.949218 z m 11.451172,0.248046 c 0.194724,10e-7 0.349301,0.0651 0.46289,0.195313 0.08114,0.09549 0.146632,0.238715 0.195313,0.429687 0.04868,0.190973 0.07587,0.399306 0.08398,0.625 0.01623,0.217015 0.02539,0.495444 0.02539,0.833985 h -1.63086 c 0,-0.815972 0.08908,-1.388888 0.267578,-1.71875 0.129817,-0.243055 0.327957,-0.365234 0.595704,-0.365235 z"
           transform="scale(1.0343538,0.96678719)" />
      </g>
    </clipPath>
    <inkscape:path-effect
       effect="powerclip"
       id="path-effect6819"
       is_visible="true"
       lpeversion="1"
       inverse="true"
       flatten="false"
       hide_clip="false"
       message="Use fill-rule evenodd on &lt;b&gt;fill and stroke&lt;/b&gt; dialog if no flatten result after convert clip to paths." />
    <clipPath
       clipPathUnits="userSpaceOnUse"
       id="clipPath426">
      <circle
         style="display:none;fill:#f5f7fa"
         cx="32"
         cy="32"
         r="20"
         id="circle428" />
    </clipPath>
    <inkscape:path-effect
       effect="powerclip"
       id="path-effect430"
       is_visible="true"
       lpeversion="1"
       inverse="true"
       flatten="false"
       hide_clip="false"
       message="Use fill-rule evenodd on &lt;b&gt;fill and stroke&lt;/b&gt; dialog if no flatten result after convert clip to paths." />
    <clipPath
       clipPathUnits="userSpaceOnUse"
       id="clipPath469">
      <path
         id="path471"
         style="display:block;fill:#f5f7fa"
         d="m 8,25 v 14 h 3.996094 v -5.300781 h 1.132812 c 0.650844,0 1.17086,0.130399 1.558594,0.386719 0.394659,0.256306 0.783253,0.737344 1.164062,1.4375 L 17.742188,39 H 22 L 19.828125,35.023438 C 19.384997,34.21701 18.947919,33.6204 18.511719,33.226562 c -0.42928,-0.400087 -0.921768,-0.660913 -1.46875,-0.773437 0.997032,-0.281312 1.742783,-0.718614 2.234375,-1.3125 0.498516,-0.593882 0.746094,-1.352138 0.746094,-2.277344 0,-1.337798 -0.474196,-2.314703 -1.429688,-2.933593 C 17.645186,25.310799 16.148,25 14.105469,25 Z m 23,0 c -2.181422,0 -3.894967,0.622049 -5.140625,1.863281 C 24.619789,28.104509 24,29.81669 24,32.003906 c 0,2.181192 0.619789,3.891585 1.859375,5.132813 C 27.105033,38.377949 28.818578,39 31,39 33.1875,39 34.901043,38.377949 36.140625,37.136719 37.380211,35.895491 38,34.185098 38,32.003906 38,29.81669 37.380211,28.104509 36.140625,26.863281 34.901043,25.622049 33.1875,25 31,25 Z m 11,0 v 14 h 3.076172 V 28.759766 l 2.898437,7.548828 h 2.058594 l 2.898438,-7.548828 V 39 H 56 V 25 H 51.878906 L 48.994141,32.492188 46.128906,25 Z m -11,2.519531 c 1.07552,0 1.906682,0.392482 2.496094,1.175781 0.58941,0.783302 0.886718,1.886602 0.886718,3.308594 0,1.415966 -0.29731,2.51748 -0.886718,3.300782 C 32.906682,36.087987 32.07552,36.480469 31,36.480469 c -1.069444,0 -1.898873,-0.392481 -2.488281,-1.175781 -0.58941,-0.783302 -0.882813,-1.884816 -0.882813,-3.300782 0,-1.421992 0.293403,-2.525292 0.882813,-3.308594 0.589408,-0.7833 1.418837,-1.175781 2.488281,-1.175781 z m -19.003906,0.09766 h 1.683594 c 0.837785,0 1.436836,0.13902 1.796874,0.414062 0.366964,0.275064 0.550782,0.729546 0.550782,1.367188 0,0.643893 -0.183818,1.105404 -0.550782,1.386718 -0.360037,0.28131 -0.95909,0.421875 -1.796874,0.421875 h -1.683594 z" />
    </clipPath>
    <inkscape:path-effect
       effect="powerclip"
       id="path-effect473"
       is_visible="true"
       lpeversion="1"
       inverse="true"
       flatten="false"
       hide_clip="false"
       message="Use fill-rule evenodd on &lt;b&gt;fill and stroke&lt;/b&gt; dialog if no flatten result after convert clip to paths." />
    <clipPath
       clipPathUnits="userSpaceOnUse"
       id="clipPath276">
      <circle
         cx="32"
         cy="21"
         r="11"
         style="display:none;fill:#f5f7fa"
         id="circle278" />
    </clipPath>
    <inkscape:path-effect
       effect="powerclip"
       id="path-effect280"
       is_visible="true"
       lpeversion="1"
       inverse="true"
       flatten="false"
       hide_clip="false"
       message="Use fill-rule evenodd on &lt;b&gt;fill and stroke&lt;/b&gt; dialog if no flatten result after convert clip to paths." />
    <clipPath
       clipPathUnits="userSpaceOnUse"
       id="clipPath276-3">
      <circle
         cx="32"
         cy="21"
         r="11"
         style="display:none;fill:#f5f7fa"
         id="circle278-6"
         d="M 43,21 A 11,11 0 0 1 32,32 11,11 0 0 1 21,21 11,11 0 0 1 32,10 11,11 0 0 1 43,21 Z" />
      <path
         id="lpe_path-effect280"
         style="fill:#f5f7fa"
         class="powerclip"
         d="M -1,-1 H 65 V 65 H -1 Z M 43,21 A 11,11 0 0 0 32,10 11,11 0 0 0 21,21 11,11 0 0 0 32,32 11,11 0 0 0 43,21 Z" />
    </clipPath>
    <inkscape:path-effect
       effect="powerclip"
       id="path-effect280-7"
       is_visible="true"
       lpeversion="1"
       inverse="true"
       flatten="false"
       hide_clip="false"
       message="Use fill-rule evenodd on &lt;b&gt;fill and stroke&lt;/b&gt; dialog if no flatten result after convert clip to paths." />
    <clipPath
       clipPathUnits="userSpaceOnUse"
       id="clipath_lpe_path-effect280-7">
      <circle
         cx="32"
         cy="21"
         r="11"
         style="display:none;fill:#f5f7fa"
         id="circle11539" />
    </clipPath>
    <clipPath
       clipPathUnits="userSpaceOnUse"
       id="clipath_lpe_path-effect262-3">
      <path
         style="display:none;fill:#f5f7fa"
         d="m 22.525391,20.003906 c -0.398998,0.0087 -0.785802,0.03435 -1.017579,0.06836 -1.111422,0.163344 -2.04889,0.500628 -2.83789,1.021484 -1.472215,0.971879 -2.330171,2.488923 -2.613281,4.619141 -0.07478,0.562802 -0.07496,1.711881 0,2.25 0.339997,2.442406 1.66116,4.567804 3.943359,6.345703 0.949744,0.739862 2.100535,1.434405 3.167969,1.910156 0.67323,0.300067 0.685879,0.304989 0.722656,0.398438 0.01876,0.04773 0.03853,0.552053 0.04687,1.1875 0.01047,0.774104 0.02868,1.189337 0.0625,1.390624 0.21876,1.298083 0.59456,2.263069 1.271484,3.263672 1.133201,1.675054 2.835564,2.852424 4.816407,3.330078 0.207888,0.05006 0.540837,0.113991 0.738281,0.140626 0.197442,0.02665 0.402215,0.05142 0.455078,0.05859 0.234819,0.03207 1.618524,-0.0089 1.923828,-0.05664 2.299375,-0.364719 4.251304,-1.595115 5.521484,-3.472657 0.676928,-1.000603 1.056632,-1.96559 1.275391,-3.263672 0.03397,-0.201286 0.05042,-0.61652 0.06055,-1.390624 0.0091,-0.635447 0.03202,-1.139728 0.05078,-1.1875 0.0368,-0.09341 0.05136,-0.09835 0.72461,-0.398438 0.792352,-0.353151 1.773721,-0.909561 2.511718,-1.423828 2.207469,-1.538283 3.658623,-3.390685 4.300782,-5.484375 0.255656,-0.833558 0.350397,-1.499333 0.349609,-2.464844 -0.0029,-3.839161 -1.966302,-6.253239 -5.505859,-6.773437 -0.463557,-0.06807 -1.549493,-0.09495 -2.101563,-0.04883 -2.816275,0.235327 -5.692431,1.469673 -7.917969,3.394531 -0.298662,0.258313 -0.396584,0.324219 -0.472656,0.324219 -0.07611,0 -0.175948,-0.06585 -0.474609,-0.324219 -2.225536,-1.924858 -5.101693,-3.159205 -7.917969,-3.394531 -0.276034,-0.02307 -0.684986,-0.02816 -1.083984,-0.01953 z m 16.238281,6.984375 c 0.12279,-0.0047 0.25743,2.73e-4 0.396484,0.01758 0.278107,0.03462 0.575295,0.11325 0.839844,0.222657 0.404139,0.167192 0.793745,0.46942 0.923828,0.716796 0.07791,0.148234 0.08274,0.378159 0.01367,0.507813 -0.151789,0.284535 -0.489293,0.472478 -1.339844,0.740234 -0.966319,0.30421 -1.474325,0.531234 -2.146484,0.966797 -0.398821,0.25843 -0.810539,0.598281 -1.177734,0.964844 -0.247032,0.246602 -0.28329,0.267578 -0.394532,0.267578 -0.08714,0 -0.147112,-0.02113 -0.203125,-0.07617 -0.09473,-0.0931 -0.09705,-0.218892 -0.02734,-0.701172 0.205815,-1.423048 0.756924,-2.406315 1.699218,-3.03125 0.332669,-0.22063 0.860147,-0.4847 1.087891,-0.548828 0.09423,-0.02653 0.205334,-0.04213 0.328125,-0.04687 z m -13.740234,0.0039 c 0.210117,-0.0088 0.408019,0.0077 0.533203,0.04297 0.227757,0.06413 0.755222,0.328198 1.08789,0.548828 0.942294,0.624937 1.493405,1.608202 1.699219,3.03125 0.06972,0.48228 0.06155,0.608074 -0.0332,0.701172 -0.056,0.05504 -0.112063,0.08008 -0.199219,0.08008 -0.111275,0 -0.147567,-0.0249 -0.394531,-0.271484 -0.689284,-0.688112 -1.468635,-1.21314 -2.34375,-1.582031 -0.199557,-0.08418 -0.640785,-0.242706 -0.980469,-0.34961 -0.674109,-0.212152 -0.982875,-0.351923 -1.171875,-0.53125 C 23.056866,28.506658 23,28.388603 23,28.212891 c 0,-0.434391 0.579412,-0.89589 1.419922,-1.132813 0.168875,-0.04758 0.393401,-0.07907 0.603516,-0.08789 z m 4.970703,8.015624 c 0.189475,0 0.246488,0.06037 0.351562,0.367188 0.410498,1.198747 0.281021,2.329892 -0.365234,3.197266 -0.295206,0.396206 -0.473921,0.490411 -0.666016,0.355468 -0.255837,-0.179719 -0.387143,-1.072529 -0.263672,-1.80664 0.08907,-0.529966 0.358308,-1.334226 0.611328,-1.826172 0.127362,-0.247628 0.172914,-0.287109 0.332032,-0.28711 z m 4.007812,0.0039 c 0.06858,-0.0018 0.138974,0.0084 0.175781,0.0332 0.118708,0.07982 0.48296,0.929036 0.648438,1.511719 0.229409,0.807783 0.233563,1.629473 0.01172,2.160156 -0.114388,0.27325 -0.315778,0.342528 -0.523438,0.179687 h -0.002 c -0.06256,-0.04895 -0.195445,-0.193333 -0.292969,-0.324218 -0.646255,-0.867375 -0.77378,-1.998519 -0.363281,-3.197266 0.06494,-0.189603 0.119686,-0.292042 0.167969,-0.322266 0.04261,-0.02667 0.109155,-0.03943 0.177734,-0.04102 z"
         id="path12088" />
      <path
         id="lpe_path-effect262-3"
         style="fill:#f5f7fa"
         class="powerclip"
         d="M 1.9999999,-0.9999998 H 62 V 65 H 1.9999999 Z M 22.525391,20.003906 c -0.398998,0.0087 -0.785802,0.03435 -1.017579,0.06836 -1.111422,0.163344 -2.04889,0.500628 -2.83789,1.021484 -1.472215,0.971879 -2.330171,2.488923 -2.613281,4.619141 -0.07478,0.562802 -0.07496,1.711881 0,2.25 0.339997,2.442406 1.66116,4.567804 3.943359,6.345703 0.949744,0.739862 2.100535,1.434405 3.167969,1.910156 0.67323,0.300067 0.685879,0.304989 0.722656,0.398438 0.01876,0.04773 0.03853,0.552053 0.04687,1.1875 0.01047,0.774104 0.02868,1.189337 0.0625,1.390624 0.21876,1.298083 0.59456,2.263069 1.271484,3.263672 1.133201,1.675054 2.835564,2.852424 4.816407,3.330078 0.207888,0.05006 0.540837,0.113991 0.738281,0.140626 0.197442,0.02665 0.402215,0.05142 0.455078,0.05859 0.234819,0.03207 1.618524,-0.0089 1.923828,-0.05664 2.299375,-0.364719 4.251304,-1.595115 5.521484,-3.472657 0.676928,-1.000603 1.056632,-1.96559 1.275391,-3.263672 0.03397,-0.201286 0.05042,-0.61652 0.06055,-1.390624 0.0091,-0.635447 0.03202,-1.139728 0.05078,-1.1875 0.0368,-0.09341 0.05136,-0.09835 0.72461,-0.398438 0.792352,-0.353151 1.773721,-0.909561 2.511718,-1.423828 2.207469,-1.538283 3.658623,-3.390685 4.300782,-5.484375 0.255656,-0.833558 0.350397,-1.499333 0.349609,-2.464844 -0.0029,-3.839161 -1.966302,-6.253239 -5.505859,-6.773437 -0.463557,-0.06807 -1.549493,-0.09495 -2.101563,-0.04883 -2.816275,0.235327 -5.692431,1.469673 -7.917969,3.394531 -0.298662,0.258313 -0.396584,0.324219 -0.472656,0.324219 -0.07611,0 -0.175948,-0.06585 -0.474609,-0.324219 -2.225536,-1.924858 -5.101693,-3.159205 -7.917969,-3.394531 -0.276034,-0.02307 -0.684986,-0.02816 -1.083984,-0.01953 z m 16.238281,6.984375 10e-7,9e-6 c -0.122791,0.0047 -0.233895,0.02034 -0.328125,0.04687 -0.227744,0.06413 -0.755222,0.328198 -1.087891,0.548828 -0.942294,0.624935 -1.493403,1.608202 -1.699218,3.03125 -0.06971,0.48228 -0.06739,0.608072 0.02734,0.701172 0.05601,0.05504 0.115985,0.07617 0.203125,0.07617 0.111242,0 0.1475,-0.02098 0.394532,-0.267578 0.367195,-0.366563 0.778913,-0.706414 1.177734,-0.964844 0.672159,-0.435563 1.180165,-0.662587 2.146484,-0.966797 0.850551,-0.267756 1.188055,-0.455699 1.339844,-0.740234 0.06907,-0.129654 0.06424,-0.359579 -0.01367,-0.507813 C 40.793745,27.697938 40.404139,27.39571 40,27.228518 c -0.264549,-0.109407 -0.561737,-0.188037 -0.839844,-0.222657 -0.139054,-0.01731 -0.273694,-0.02228 -0.396484,-0.01758 z m -13.740234,0.0039 v 7e-6 c -0.210115,0.0088 -0.434641,0.04031 -0.603516,0.08789 C 23.579412,27.317001 23,27.7785 23,28.212891 c 0,0.175712 0.05687,0.293767 0.220706,0.449215 0.189,0.179327 0.497766,0.319098 1.171875,0.53125 0.339684,0.106904 0.780912,0.26543 0.980469,0.34961 0.875115,0.368891 1.654466,0.893919 2.34375,1.582031 0.246964,0.246584 0.283256,0.271484 0.394531,0.271484 0.08716,0 0.143219,-0.02504 0.199219,-0.08008 0.09475,-0.0931 0.10292,-0.218892 0.0332,-0.701172 -0.205814,-1.423048 -0.756925,-2.406313 -1.699219,-3.03125 -0.332668,-0.22063 -0.860133,-0.484698 -1.08789,-0.548828 -0.125184,-0.03527 -0.323086,-0.05177 -0.533203,-0.04297 z m 4.970703,8.015624 c -0.159118,1e-6 -0.20467,0.03948 -0.332032,0.28711 -0.25302,0.491946 -0.522258,1.296206 -0.611328,1.826172 -0.123471,0.734111 0.0078,1.626921 0.263672,1.80664 0.192095,0.134943 0.37081,0.04074 0.666016,-0.355468 0.646255,-0.867374 0.775732,-1.998519 0.365234,-3.197266 -0.105074,-0.306818 -0.162087,-0.367188 -0.351562,-0.367188 z m 4.007812,0.0039 -4.6e-5,-8e-6 c -0.06858,0.0016 -0.135124,0.01435 -0.177734,0.04102 -0.04828,0.03022 -0.103029,0.132663 -0.167969,0.322266 -0.410499,1.198747 -0.282974,2.329891 0.363281,3.197266 0.09752,0.130885 0.230409,0.275268 0.292969,0.324218 h 0.002 c 0.20766,0.162841 0.40905,0.09356 0.523438,-0.179687 0.221843,-0.530683 0.217689,-1.352373 -0.01172,-2.160156 -0.165478,-0.582683 -0.52973,-1.431899 -0.648438,-1.511719 -0.03681,-0.0248 -0.107201,-0.035 -0.175781,-0.0332 z" />
    </clipPath>
    <inkscape:path-effect
       effect="powerclip"
       id="path-effect262-3"
       is_visible="true"
       lpeversion="1"
       inverse="true"
       flatten="false"
       hide_clip="false"
       message="Use fill-rule evenodd on &lt;b&gt;fill and stroke&lt;/b&gt; dialog if no flatten result after convert clip to paths." />
  </defs>
  <circle
     cx="32.516094"
     cy="31.877844"
     r="0"
     fill="url(#b)"
     stroke-width="1.5715"
     id="circle41"
     style="fill:url(#b)" />
  <g
     aria-label="GZ"
     transform="matrix(1.2212657,0,0,0.81882264,0.4960938,-0.1661539)"
     id="text93"
     style="font-weight:bold;font-size:11.5263px;line-height:1.25;font-family:sans-serif;-inkscape-font-specification:'sans-serif Bold';fill:#f2f2f2;stroke-width:0.288159" />
  <g
     id="g877"
     transform="matrix(1.1,0,0,1.1,-3.1845928,-3.2065454)">
    <path
       d="m 18.347203,7.2464043 c -6.244452,0 -11.2714308,5.1741617 -11.2714308,11.6016437 v 26.767119 c 0,6.427394 5.0268918,11.601644 11.2714308,11.601644 h 26.005262 c 6.244452,0 11.271431,-5.174161 11.271431,-11.601644 V 18.848048 c 0,-6.427393 -5.026893,-11.6016437 -11.271431,-11.6016437 z"
       fill="url(#linearGradient910)"
       stroke-width="3.32418"
       id="path33"
       style="fill:#578376;fill-opacity:1"
       clip-path="url(#clipPath1976)"
       inkscape:path-effect="#path-effect1980"
       inkscape:original-d="m 18.347203,7.2464043 c -6.244452,0 -11.2714308,5.1741617 -11.2714308,11.6016437 v 26.767119 c 0,6.427394 5.0268918,11.601644 11.2714308,11.601644 h 26.005262 c 6.244452,0 11.271431,-5.174161 11.271431,-11.601644 V 18.848048 c 0,-6.427393 -5.026893,-11.6016437 -11.271431,-11.6016437 z"
       transform="matrix(1.1,0,0,1.1,-2.6388896,-3.3893147)" />
    <rect
       x="8.0073938"
       y="7.5283623"
       width="47.677586"
       height="49.074364"
       rx="9.5358982"
       ry="9.8152657"
       fill="url(#linearGradient862)"
       stroke-width="3.26449"
       id="rect35-7"
       style="opacity:1;fill:#f5f7fa;fill-opacity:1" />
    <rect
       x="10.391273"
       y="9.9820805"
       width="42.909828"
       height="44.166924"
       rx="8.5823088"
       ry="8.8337393"
       fill="url(#linearGradient862)"
       stroke-width="2.93805"
       id="rect35-7-3"
       style="fill:#578376;fill-opacity:1" />
  </g>
  <path
     style="fill:#f5f7fa;fill-opacity:1"
     d="m 32.149197,4.0000002 v 0.00273 A 6.3412167,6.3670382 0 0 0 28.828885,4.8503879 L 10.171115,15.667537 A 6.3412167,6.3670382 0 0 0 7,21.182755 v 21.634298 a 6.3412167,6.3670382 0 0 0 3.171115,5.512481 l 18.65777,10.817151 a 6.3412167,6.3670382 0 0 0 6.342229,0 L 53.828885,48.329534 A 6.3412167,6.3670382 0 0 0 57,42.817053 V 21.182755 A 6.3412167,6.3670382 0 0 0 53.828885,15.667537 L 35.171114,4.8503879 A 6.3412167,6.3670382 0 0 0 32.149197,4.0000002 Z"
     id="path4"
     clip-path="url(#clipath_lpe_path-effect262-3)"
     inkscape:path-effect="#path-effect262-3"
     inkscape:original-d="m 32.149197,4.0000002 v 0.00273 A 6.3412167,6.3670382 0 0 0 28.828885,4.8503879 L 10.171115,15.667537 A 6.3412167,6.3670382 0 0 0 7,21.182755 v 21.634298 a 6.3412167,6.3670382 0 0 0 3.171115,5.512481 l 18.65777,10.817151 a 6.3412167,6.3670382 0 0 0 6.342229,0 L 53.828885,48.329534 A 6.3412167,6.3670382 0 0 0 57,42.817053 V 21.182755 A 6.3412167,6.3670382 0 0 0 53.828885,15.667537 L 35.171114,4.8503879 A 6.3412167,6.3670382 0 0 0 32.149197,4.0000002 Z"
     transform="matrix(0.70201615,0,0,0.67968721,9.3456373,10.502831)" />
  <g
     id="g1067"
     transform="matrix(0.970299,0,0,0.970299,3.2625593,2.8934531)"
     style="fill:#f5f7fa;fill-opacity:1" />
  <g
     id="g1608"
     style="fill:#f5f7fa;fill-opacity:1"
     transform="matrix(0.60182892,0,0,0.62849359,12.974763,11.864155)" />
</svg>
