<?xml version="1.0" encoding="UTF-8" standalone="no"?>
<svg
   width="64"
   height="64"
   version="1.1"
   id="svg73"
   sodipodi:docname="fr.handbrake.ghb.svg"
   inkscape:version="1.2.2 (1:1.2.2+202212051550+b0a8486541)"
   xmlns:inkscape="http://www.inkscape.org/namespaces/inkscape"
   xmlns:sodipodi="http://sodipodi.sourceforge.net/DTD/sodipodi-0.dtd"
   xmlns="http://www.w3.org/2000/svg"
   xmlns:svg="http://www.w3.org/2000/svg"
   xmlns:rdf="http://www.w3.org/1999/02/22-rdf-syntax-ns#"
   xmlns:cc="http://creativecommons.org/ns#"
   xmlns:dc="http://purl.org/dc/elements/1.1/">
  <metadata
     id="metadata77">
    <rdf:RDF>
      <cc:Work
         rdf:about="">
        <dc:format>image/svg+xml</dc:format>
        <dc:type
           rdf:resource="http://purl.org/dc/dcmitype/StillImage" />
      </cc:Work>
    </rdf:RDF>
  </metadata>
  <sodipodi:namedview
     pagecolor="#f5f7fa"
     bordercolor="#666666"
     borderopacity="1"
     objecttolerance="10"
     gridtolerance="10"
     guidetolerance="10"
     inkscape:pageopacity="0"
     inkscape:pageshadow="2"
     inkscape:window-width="1377"
     inkscape:window-height="886"
     id="namedview75"
     showgrid="false"
     inkscape:zoom="6.2890625"
     inkscape:cx="49.371429"
     inkscape:cy="37.843478"
     inkscape:window-x="207"
     inkscape:window-y="108"
     inkscape:window-maximized="0"
     inkscape:current-layer="svg73"
     inkscape:document-rotation="0"
     inkscape:pagecheckerboard="0"
     inkscape:showpageshadow="2"
     inkscape:deskcolor="#d1d1d1" />
  <defs
     id="defs29">
    <inkscape:path-effect
       effect="powerclip"
       id="path-effect1980"
       is_visible="true"
       lpeversion="1"
       inverse="true"
       flatten="false"
       hide_clip="false"
       message="Use fill-rule evenodd on &lt;b&gt;fill and stroke&lt;/b&gt; dialog if no flatten result after convert clip to paths." />
    <linearGradient
       id="b"
       x1="399.57"
       x2="399.57"
       y1="545.8"
       y2="517.8"
       gradientTransform="matrix(2.1429,0,0,2.1429,-825.86391,-1107.6662)"
       gradientUnits="userSpaceOnUse">
      <stop
         stop-color="#3889e9"
         offset="0"
         id="stop2" />
      <stop
         stop-color="#5ea5fb"
         offset="1"
         id="stop4" />
    </linearGradient>
    <linearGradient
       id="linearGradient862"
       x1="7.9373"
       x2="7.9373"
       y1="15.081"
       y2="1.852"
       gradientTransform="matrix(3.3743 0 0 3.3743 3.4312 3.4278)"
       gradientUnits="userSpaceOnUse">
      <stop
         stop-color="#f1efeb"
         offset="0"
         id="stop7" />
      <stop
         stop-color="#fff"
         offset="1"
         id="stop9" />
    </linearGradient>
    <linearGradient
       id="linearGradient910"
       x1="7.9373"
       x2="7.9373"
       y1="15.081"
       y2="1.852"
       gradientTransform="scale(3.7796)"
       gradientUnits="userSpaceOnUse">
      <stop
         stop-color="#613583"
         offset="0"
         id="stop12" />
      <stop
         stop-color="#a663c0"
         offset="1"
         id="stop14" />
    </linearGradient>
    <linearGradient
       id="linearGradient932"
       x1="379.24"
       x2="374.24"
       y1="546.85"
       y2="546.85"
       gradientTransform="matrix(2.1429 0 0 2.1429 -769.68 -1134.5)"
       gradientUnits="userSpaceOnUse">
      <stop
         stop-color="#f6f5f4"
         offset="0"
         id="stop17" />
      <stop
         stop-color="#fff"
         offset=".6"
         id="stop19" />
      <stop
         stop-color="#dddbd8"
         offset="1"
         id="stop21" />
    </linearGradient>
    <linearGradient
       id="linearGradient1146"
       x1="18"
       x2="18"
       y1="52"
       y2="12"
       gradientUnits="userSpaceOnUse">
      <stop
         stop-color="#5e337f"
         offset="0"
         id="stop24" />
      <stop
         stop-color="#ab60bf"
         offset="1"
         id="stop26" />
    </linearGradient>
    <clipPath
       clipPathUnits="userSpaceOnUse"
       id="clipPath1976">
      <rect
         x="9.6784649"
         y="9.925169"
         width="43.343258"
         height="44.613056"
         rx="8.6689987"
         ry="8.9229689"
         fill="url(#linearGradient862)"
         stroke-width="2.96772"
         id="rect1978"
         style="display:none;fill:#333333;fill-opacity:1"
         d="m 18.347464,9.925169 h 26.00526 c 4.802625,0 8.668999,3.979644 8.668999,8.922969 v 26.767118 c 0,4.943325 -3.866374,8.922969 -8.668999,8.922969 h -26.00526 c -4.802626,0 -8.6689991,-3.979644 -8.6689991,-8.922969 V 18.848138 c 0,-4.943325 3.8663731,-8.922969 8.6689991,-8.922969 z" />
      <path
         id="lpe_path-effect1980"
         style="fill:#333333;fill-opacity:1"
         class="powerclip"
         d="M 2.0757722,2.2464043 H 60.623896 V 62.216811 H 2.0757722 Z M 18.347464,9.925169 c -4.802626,0 -8.6689991,3.979644 -8.6689991,8.922969 v 26.767118 c 0,4.943325 3.8663731,8.922969 8.6689991,8.922969 h 26.00526 c 4.802625,0 8.668999,-3.979644 8.668999,-8.922969 V 18.848138 c 0,-4.943325 -3.866374,-8.922969 -8.668999,-8.922969 z" />
    </clipPath>
    <filter
       style="color-interpolation-filters:sRGB;"
       inkscape:label="Drop Shadow"
       id="filter663"
       x="-0.098870968"
       y="-0.096056853"
       width="1.2389382"
       height="1.2321374">
      <feFlood
         flood-opacity="0.301961"
         flood-color="rgb(0,0,0)"
         result="flood"
         id="feFlood653" />
      <feComposite
         in="flood"
         in2="SourceGraphic"
         operator="in"
         result="composite1"
         id="feComposite655" />
      <feGaussianBlur
         in="composite1"
         stdDeviation="2"
         result="blur"
         id="feGaussianBlur657" />
      <feOffset
         dx="2"
         dy="2"
         result="offset"
         id="feOffset659" />
      <feComposite
         in="SourceGraphic"
         in2="offset"
         operator="over"
         result="composite2"
         id="feComposite661" />
    </filter>
    <clipPath
       clipPathUnits="userSpaceOnUse"
       id="clipPath38">
      <rect
         x="0.97311002"
         y="4.6963"
         width="14.987"
         height="9.9216995"
         ry="0.29919001"
         fill="#fffffc"
         id="rect40"
         style="display:block;opacity:0.85;fill:#f2f2f2;stroke-width:0.999999" />
    </clipPath>
    <inkscape:path-effect
       effect="powerclip"
       id="path-effect42"
       is_visible="true"
       lpeversion="1"
       inverse="true"
       flatten="false"
       hide_clip="false"
       message="Use fill-rule evenodd on &lt;b&gt;fill and stroke&lt;/b&gt; dialog if no flatten result after convert clip to paths." />
    <clipPath
       clipPathUnits="userSpaceOnUse"
       id="clipPath30">
      <path
         id="path32"
         style="color:#000000;display:block;opacity:0.85;fill:#f5f7fa;stroke-linecap:round;-inkscape-stroke:none"
         d="m 27.902344,19.023438 c -5.140587,0.01596 -9.820748,0.752518 -13.330078,2.15625 a 2.5,2.5 0 0 0 -1.392578,3.248046 2.5,2.5 0 0 0 3.248046,1.392578 c 3.180816,-1.272325 8.839301,-2.056673 14.796875,-1.699218 5.957575,0.357454 12.260098,1.820223 17.035157,4.548828 a 2.5,2.5 0 0 0 3.410156,-0.929688 2.5,2.5 0 0 0 -0.929688,-3.410156 c -5.72493,-3.271389 -12.67243,-4.808627 -19.214843,-5.201172 -1.226703,-0.0736 -2.436758,-0.109153 -3.623047,-0.105468 z m -1.240235,9.966796 c -1.05657,-0.0087 -2.093217,0.01082 -3.097656,0.05859 -2.678505,0.127409 -5.127438,0.45996 -7.113281,1.027344 a 2,2 0 0 0 -1.375,2.472656 2,2 0 0 0 2.472656,1.375 c 3.028306,-0.86523 8.701737,-1.165792 14.148438,-0.68164 5.4467,0.484152 10.812065,1.834345 13.193359,3.421874 a 2,2 0 0 0 2.773437,-0.554687 2,2 0 0 0 -0.554687,-2.773437 C 43.490675,30.923467 37.856023,29.773657 32.052734,29.257808 30.239207,29.096607 28.42306,29.004783 26.662109,28.99023 Z m 0.917969,8.988282 c -3.813243,-0.0048 -7.379665,0.410834 -10.064453,1.082031 a 2,2 0 0 0 -1.455078,2.423828 2,2 0 0 0 2.423828,1.455078 c 5.391278,-1.347819 17.438862,-1.241506 23.621094,1.849609 a 2,2 0 0 0 2.683593,-0.894531 2,2 0 0 0 -0.894531,-2.683593 c -3.908877,-1.954439 -8.851018,-2.904387 -13.642578,-3.160157 -0.898417,-0.04796 -1.791896,-0.07116 -2.671875,-0.07227 z" />
    </clipPath>
    <inkscape:path-effect
       effect="powerclip"
       id="path-effect34"
       is_visible="true"
       lpeversion="1"
       inverse="true"
       flatten="false"
       hide_clip="false"
       message="Use fill-rule evenodd on &lt;b&gt;fill and stroke&lt;/b&gt; dialog if no flatten result after convert clip to paths." />
    <clipPath
       clipPathUnits="userSpaceOnUse"
       id="clipPath1299">
      <path
         style="color:#000000;display:block;opacity:0.85;fill:#f5f7fa;-inkscape-stroke:none"
         d="m 24.149464,39.847234 c 1.129182,1.129183 1.129024,2.947446 -3.54e-4,4.076824 L 11.920405,56.152763 c -1.129378,1.129378 -2.9476414,1.129536 -4.0768237,3.54e-4 -1.1291824,-1.129183 -1.1290247,-2.947446 3.535e-4,-4.076825 L 20.072639,39.847588 c 1.129379,-1.129378 2.947642,-1.129536 4.076825,-3.54e-4 z"
         id="path1301" />
    </clipPath>
    <inkscape:path-effect
       effect="powerclip"
       id="path-effect1303"
       is_visible="true"
       lpeversion="1"
       inverse="true"
       flatten="false"
       hide_clip="false"
       message="Use fill-rule evenodd on &lt;b&gt;fill and stroke&lt;/b&gt; dialog if no flatten result after convert clip to paths." />
    <clipPath
       clipPathUnits="userSpaceOnUse"
       id="clipPath262">
      <circle
         style="display:none;fill:#f5f7fa"
         cx="32"
         cy="32"
         r="22"
         id="circle264" />
    </clipPath>
    <inkscape:path-effect
       effect="powerclip"
       id="path-effect266"
       is_visible="true"
       lpeversion="1"
       inverse="true"
       flatten="false"
       hide_clip="false"
       message="Use fill-rule evenodd on &lt;b&gt;fill and stroke&lt;/b&gt; dialog if no flatten result after convert clip to paths." />
    <clipPath
       clipPathUnits="userSpaceOnUse"
       id="clipPath358">
      <path
         style="display:block;fill:#b31f13"
         d="m 8.1679688,17.043051 c 0.7288921,1.473305 6.6538742,11.831288 8.0527342,14.056225 0.811058,1.290046 1.711384,2.340396 2.298828,2.682858 0.516507,0.301107 1.108215,0.324827 1.621094,0.06049 0.560144,-0.288655 1.666997,-1.564347 2.470703,-2.846756 1.317072,-2.101201 7.289196,-12.53493 7.998047,-13.952814 z"
         id="path360"
         clip-path="url(#clipPath350)" />
    </clipPath>
    <inkscape:path-effect
       effect="powerclip"
       id="path-effect362"
       is_visible="true"
       lpeversion="1"
       inverse="true"
       flatten="false"
       hide_clip="false"
       message="Use fill-rule evenodd on &lt;b&gt;fill and stroke&lt;/b&gt; dialog if no flatten result after convert clip to paths." />
    <clipPath
       clipPathUnits="userSpaceOnUse"
       id="clipPath1176">
      <path
         id="path1178"
         style="display:block;opacity:0.2"
         d="m 32.000237,14.001096 c -9.928332,0 -17.999514,8.071182 -17.999514,17.999514 0,9.928332 8.071182,17.999514 17.999514,17.999514 9.928332,0 17.999514,-8.071182 17.999514,-17.999514 0,-9.928332 -8.071182,-17.999514 -17.999514,-17.999514 z m 0,2.117543 c 8.783963,0 15.881971,7.098008 15.881971,15.881971 0,8.783963 -7.098008,15.881971 -15.881971,15.881971 -8.783763,0 -15.881971,-7.097808 -15.881971,-15.881571 0,-8.783763 7.098208,-15.881971 15.881971,-15.881971 z m 0,4.882009 c 6.627221,0 11.999676,5.372455 11.999676,11.999676 C 43.999913,39.627545 38.627458,45 32.000237,45 25.373016,45 20.000561,39.627545 20.000561,33.000324 c 0,-6.627221 5.372455,-11.999676 11.999676,-11.999676 z" />
    </clipPath>
    <inkscape:path-effect
       effect="powerclip"
       id="path-effect1180"
       is_visible="true"
       lpeversion="1"
       inverse="true"
       flatten="false"
       hide_clip="false"
       message="Use fill-rule evenodd on &lt;b&gt;fill and stroke&lt;/b&gt; dialog if no flatten result after convert clip to paths." />
    <clipPath
       clipPathUnits="userSpaceOnUse"
       id="clipPath2367">
      <path
         style="display:block;fill:#ff0000;stroke-width:0.297081;-inkscape-stroke:none;stop-color:#000000"
         d="m 22.017044,32.808377 c 0.04977,-7.433937 0.04809,-7.419922 1.15976,-9.67827 1.553797,-3.156529 4.407066,-5.378886 7.830497,-6.099028 1.278513,-0.268942 3.555355,-0.235507 4.833871,0.07099 1.211445,0.290415 2.783153,0.994294 3.838427,1.719013 0.84842,0.582661 2.341337,2.08208 2.887449,2.900022 2.263366,3.389975 2.580616,7.578822 0.84681,11.180972 -1.278994,2.65724 -3.514069,4.712044 -6.200141,5.700069 -1.86633,0.686496 -2.340112,0.724549 -9.080602,0.729317 l -6.159774,0.0043 z m 13.24436,-0.249761 c 3.10724,-1.427331 3.889543,-5.554112 1.504925,-7.938729 -3.222368,-3.222369 -8.712501,-0.708438 -8.369094,3.832207 0.156695,2.071851 1.439546,3.65425 3.522039,4.344441 0.82713,0.274132 2.484225,0.156165 3.34213,-0.237919 z"
         id="path2369" />
    </clipPath>
    <inkscape:path-effect
       effect="powerclip"
       id="path-effect2371"
       is_visible="true"
       lpeversion="1"
       inverse="true"
       flatten="false"
       hide_clip="false"
       message="Use fill-rule evenodd on &lt;b&gt;fill and stroke&lt;/b&gt; dialog if no flatten result after convert clip to paths." />
    <clipPath
       clipPathUnits="userSpaceOnUse"
       id="clipPath8">
      <path
         style="display:block;opacity:0.85;fill:#f5f7fa"
         d="m 46.820312,18.005859 c -0.852136,-0.0398 -3.253167,0.244804 -7.005859,2.855469 C 37.715081,20.228289 35.318606,19.993959 32.820312,20 c -2.285448,0.0055 -4.655418,0.192771 -6.958984,0.861328 -3.753893,-2.610525 -5.672415,-2.893714 -6.52539,-2.853516 -0.284391,0.0134 -0.421876,0.05664 -0.421876,0.05664 -1.427098,3.702095 -0.524199,6.440914 -0.253906,7.121094 C 16.983684,27.064713 16,29.464475 16,32.400391 c 0,10.307306 6.678613,12.616141 12.498047,13.294921 -0.748139,0.672081 -1.218917,2.061678 -1.457031,3.798829 -1.493057,0.68858 -5.498204,2.373814 -7.835938,-1.736329 0,0 -1.383047,-2.583643 -4.013672,-2.773437 0,0 -2.557376,-0.03303 -0.177734,1.634766 0,0 1.71789,0.827754 2.910156,3.935547 0,0 1.770575,4.730421 9.060547,3.105468 0.0073,1.262052 0.01333,3.614568 0.01953,5.890625 C 28.6249,59.840571 30.293171,60 32,60 c 2.781923,0 5.46329,-0.40752 7.996094,-1.15625 0.0075,-2.775016 0.01563,-6.052158 0.01563,-8.1875 0,-2.508329 -1.03697,-4.149893 -1.976563,-4.980469 C 43.872189,45.01032 50,42.734096 50,32.400391 c 0,-2.935916 -0.816482,-5.337651 -2.496094,-7.216797 0.268692,-0.68034 1.170535,-3.417046 -0.259765,-7.119141 0,0 -0.137824,-0.04533 -0.421875,-0.05859 z"
         id="path11" />
    </clipPath>
    <inkscape:path-effect
       effect="powerclip"
       id="path-effect13"
       is_visible="true"
       lpeversion="1"
       inverse="true"
       flatten="false"
       hide_clip="false"
       message="Use fill-rule evenodd on &lt;b&gt;fill and stroke&lt;/b&gt; dialog if no flatten result after convert clip to paths." />
    <clipPath
       clipPathUnits="userSpaceOnUse"
       id="clipPath201">
      <path
         id="path203"
         style="display:block;fill:#676767;fill-rule:evenodd"
         d="m 20.134766,11.306641 -2.828125,2.828125 5.28125,5.28125 A 5.9999999,5.9999999 0 0 0 22,22 a 5.9999999,5.9999999 0 0 0 4,5.617188 v 9.765624 A 5.9999999,5.9999999 0 0 0 22,43 a 5.9999999,5.9999999 0 0 0 6,6 5.9999999,5.9999999 0 0 0 6,-6 5.9999999,5.9999999 0 0 0 -4,-5.652344 v -9.695312 a 5.9999999,5.9999999 0 0 0 0.585938,-0.238282 l 3.001953,3.001954 A 5.9999999,5.9999999 0 0 0 33,33 a 5.9999999,5.9999999 0 0 0 6,6 5.9999999,5.9999999 0 0 0 6,-6 5.9999999,5.9999999 0 0 0 -6,-6 5.9999999,5.9999999 0 0 0 -2.583984,0.587891 L 33.414062,24.585938 A 5.9999999,5.9999999 0 0 0 34,22 5.9999999,5.9999999 0 0 0 28,16 5.9999999,5.9999999 0 0 0 25.416016,16.587891 Z" />
    </clipPath>
    <inkscape:path-effect
       effect="powerclip"
       id="path-effect205"
       is_visible="true"
       lpeversion="1"
       inverse="true"
       flatten="false"
       hide_clip="false"
       message="Use fill-rule evenodd on &lt;b&gt;fill and stroke&lt;/b&gt; dialog if no flatten result after convert clip to paths." />
    <clipPath
       clipPathUnits="userSpaceOnUse"
       id="clipPath188">
      <path
         id="path190"
         style="display:none;fill:#b343ff"
         d="m 33,12 a 3,3 0 0 0 -3,3 3,3 0 0 0 3,3 3,3 0 0 0 3,-3 3,3 0 0 0 -3,-3 z m -4,8 a 3,3 0 0 0 -3,3 3,3 0 0 0 3,3 3,3 0 0 0 3,-3 3,3 0 0 0 -3,-3 z m 6,6 a 3,3 0 0 0 -3,3 3,3 0 0 0 3,3 3,3 0 0 0 3,-3 3,3 0 0 0 -3,-3 z m -6,8 a 3,3 0 0 0 -3,3 3,3 0 0 0 3,3 3,3 0 0 0 3,-3 3,3 0 0 0 -3,-3 z m -7.613281,10 -2.638672,3.978516 C 16.621251,51.188348 19.280453,54.000008 23.535156,54 H 32 40.464844 c 4.254702,6e-6 6.913905,-2.811652 4.787109,-6.021484 L 42.613281,44 Z" />
      <path
         id="lpe_path-effect192"
         style="fill:#b343ff"
         class="powerclip"
         d="M 3.0003589,-1 H 60.999641 V 65 H 3.0003589 Z M 33,12 a 3,3 0 0 0 -3,3 3,3 0 0 0 3,3 3,3 0 0 0 3,-3 3,3 0 0 0 -3,-3 z m -4,8 a 3,3 0 0 0 -3,3 3,3 0 0 0 3,3 3,3 0 0 0 3,-3 3,3 0 0 0 -3,-3 z m 6,6 a 3,3 0 0 0 -3,3 3,3 0 0 0 3,3 3,3 0 0 0 3,-3 3,3 0 0 0 -3,-3 z m -6,8 a 3,3 0 0 0 -3,3 3,3 0 0 0 3,3 3,3 0 0 0 3,-3 3,3 0 0 0 -3,-3 z m -7.613281,10 -2.638672,3.978516 C 16.621251,51.188348 19.280453,54.000008 23.535156,54 H 32 40.464844 c 4.254702,6e-6 6.913905,-2.811652 4.787109,-6.021484 L 42.613281,44 Z" />
    </clipPath>
    <inkscape:path-effect
       effect="powerclip"
       id="path-effect192"
       is_visible="true"
       lpeversion="1"
       inverse="true"
       flatten="false"
       hide_clip="false"
       message="Use fill-rule evenodd on &lt;b&gt;fill and stroke&lt;/b&gt; dialog if no flatten result after convert clip to paths." />
  </defs>
  <circle
     cx="32.516094"
     cy="31.877844"
     r="0"
     fill="url(#b)"
     stroke-width="1.5715"
     id="circle41"
     style="fill:url(#b)" />
  <g
     aria-label="GZ"
     transform="matrix(1.2212657,0,0,0.81882264,0.4960938,-0.1661539)"
     id="text93"
     style="font-weight:bold;font-size:11.5263px;line-height:1.25;font-family:sans-serif;-inkscape-font-specification:'sans-serif Bold';fill:#f2f2f2;stroke-width:0.288159" />
  <g
     id="g877"
     transform="matrix(1.1,0,0,1.1,-3.1845928,-3.2065454)">
    <path
       d="m 18.347203,7.2464043 c -6.244452,0 -11.2714308,5.1741617 -11.2714308,11.6016437 v 26.767119 c 0,6.427394 5.0268918,11.601644 11.2714308,11.601644 h 26.005262 c 6.244452,0 11.271431,-5.174161 11.271431,-11.601644 V 18.848048 c 0,-6.427393 -5.026893,-11.6016437 -11.271431,-11.6016437 z"
       fill="url(#linearGradient910)"
       stroke-width="3.32418"
       id="path33"
       style="fill:#578376;fill-opacity:1"
       clip-path="url(#clipPath1976)"
       inkscape:path-effect="#path-effect1980"
       inkscape:original-d="m 18.347203,7.2464043 c -6.244452,0 -11.2714308,5.1741617 -11.2714308,11.6016437 v 26.767119 c 0,6.427394 5.0268918,11.601644 11.2714308,11.601644 h 26.005262 c 6.244452,0 11.271431,-5.174161 11.271431,-11.601644 V 18.848048 c 0,-6.427393 -5.026893,-11.6016437 -11.271431,-11.6016437 z"
       transform="matrix(1.1,0,0,1.1,-2.6388896,-3.3893147)" />
    <rect
       x="8.0073938"
       y="7.5283623"
       width="47.677586"
       height="49.074364"
       rx="9.5358982"
       ry="9.8152657"
       fill="url(#linearGradient862)"
       stroke-width="3.26449"
       id="rect35-7"
       style="opacity:1;fill:#f5f7fa;fill-opacity:1" />
    <rect
       x="10.391273"
       y="9.9820805"
       width="42.909828"
       height="44.166924"
       rx="8.5823088"
       ry="8.8337393"
       fill="url(#linearGradient862)"
       stroke-width="2.93805"
       id="rect35-7-3"
       style="fill:#578376;fill-opacity:1" />
  </g>
  <path
     id="rect4"
     style="fill:#f5f7fa;fill-opacity:1"
     d="M 29.599609,4 C 26.497209,4 24,6.4972094 24,9.5996094 V 26.400391 c 0,0.381712 0.03924,0.753405 0.111328,1.113281 a 9.4811476,7.7379792 0 0 0 -0.320312,0.355469 L 16.529297,38.130859 9.2695312,48.394531 A 9.4811476,7.7379792 0 0 0 17.480469,60 H 32 46.519531 A 9.4811476,7.7379792 0 0 0 54.730469,48.394531 L 47.470703,38.130859 40.210938,27.869141 A 9.4811476,7.7379792 0 0 0 39.890625,27.505859 C 39.961704,27.148405 40,26.779342 40,26.400391 V 9.5996094 C 40,6.4972094 37.502791,4 34.400391,4 Z"
     clip-path="url(#clipPath188)"
     inkscape:path-effect="#path-effect192"
     inkscape:original-d="M 29.599609,4 C 26.497209,4 24,6.4972094 24,9.5996094 V 26.400391 c 0,0.381712 0.03924,0.753405 0.111328,1.113281 a 9.4811476,7.7379792 0 0 0 -0.320312,0.355469 L 16.529297,38.130859 9.2695312,48.394531 A 9.4811476,7.7379792 0 0 0 17.480469,60 H 32 46.519531 A 9.4811476,7.7379792 0 0 0 54.730469,48.394531 L 47.470703,38.130859 40.210938,27.869141 A 9.4811476,7.7379792 0 0 0 39.890625,27.505859 C 39.961704,27.148405 40,26.779342 40,26.400391 V 9.5996094 C 40,6.4972094 37.502791,4 34.400391,4 Z"
     transform="matrix(0.63024704,0,0,0.63024704,11.543475,11.730381)" />
</svg>
