<?xml version="1.0" encoding="UTF-8" standalone="no"?>
<svg
   width="64"
   height="64"
   version="1.1"
   id="svg73"
   sodipodi:docname="fr.handbrake.ghb.svg"
   inkscape:version="1.2.2 (1:1.2.2+202212051550+b0a8486541)"
   xmlns:inkscape="http://www.inkscape.org/namespaces/inkscape"
   xmlns:sodipodi="http://sodipodi.sourceforge.net/DTD/sodipodi-0.dtd"
   xmlns="http://www.w3.org/2000/svg"
   xmlns:svg="http://www.w3.org/2000/svg"
   xmlns:rdf="http://www.w3.org/1999/02/22-rdf-syntax-ns#"
   xmlns:cc="http://creativecommons.org/ns#"
   xmlns:dc="http://purl.org/dc/elements/1.1/">
  <metadata
     id="metadata77">
    <rdf:RDF>
      <cc:Work
         rdf:about="">
        <dc:format>image/svg+xml</dc:format>
        <dc:type
           rdf:resource="http://purl.org/dc/dcmitype/StillImage" />
      </cc:Work>
    </rdf:RDF>
  </metadata>
  <sodipodi:namedview
     pagecolor="#f5f7fa"
     bordercolor="#666666"
     borderopacity="1"
     objecttolerance="10"
     gridtolerance="10"
     guidetolerance="10"
     inkscape:pageopacity="0"
     inkscape:pageshadow="2"
     inkscape:window-width="1377"
     inkscape:window-height="886"
     id="namedview75"
     showgrid="false"
     inkscape:zoom="6.2890625"
     inkscape:cx="49.371429"
     inkscape:cy="37.843478"
     inkscape:window-x="207"
     inkscape:window-y="108"
     inkscape:window-maximized="0"
     inkscape:current-layer="svg73"
     inkscape:document-rotation="0"
     inkscape:pagecheckerboard="0"
     inkscape:showpageshadow="2"
     inkscape:deskcolor="#d1d1d1" />
  <defs
     id="defs29">
    <inkscape:path-effect
       effect="powerclip"
       id="path-effect1980"
       is_visible="true"
       lpeversion="1"
       inverse="true"
       flatten="false"
       hide_clip="false"
       message="Use fill-rule evenodd on &lt;b&gt;fill and stroke&lt;/b&gt; dialog if no flatten result after convert clip to paths." />
    <linearGradient
       id="b"
       x1="399.57"
       x2="399.57"
       y1="545.8"
       y2="517.8"
       gradientTransform="matrix(2.1429,0,0,2.1429,-825.86391,-1107.6662)"
       gradientUnits="userSpaceOnUse">
      <stop
         stop-color="#3889e9"
         offset="0"
         id="stop2" />
      <stop
         stop-color="#5ea5fb"
         offset="1"
         id="stop4" />
    </linearGradient>
    <linearGradient
       id="linearGradient862"
       x1="7.9373"
       x2="7.9373"
       y1="15.081"
       y2="1.852"
       gradientTransform="matrix(3.3743 0 0 3.3743 3.4312 3.4278)"
       gradientUnits="userSpaceOnUse">
      <stop
         stop-color="#f1efeb"
         offset="0"
         id="stop7" />
      <stop
         stop-color="#fff"
         offset="1"
         id="stop9" />
    </linearGradient>
    <linearGradient
       id="linearGradient910"
       x1="7.9373"
       x2="7.9373"
       y1="15.081"
       y2="1.852"
       gradientTransform="scale(3.7796)"
       gradientUnits="userSpaceOnUse">
      <stop
         stop-color="#613583"
         offset="0"
         id="stop12" />
      <stop
         stop-color="#a663c0"
         offset="1"
         id="stop14" />
    </linearGradient>
    <linearGradient
       id="linearGradient932"
       x1="379.24"
       x2="374.24"
       y1="546.85"
       y2="546.85"
       gradientTransform="matrix(2.1429 0 0 2.1429 -769.68 -1134.5)"
       gradientUnits="userSpaceOnUse">
      <stop
         stop-color="#f6f5f4"
         offset="0"
         id="stop17" />
      <stop
         stop-color="#fff"
         offset=".6"
         id="stop19" />
      <stop
         stop-color="#dddbd8"
         offset="1"
         id="stop21" />
    </linearGradient>
    <linearGradient
       id="linearGradient1146"
       x1="18"
       x2="18"
       y1="52"
       y2="12"
       gradientUnits="userSpaceOnUse">
      <stop
         stop-color="#5e337f"
         offset="0"
         id="stop24" />
      <stop
         stop-color="#ab60bf"
         offset="1"
         id="stop26" />
    </linearGradient>
    <clipPath
       clipPathUnits="userSpaceOnUse"
       id="clipPath1976">
      <rect
         x="9.6784649"
         y="9.925169"
         width="43.343258"
         height="44.613056"
         rx="8.6689987"
         ry="8.9229689"
         fill="url(#linearGradient862)"
         stroke-width="2.96772"
         id="rect1978"
         style="display:none;fill:#333333;fill-opacity:1"
         d="m 18.347464,9.925169 h 26.00526 c 4.802625,0 8.668999,3.979644 8.668999,8.922969 v 26.767118 c 0,4.943325 -3.866374,8.922969 -8.668999,8.922969 h -26.00526 c -4.802626,0 -8.6689991,-3.979644 -8.6689991,-8.922969 V 18.848138 c 0,-4.943325 3.8663731,-8.922969 8.6689991,-8.922969 z" />
      <path
         id="lpe_path-effect1980"
         style="fill:#333333;fill-opacity:1"
         class="powerclip"
         d="M 2.0757722,2.2464043 H 60.623896 V 62.216811 H 2.0757722 Z M 18.347464,9.925169 c -4.802626,0 -8.6689991,3.979644 -8.6689991,8.922969 v 26.767118 c 0,4.943325 3.8663731,8.922969 8.6689991,8.922969 h 26.00526 c 4.802625,0 8.668999,-3.979644 8.668999,-8.922969 V 18.848138 c 0,-4.943325 -3.866374,-8.922969 -8.668999,-8.922969 z" />
    </clipPath>
    <filter
       style="color-interpolation-filters:sRGB;"
       inkscape:label="Drop Shadow"
       id="filter663"
       x="-0.098870968"
       y="-0.096056853"
       width="1.2389382"
       height="1.2321374">
      <feFlood
         flood-opacity="0.301961"
         flood-color="rgb(0,0,0)"
         result="flood"
         id="feFlood653" />
      <feComposite
         in="flood"
         in2="SourceGraphic"
         operator="in"
         result="composite1"
         id="feComposite655" />
      <feGaussianBlur
         in="composite1"
         stdDeviation="2"
         result="blur"
         id="feGaussianBlur657" />
      <feOffset
         dx="2"
         dy="2"
         result="offset"
         id="feOffset659" />
      <feComposite
         in="SourceGraphic"
         in2="offset"
         operator="over"
         result="composite2"
         id="feComposite661" />
    </filter>
    <clipPath
       clipPathUnits="userSpaceOnUse"
       id="clipPath38">
      <rect
         x="0.97311002"
         y="4.6963"
         width="14.987"
         height="9.9216995"
         ry="0.29919001"
         fill="#fffffc"
         id="rect40"
         style="display:block;opacity:0.85;fill:#f2f2f2;stroke-width:0.999999" />
    </clipPath>
    <inkscape:path-effect
       effect="powerclip"
       id="path-effect42"
       is_visible="true"
       lpeversion="1"
       inverse="true"
       flatten="false"
       hide_clip="false"
       message="Use fill-rule evenodd on &lt;b&gt;fill and stroke&lt;/b&gt; dialog if no flatten result after convert clip to paths." />
    <clipPath
       clipPathUnits="userSpaceOnUse"
       id="clipPath30">
      <path
         id="path32"
         style="color:#000000;display:block;opacity:0.85;fill:#f5f7fa;stroke-linecap:round;-inkscape-stroke:none"
         d="m 27.902344,19.023438 c -5.140587,0.01596 -9.820748,0.752518 -13.330078,2.15625 a 2.5,2.5 0 0 0 -1.392578,3.248046 2.5,2.5 0 0 0 3.248046,1.392578 c 3.180816,-1.272325 8.839301,-2.056673 14.796875,-1.699218 5.957575,0.357454 12.260098,1.820223 17.035157,4.548828 a 2.5,2.5 0 0 0 3.410156,-0.929688 2.5,2.5 0 0 0 -0.929688,-3.410156 c -5.72493,-3.271389 -12.67243,-4.808627 -19.214843,-5.201172 -1.226703,-0.0736 -2.436758,-0.109153 -3.623047,-0.105468 z m -1.240235,9.966796 c -1.05657,-0.0087 -2.093217,0.01082 -3.097656,0.05859 -2.678505,0.127409 -5.127438,0.45996 -7.113281,1.027344 a 2,2 0 0 0 -1.375,2.472656 2,2 0 0 0 2.472656,1.375 c 3.028306,-0.86523 8.701737,-1.165792 14.148438,-0.68164 5.4467,0.484152 10.812065,1.834345 13.193359,3.421874 a 2,2 0 0 0 2.773437,-0.554687 2,2 0 0 0 -0.554687,-2.773437 C 43.490675,30.923467 37.856023,29.773657 32.052734,29.257808 30.239207,29.096607 28.42306,29.004783 26.662109,28.99023 Z m 0.917969,8.988282 c -3.813243,-0.0048 -7.379665,0.410834 -10.064453,1.082031 a 2,2 0 0 0 -1.455078,2.423828 2,2 0 0 0 2.423828,1.455078 c 5.391278,-1.347819 17.438862,-1.241506 23.621094,1.849609 a 2,2 0 0 0 2.683593,-0.894531 2,2 0 0 0 -0.894531,-2.683593 c -3.908877,-1.954439 -8.851018,-2.904387 -13.642578,-3.160157 -0.898417,-0.04796 -1.791896,-0.07116 -2.671875,-0.07227 z" />
    </clipPath>
    <inkscape:path-effect
       effect="powerclip"
       id="path-effect34"
       is_visible="true"
       lpeversion="1"
       inverse="true"
       flatten="false"
       hide_clip="false"
       message="Use fill-rule evenodd on &lt;b&gt;fill and stroke&lt;/b&gt; dialog if no flatten result after convert clip to paths." />
    <clipPath
       clipPathUnits="userSpaceOnUse"
       id="clipPath1299">
      <path
         style="color:#000000;display:block;opacity:0.85;fill:#f5f7fa;-inkscape-stroke:none"
         d="m 24.149464,39.847234 c 1.129182,1.129183 1.129024,2.947446 -3.54e-4,4.076824 L 11.920405,56.152763 c -1.129378,1.129378 -2.9476414,1.129536 -4.0768237,3.54e-4 -1.1291824,-1.129183 -1.1290247,-2.947446 3.535e-4,-4.076825 L 20.072639,39.847588 c 1.129379,-1.129378 2.947642,-1.129536 4.076825,-3.54e-4 z"
         id="path1301" />
    </clipPath>
    <inkscape:path-effect
       effect="powerclip"
       id="path-effect1303"
       is_visible="true"
       lpeversion="1"
       inverse="true"
       flatten="false"
       hide_clip="false"
       message="Use fill-rule evenodd on &lt;b&gt;fill and stroke&lt;/b&gt; dialog if no flatten result after convert clip to paths." />
    <clipPath
       clipPathUnits="userSpaceOnUse"
       id="clipPath262">
      <circle
         style="display:none;fill:#f5f7fa"
         cx="32"
         cy="32"
         r="22"
         id="circle264" />
    </clipPath>
    <inkscape:path-effect
       effect="powerclip"
       id="path-effect266"
       is_visible="true"
       lpeversion="1"
       inverse="true"
       flatten="false"
       hide_clip="false"
       message="Use fill-rule evenodd on &lt;b&gt;fill and stroke&lt;/b&gt; dialog if no flatten result after convert clip to paths." />
    <clipPath
       clipPathUnits="userSpaceOnUse"
       id="clipPath358">
      <path
         style="display:block;fill:#b31f13"
         d="m 8.1679688,17.043051 c 0.7288921,1.473305 6.6538742,11.831288 8.0527342,14.056225 0.811058,1.290046 1.711384,2.340396 2.298828,2.682858 0.516507,0.301107 1.108215,0.324827 1.621094,0.06049 0.560144,-0.288655 1.666997,-1.564347 2.470703,-2.846756 1.317072,-2.101201 7.289196,-12.53493 7.998047,-13.952814 z"
         id="path360"
         clip-path="url(#clipPath350)" />
    </clipPath>
    <inkscape:path-effect
       effect="powerclip"
       id="path-effect362"
       is_visible="true"
       lpeversion="1"
       inverse="true"
       flatten="false"
       hide_clip="false"
       message="Use fill-rule evenodd on &lt;b&gt;fill and stroke&lt;/b&gt; dialog if no flatten result after convert clip to paths." />
    <clipPath
       clipPathUnits="userSpaceOnUse"
       id="clipPath1176">
      <path
         id="path1178"
         style="display:block;opacity:0.2"
         d="m 32.000237,14.001096 c -9.928332,0 -17.999514,8.071182 -17.999514,17.999514 0,9.928332 8.071182,17.999514 17.999514,17.999514 9.928332,0 17.999514,-8.071182 17.999514,-17.999514 0,-9.928332 -8.071182,-17.999514 -17.999514,-17.999514 z m 0,2.117543 c 8.783963,0 15.881971,7.098008 15.881971,15.881971 0,8.783963 -7.098008,15.881971 -15.881971,15.881971 -8.783763,0 -15.881971,-7.097808 -15.881971,-15.881571 0,-8.783763 7.098208,-15.881971 15.881971,-15.881971 z m 0,4.882009 c 6.627221,0 11.999676,5.372455 11.999676,11.999676 C 43.999913,39.627545 38.627458,45 32.000237,45 25.373016,45 20.000561,39.627545 20.000561,33.000324 c 0,-6.627221 5.372455,-11.999676 11.999676,-11.999676 z" />
    </clipPath>
    <inkscape:path-effect
       effect="powerclip"
       id="path-effect1180"
       is_visible="true"
       lpeversion="1"
       inverse="true"
       flatten="false"
       hide_clip="false"
       message="Use fill-rule evenodd on &lt;b&gt;fill and stroke&lt;/b&gt; dialog if no flatten result after convert clip to paths." />
    <clipPath
       clipPathUnits="userSpaceOnUse"
       id="clipPath2367">
      <path
         style="display:block;fill:#ff0000;stroke-width:0.297081;-inkscape-stroke:none;stop-color:#000000"
         d="m 22.017044,32.808377 c 0.04977,-7.433937 0.04809,-7.419922 1.15976,-9.67827 1.553797,-3.156529 4.407066,-5.378886 7.830497,-6.099028 1.278513,-0.268942 3.555355,-0.235507 4.833871,0.07099 1.211445,0.290415 2.783153,0.994294 3.838427,1.719013 0.84842,0.582661 2.341337,2.08208 2.887449,2.900022 2.263366,3.389975 2.580616,7.578822 0.84681,11.180972 -1.278994,2.65724 -3.514069,4.712044 -6.200141,5.700069 -1.86633,0.686496 -2.340112,0.724549 -9.080602,0.729317 l -6.159774,0.0043 z m 13.24436,-0.249761 c 3.10724,-1.427331 3.889543,-5.554112 1.504925,-7.938729 -3.222368,-3.222369 -8.712501,-0.708438 -8.369094,3.832207 0.156695,2.071851 1.439546,3.65425 3.522039,4.344441 0.82713,0.274132 2.484225,0.156165 3.34213,-0.237919 z"
         id="path2369" />
    </clipPath>
    <inkscape:path-effect
       effect="powerclip"
       id="path-effect2371"
       is_visible="true"
       lpeversion="1"
       inverse="true"
       flatten="false"
       hide_clip="false"
       message="Use fill-rule evenodd on &lt;b&gt;fill and stroke&lt;/b&gt; dialog if no flatten result after convert clip to paths." />
  </defs>
  <circle
     cx="32.516094"
     cy="31.877844"
     r="0"
     fill="url(#b)"
     stroke-width="1.5715"
     id="circle41"
     style="fill:url(#b)" />
  <g
     aria-label="GZ"
     transform="matrix(1.2212657,0,0,0.81882264,0.4960938,-0.1661539)"
     id="text93"
     style="font-weight:bold;font-size:11.5263px;line-height:1.25;font-family:sans-serif;-inkscape-font-specification:'sans-serif Bold';fill:#f2f2f2;stroke-width:0.288159" />
  <g
     id="g877"
     transform="matrix(1.1,0,0,1.1,-3.1845928,-3.2065454)">
    <path
       d="m 18.347203,7.2464043 c -6.244452,0 -11.2714308,5.1741617 -11.2714308,11.6016437 v 26.767119 c 0,6.427394 5.0268918,11.601644 11.2714308,11.601644 h 26.005262 c 6.244452,0 11.271431,-5.174161 11.271431,-11.601644 V 18.848048 c 0,-6.427393 -5.026893,-11.6016437 -11.271431,-11.6016437 z"
       fill="url(#linearGradient910)"
       stroke-width="3.32418"
       id="path33"
       style="fill:#578376;fill-opacity:1"
       clip-path="url(#clipPath1976)"
       inkscape:path-effect="#path-effect1980"
       inkscape:original-d="m 18.347203,7.2464043 c -6.244452,0 -11.2714308,5.1741617 -11.2714308,11.6016437 v 26.767119 c 0,6.427394 5.0268918,11.601644 11.2714308,11.601644 h 26.005262 c 6.244452,0 11.271431,-5.174161 11.271431,-11.601644 V 18.848048 c 0,-6.427393 -5.026893,-11.6016437 -11.271431,-11.6016437 z"
       transform="matrix(1.1,0,0,1.1,-2.6388896,-3.3893147)" />
    <rect
       x="8.0073938"
       y="7.5283623"
       width="47.677586"
       height="49.074364"
       rx="9.5358982"
       ry="9.8152657"
       fill="url(#linearGradient862)"
       stroke-width="3.26449"
       id="rect35-7"
       style="opacity:1;fill:#f5f7fa;fill-opacity:1" />
    <rect
       x="10.391273"
       y="9.9820805"
       width="42.909828"
       height="44.166924"
       rx="8.5823088"
       ry="8.8337393"
       fill="url(#linearGradient862)"
       stroke-width="2.93805"
       id="rect35-7-3"
       style="fill:#578376;fill-opacity:1" />
  </g>
  <path
     style="fill:#f5f7fa;fill-opacity:1;stroke:none;stroke-width:0.0603603"
     d="m 30.081008,46.200128 c -3.731989,-0.461139 -6.998711,-1.862931 -9.687838,-4.157179 -0.535782,-0.457104 -1.682119,-1.598873 -2.107787,-2.099382 -2.119855,-2.49258 -3.611042,-5.717276 -4.163844,-9.004327 -0.193324,-1.149541 -0.257531,-1.964333 -0.256851,-3.259459 8.35e-4,-1.578926 0.136962,-2.730624 0.536894,-4.542117 0.02985,-0.135173 0.03552,-0.135811 1.207015,-0.135811 h 1.177029 l -0.03875,0.135811 c -1.311943,4.598846 -0.520253,9.787948 2.101964,13.777252 1.161759,1.767436 2.761527,3.371029 4.50198,4.512739 1.278419,0.838625 3.029641,1.613722 4.591315,2.032132 l 0.660037,0.176843 -3.83e-4,-1.218064 -3.83e-4,-1.218064 -0.889934,-0.286834 c -3.438463,-1.10825 -6.23406,-3.572103 -7.793609,-6.868776 -1.003019,-2.120242 -1.453217,-4.336619 -1.378732,-6.787633 0.105681,-3.47757 1.349811,-6.32342 3.89882,-8.918245 l 0.756005,-0.769593 h 1.992599 1.9926 l -0.558213,0.31955 c -3.26747,1.870479 -5.317828,4.86228 -5.748338,8.387751 -0.09553,0.782282 -0.04256,2.908282 0.09059,3.636391 0.533387,2.916599 1.840235,5.25234 3.866452,6.910542 0.439908,0.36001 1.334866,0.966485 1.426214,0.966485 0.02893,0 0.05261,-0.366687 0.05261,-0.814863 0,-0.652975 -0.01656,-0.814866 -0.08338,-0.814866 -0.04585,0 -0.169227,-0.0878 -0.274149,-0.195125 -0.564711,-0.577599 -0.549903,-2.188824 0.02476,-2.693378 0.110194,-0.09675 0.225463,-0.185846 0.256152,-0.197986 0.05659,-0.02237 -0.153872,-1.665082 -0.288043,-2.248353 -0.183693,-0.798554 -0.550717,-1.320877 -1.531852,-2.180024 -0.380599,-0.333274 -0.453514,-0.513359 -0.456097,-1.126445 -0.005,-1.170758 0.671584,-2.802153 1.944747,-4.689685 0.533088,-0.79033 2.220825,-3.028332 2.65719,-3.523531 0.731486,-0.830116 1.553574,-1.407474 2.333928,-1.639136 0.426997,-0.126762 1.271217,-0.12679 1.698361,-5.5e-5 0.888122,0.263505 1.690785,0.878853 2.588904,1.984745 0.375187,0.461982 2.006195,2.679688 2.397468,3.259873 1.21351,1.799402 1.893974,3.459124 1.889134,4.607789 -0.0026,0.613216 -0.07547,0.793164 -0.456278,1.126445 -0.965448,0.844972 -1.350699,1.393296 -1.531673,2.180024 -0.134169,0.583271 -0.344622,2.225976 -0.288041,2.248353 0.03068,0.01214 0.145957,0.101232 0.256153,0.197986 0.249292,0.218882 0.389872,0.60824 0.433775,1.201416 0.05365,0.724815 -0.218906,1.469912 -0.600558,1.641799 l -0.165993,0.07475 v 0.80013 c 0,0.440071 0.02296,0.80013 0.051,0.80013 0.02804,0 0.224976,-0.112094 0.437613,-0.249101 2.72081,-1.75306 4.448782,-4.601159 4.914613,-8.100429 0.128728,-0.966998 0.09891,-2.975782 -0.05639,-3.798702 -0.623227,-3.30238 -2.591936,-5.994677 -5.676283,-7.762564 l -0.540722,-0.309924 h 1.992339 1.992342 l 0.756008,0.769594 c 1.74655,1.777947 2.877963,3.681287 3.458361,5.8179 0.728544,2.68198 0.567334,5.994042 -0.421904,8.668035 -1.4553,3.933801 -4.443625,6.842559 -8.309982,8.088721 l -0.889931,0.286832 -3.63e-4,1.218065 -3.62e-4,1.218063 0.65163,-0.174588 c 1.095685,-0.293562 1.867926,-0.585889 2.939812,-1.112844 1.643501,-0.807971 2.871449,-1.681984 4.126737,-2.937273 2.815619,-2.815618 4.432202,-6.480458 4.72493,-10.711545 0.121793,-1.760412 -0.0989,-3.848879 -0.587815,-5.562716 l -0.03875,-0.13581 h 1.177031 c 1.171499,0 1.17717,6.39e-4 1.207012,0.13581 0.399195,1.808145 0.534869,2.959331 0.535318,4.542119 4.83e-4,1.71264 -0.17415,3.186141 -0.557995,4.708108 -1.441803,5.716816 -5.434672,10.388956 -10.728373,12.553485 -1.638743,0.670062 -3.616622,1.155999 -5.188017,1.274625 l -0.555264,0.04191 v -3.871725 -3.871724 h -0.814855 -0.814865 v 3.863064 3.863062 l -0.316891,-0.009 c -0.17429,-0.005 -0.398378,-0.01912 -0.497973,-0.03142 z M 28.721701,36.084962 c 0.421502,-0.215351 0.624762,-0.51787 0.65374,-0.972986 0.01901,-0.298476 -0.0025,-0.432312 -0.100265,-0.623946 -0.457243,-0.896273 -1.673436,-0.896273 -2.13068,0 -0.187477,0.367484 -0.139718,0.92393 0.105791,1.232524 0.227838,0.286389 0.638018,0.500217 0.959548,0.500217 0.136154,0 0.364766,-0.06065 0.511866,-0.135809 z m 7.001801,0 c 0.421502,-0.215351 0.624763,-0.51787 0.653742,-0.972986 0.02804,-0.440352 -0.101844,-0.764509 -0.41033,-1.024084 -0.184007,-0.154832 -0.522916,-0.280862 -0.755276,-0.280862 -0.641339,0 -1.177027,0.54912 -1.177027,1.206534 0,0.895655 0.906855,1.470944 1.688891,1.071398 z"
     id="path14975" />
</svg>
