<?xml version="1.0" encoding="UTF-8" standalone="no"?>
<svg
   width="64"
   height="64"
   version="1.1"
   id="svg73"
   sodipodi:docname="org.gnome.FontManager.svg"
   inkscape:version="1.2.2 (1:1.2.2+202212051550+b0a8486541)"
   xmlns:inkscape="http://www.inkscape.org/namespaces/inkscape"
   xmlns:sodipodi="http://sodipodi.sourceforge.net/DTD/sodipodi-0.dtd"
   xmlns="http://www.w3.org/2000/svg"
   xmlns:svg="http://www.w3.org/2000/svg"
   xmlns:rdf="http://www.w3.org/1999/02/22-rdf-syntax-ns#"
   xmlns:cc="http://creativecommons.org/ns#"
   xmlns:dc="http://purl.org/dc/elements/1.1/">
  <metadata
     id="metadata77">
    <rdf:RDF>
      <cc:Work
         rdf:about="">
        <dc:format>image/svg+xml</dc:format>
        <dc:type
           rdf:resource="http://purl.org/dc/dcmitype/StillImage" />
      </cc:Work>
    </rdf:RDF>
  </metadata>
  <sodipodi:namedview
     pagecolor="#ffffff"
     bordercolor="#666666"
     borderopacity="1"
     objecttolerance="10"
     gridtolerance="10"
     guidetolerance="10"
     inkscape:pageopacity="0"
     inkscape:pageshadow="2"
     inkscape:window-width="1378"
     inkscape:window-height="886"
     id="namedview75"
     showgrid="false"
     inkscape:zoom="6.2890625"
     inkscape:cx="-2.8621118"
     inkscape:cy="38.479503"
     inkscape:window-x="272"
     inkscape:window-y="64"
     inkscape:window-maximized="0"
     inkscape:current-layer="svg73"
     inkscape:document-rotation="0"
     inkscape:pagecheckerboard="0"
     inkscape:showpageshadow="2"
     inkscape:deskcolor="#d1d1d1" />
  <defs
     id="defs29">
    <inkscape:path-effect
       effect="powerclip"
       id="path-effect1980"
       is_visible="true"
       lpeversion="1"
       inverse="true"
       flatten="false"
       hide_clip="false"
       message="Use fill-rule evenodd on &lt;b&gt;fill and stroke&lt;/b&gt; dialog if no flatten result after convert clip to paths." />
    <linearGradient
       id="b"
       x1="399.57"
       x2="399.57"
       y1="545.8"
       y2="517.8"
       gradientTransform="matrix(2.1429,0,0,2.1429,-825.86391,-1107.6662)"
       gradientUnits="userSpaceOnUse">
      <stop
         stop-color="#3889e9"
         offset="0"
         id="stop2" />
      <stop
         stop-color="#5ea5fb"
         offset="1"
         id="stop4" />
    </linearGradient>
    <linearGradient
       id="linearGradient862"
       x1="7.9373"
       x2="7.9373"
       y1="15.081"
       y2="1.852"
       gradientTransform="matrix(3.3743 0 0 3.3743 3.4312 3.4278)"
       gradientUnits="userSpaceOnUse">
      <stop
         stop-color="#f1efeb"
         offset="0"
         id="stop7" />
      <stop
         stop-color="#fff"
         offset="1"
         id="stop9" />
    </linearGradient>
    <linearGradient
       id="linearGradient910"
       x1="7.9373"
       x2="7.9373"
       y1="15.081"
       y2="1.852"
       gradientTransform="scale(3.7796)"
       gradientUnits="userSpaceOnUse">
      <stop
         stop-color="#613583"
         offset="0"
         id="stop12" />
      <stop
         stop-color="#a663c0"
         offset="1"
         id="stop14" />
    </linearGradient>
    <linearGradient
       id="linearGradient932"
       x1="379.24"
       x2="374.24"
       y1="546.85"
       y2="546.85"
       gradientTransform="matrix(2.1429 0 0 2.1429 -769.68 -1134.5)"
       gradientUnits="userSpaceOnUse">
      <stop
         stop-color="#f6f5f4"
         offset="0"
         id="stop17" />
      <stop
         stop-color="#fff"
         offset=".6"
         id="stop19" />
      <stop
         stop-color="#dddbd8"
         offset="1"
         id="stop21" />
    </linearGradient>
    <linearGradient
       id="linearGradient1146"
       x1="18"
       x2="18"
       y1="52"
       y2="12"
       gradientUnits="userSpaceOnUse">
      <stop
         stop-color="#5e337f"
         offset="0"
         id="stop24" />
      <stop
         stop-color="#ab60bf"
         offset="1"
         id="stop26" />
    </linearGradient>
    <clipPath
       clipPathUnits="userSpaceOnUse"
       id="clipPath1976">
      <rect
         x="9.6784649"
         y="9.925169"
         width="43.343258"
         height="44.613056"
         rx="8.6689987"
         ry="8.9229689"
         fill="url(#linearGradient862)"
         stroke-width="2.96772"
         id="rect1978"
         style="display:none;fill:#333333;fill-opacity:1"
         d="m 18.347464,9.925169 h 26.00526 c 4.802625,0 8.668999,3.979644 8.668999,8.922969 v 26.767118 c 0,4.943325 -3.866374,8.922969 -8.668999,8.922969 h -26.00526 c -4.802626,0 -8.6689991,-3.979644 -8.6689991,-8.922969 V 18.848138 c 0,-4.943325 3.8663731,-8.922969 8.6689991,-8.922969 z" />
      <path
         id="lpe_path-effect1980"
         style="fill:#333333;fill-opacity:1"
         class="powerclip"
         d="M 2.0757722,2.2464043 H 60.623896 V 62.216811 H 2.0757722 Z M 18.347464,9.925169 c -4.802626,0 -8.6689991,3.979644 -8.6689991,8.922969 v 26.767118 c 0,4.943325 3.8663731,8.922969 8.6689991,8.922969 h 26.00526 c 4.802625,0 8.668999,-3.979644 8.668999,-8.922969 V 18.848138 c 0,-4.943325 -3.866374,-8.922969 -8.668999,-8.922969 z" />
    </clipPath>
    <filter
       style="color-interpolation-filters:sRGB;"
       inkscape:label="Drop Shadow"
       id="filter663"
       x="-0.098870968"
       y="-0.096056853"
       width="1.2389382"
       height="1.2321374">
      <feFlood
         flood-opacity="0.301961"
         flood-color="rgb(0,0,0)"
         result="flood"
         id="feFlood653" />
      <feComposite
         in="flood"
         in2="SourceGraphic"
         operator="in"
         result="composite1"
         id="feComposite655" />
      <feGaussianBlur
         in="composite1"
         stdDeviation="2"
         result="blur"
         id="feGaussianBlur657" />
      <feOffset
         dx="2"
         dy="2"
         result="offset"
         id="feOffset659" />
      <feComposite
         in="SourceGraphic"
         in2="offset"
         operator="over"
         result="composite2"
         id="feComposite661" />
    </filter>
    <clipPath
       clipPathUnits="userSpaceOnUse"
       id="clipPath38">
      <rect
         x="0.97311002"
         y="4.6963"
         width="14.987"
         height="9.9216995"
         ry="0.29919001"
         fill="#fffffc"
         id="rect40"
         style="display:block;opacity:0.85;fill:#f2f2f2;stroke-width:0.999999" />
    </clipPath>
    <inkscape:path-effect
       effect="powerclip"
       id="path-effect42"
       is_visible="true"
       lpeversion="1"
       inverse="true"
       flatten="false"
       hide_clip="false"
       message="Use fill-rule evenodd on &lt;b&gt;fill and stroke&lt;/b&gt; dialog if no flatten result after convert clip to paths." />
    <clipPath
       clipPathUnits="userSpaceOnUse"
       id="clipPath30">
      <path
         id="path32"
         style="color:#000000;display:block;opacity:0.85;fill:#ffffff;stroke-linecap:round;-inkscape-stroke:none"
         d="m 27.902344,19.023438 c -5.140587,0.01596 -9.820748,0.752518 -13.330078,2.15625 a 2.5,2.5 0 0 0 -1.392578,3.248046 2.5,2.5 0 0 0 3.248046,1.392578 c 3.180816,-1.272325 8.839301,-2.056673 14.796875,-1.699218 5.957575,0.357454 12.260098,1.820223 17.035157,4.548828 a 2.5,2.5 0 0 0 3.410156,-0.929688 2.5,2.5 0 0 0 -0.929688,-3.410156 c -5.72493,-3.271389 -12.67243,-4.808627 -19.214843,-5.201172 -1.226703,-0.0736 -2.436758,-0.109153 -3.623047,-0.105468 z m -1.240235,9.966796 c -1.05657,-0.0087 -2.093217,0.01082 -3.097656,0.05859 -2.678505,0.127409 -5.127438,0.45996 -7.113281,1.027344 a 2,2 0 0 0 -1.375,2.472656 2,2 0 0 0 2.472656,1.375 c 3.028306,-0.86523 8.701737,-1.165792 14.148438,-0.68164 5.4467,0.484152 10.812065,1.834345 13.193359,3.421874 a 2,2 0 0 0 2.773437,-0.554687 2,2 0 0 0 -0.554687,-2.773437 C 43.490675,30.923467 37.856023,29.773657 32.052734,29.257808 30.239207,29.096607 28.42306,29.004783 26.662109,28.99023 Z m 0.917969,8.988282 c -3.813243,-0.0048 -7.379665,0.410834 -10.064453,1.082031 a 2,2 0 0 0 -1.455078,2.423828 2,2 0 0 0 2.423828,1.455078 c 5.391278,-1.347819 17.438862,-1.241506 23.621094,1.849609 a 2,2 0 0 0 2.683593,-0.894531 2,2 0 0 0 -0.894531,-2.683593 c -3.908877,-1.954439 -8.851018,-2.904387 -13.642578,-3.160157 -0.898417,-0.04796 -1.791896,-0.07116 -2.671875,-0.07227 z" />
    </clipPath>
    <inkscape:path-effect
       effect="powerclip"
       id="path-effect34"
       is_visible="true"
       lpeversion="1"
       inverse="true"
       flatten="false"
       hide_clip="false"
       message="Use fill-rule evenodd on &lt;b&gt;fill and stroke&lt;/b&gt; dialog if no flatten result after convert clip to paths." />
    <clipPath
       clipPathUnits="userSpaceOnUse"
       id="clipPath1299">
      <path
         style="color:#000000;display:block;opacity:0.85;fill:#ffffff;-inkscape-stroke:none"
         d="m 24.149464,39.847234 c 1.129182,1.129183 1.129024,2.947446 -3.54e-4,4.076824 L 11.920405,56.152763 c -1.129378,1.129378 -2.9476414,1.129536 -4.0768237,3.54e-4 -1.1291824,-1.129183 -1.1290247,-2.947446 3.535e-4,-4.076825 L 20.072639,39.847588 c 1.129379,-1.129378 2.947642,-1.129536 4.076825,-3.54e-4 z"
         id="path1301" />
    </clipPath>
    <inkscape:path-effect
       effect="powerclip"
       id="path-effect1303"
       is_visible="true"
       lpeversion="1"
       inverse="true"
       flatten="false"
       hide_clip="false"
       message="Use fill-rule evenodd on &lt;b&gt;fill and stroke&lt;/b&gt; dialog if no flatten result after convert clip to paths." />
    <clipPath
       clipPathUnits="userSpaceOnUse"
       id="clipPath65">
      <rect
         style="display:block;fill:#29292a;stroke-width:1.04339"
         width="39.68671"
         height="39.611187"
         x="20.884548"
         y="-42.184746"
         rx="3.1331613"
         ry="3.1271992"
         id="rect67" />
    </clipPath>
    <inkscape:path-effect
       effect="powerclip"
       id="path-effect69"
       is_visible="true"
       lpeversion="1"
       inverse="true"
       flatten="false"
       hide_clip="false"
       message="Use fill-rule evenodd on &lt;b&gt;fill and stroke&lt;/b&gt; dialog if no flatten result after convert clip to paths." />
    <clipPath
       clipPathUnits="userSpaceOnUse"
       id="clipPath710">
      <path
         style="display:block;opacity:0.85;fill:#f2f2f2;stroke-width:1.04339"
         d="m 45.7849,-22.241466 c 2.3e-5,2.293486 0.255623,3.882312 0.766851,4.766894 0.511247,0.884476 1.696159,1.326704 2.929224,1.326704 0.982372,0 1.764262,-0.329106 2.345692,-0.98732 0.571384,-0.66847 0.857066,-1.573502 0.857066,-2.715035 0,-1.573501 -0.541306,-2.833241 -1.623895,-3.779532 -1.092639,-0.956423 -2.854029,-1.225883 -4.658312,-1.225903 h -0.616481 v 2.614254 m -1.142559,-5.662315 h 10.357593 v 3.127136 h -2.992858 c 1.0235,0.646288 1.779635,1.166507 2.270497,2.13177 0.482507,0.967347 0.722718,2.149428 0.722718,3.548329 0,1.769995 -0.480421,3.177235 -1.443345,4.227972 -0.973367,1.038231 -2.270496,1.557346 -3.893474,1.557346 -1.894561,0 -3.635854,-0.647914 -4.598154,-1.943762 -0.962299,-1.306128 -1.511183,-3.25067 -1.443468,-5.831185 v -3.771318 H 43.35133 c -1.273044,2.3e-5 -1.942633,0.431949 -2.634223,1.295827 -1.565798,2.649865 -1.238485,6.616259 0.01797,9.209019 h -2.243416 c -0.390935,-1.038732 -0.681609,-2.270202 -0.872104,-3.247201 -0.200461,-0.97702 -0.3007,-1.928334 -0.300721,-2.853881 2.1e-5,-2.49905 0.63154,-4.36578 1.89456,-5.599771 1.263059,-1.234118 2.864825,-1.851177 5.431094,-1.851198 m -14.710013,9.562975 5.222247,-4.350351 v 2.360202 l -5.221622,5.028533 v -3.039011"
         id="path712" />
    </clipPath>
    <inkscape:path-effect
       effect="powerclip"
       id="path-effect714"
       is_visible="true"
       lpeversion="1"
       inverse="true"
       flatten="false"
       hide_clip="false"
       message="Use fill-rule evenodd on &lt;b&gt;fill and stroke&lt;/b&gt; dialog if no flatten result after convert clip to paths." />
    <clipPath
       clipPathUnits="userSpaceOnUse"
       id="clipath_lpe_path-effect15-5">
      <path
         style="display:block;fill:#ffffff"
         d="M 32.000002,9.9999998 C 19.861159,9.9999998 10,19.861158 10,31.999998 10,44.13884 19.861159,54.000002 32.000002,54 44.138842,54 54.000008,44.13884 54,31.999998 54,19.861158 44.138842,9.9999998 32.000002,9.9999998 Z"
         id="path8108" />
    </clipPath>
    <inkscape:path-effect
       effect="powerclip"
       id="path-effect15-5"
       is_visible="true"
       lpeversion="1"
       inverse="true"
       flatten="false"
       hide_clip="false"
       message="Use fill-rule evenodd on &lt;b&gt;fill and stroke&lt;/b&gt; dialog if no flatten result after convert clip to paths." />
    <clipPath
       clipPathUnits="userSpaceOnUse"
       id="clipath_lpe_path-effect85-3">
      <path
         style="display:block;fill:#ffffff"
         d="m 32,30 c -1.10353,0 -2,0.89647 -2,2 0,1.10353 0.89647,2 2,2 1.10353,0 2,-0.89647 2,-2 0,-1.10353 -0.89647,-2 -2,-2 z"
         id="path8113" />
    </clipPath>
    <inkscape:path-effect
       effect="powerclip"
       id="path-effect85-3"
       is_visible="true"
       lpeversion="1"
       inverse="true"
       flatten="false"
       hide_clip="false"
       message="Use fill-rule evenodd on &lt;b&gt;fill and stroke&lt;/b&gt; dialog if no flatten result after convert clip to paths." />
    <clipPath
       clipPathUnits="userSpaceOnUse"
       id="clipPath317">
      <ellipse
         style="display:none;fill:#5599ff;stroke-width:0.765748"
         cx="32.453663"
         cy="35.526337"
         id="ellipse319"
         rx="3.8311384"
         ry="3.8263443" />
    </clipPath>
    <inkscape:path-effect
       effect="powerclip"
       id="path-effect321"
       is_visible="true"
       lpeversion="1"
       inverse="true"
       flatten="false"
       hide_clip="false"
       message="Use fill-rule evenodd on &lt;b&gt;fill and stroke&lt;/b&gt; dialog if no flatten result after convert clip to paths." />
    <clipPath
       clipPathUnits="userSpaceOnUse"
       id="clipPath29">
      <path
         id="path31"
         d="m 27.322114,17.187734 c 0.405719,-1.613556 2.028599,-2.787919 3.516238,-2.787919 h 4.057197 c 1.48764,0 2.16384,1.174363 1.622879,2.641522 L 33.313869,25.0925 h 5.815317 c 2.975279,0 3.786718,2.055929 1.893358,4.404656 l -12.990415,16.49477 c -0.946681,1.174363 -1.487641,1.027965 -1.081921,-0.585589 l 2.300494,-12.676206 h -4.733399 c -1.487639,0 -2.299078,-1.174364 -1.893359,-2.787919 z"
         style="display:block;fill:#e6e6e6;stroke-width:1.46821" />
    </clipPath>
    <inkscape:path-effect
       effect="powerclip"
       id="path-effect33"
       is_visible="true"
       lpeversion="1"
       inverse="true"
       flatten="false"
       hide_clip="false"
       message="Use fill-rule evenodd on &lt;b&gt;fill and stroke&lt;/b&gt; dialog if no flatten result after convert clip to paths." />
    <clipPath
       clipPathUnits="userSpaceOnUse"
       id="clipath_lpe_path-effect179-3">
      <path
         id="path7314"
         style="color:#000000;display:block;stroke-width:1.37326;-inkscape-stroke:none"
         d="m 37.716797,18.251953 -2.789063,4.634766 -5.269531,0.310547 2.896485,5.009765 -1.556641,5.433594 5.556641,-1.978516 4.152343,2.939453 0.08594,-5.605468 3.914062,-3.453125 -5.076172,-2.003907 z m -13.109375,10.933594 -3.292969,4.216797 -5.261719,-0.4375 2.292969,5.380859 -2.162109,5.167969 5.742187,-1.183594 3.773438,3.488281 0.728515,-5.542968 4.277344,-2.873047 -4.804687,-2.707032 z m 10.630859,3.503906 -1.417969,5.347656 -4.951171,2.013672 4.115234,3.833985 -0.03125,5.699218 4.773437,-3.710937 4.75,1.439453 -1.417968,-5.380859 2.804687,-4.576172 -5.384765,-0.257813 z" />
    </clipPath>
    <inkscape:path-effect
       effect="powerclip"
       id="path-effect179-3"
       is_visible="true"
       lpeversion="1"
       inverse="true"
       flatten="false"
       hide_clip="false"
       message="Use fill-rule evenodd on &lt;b&gt;fill and stroke&lt;/b&gt; dialog if no flatten result after convert clip to paths." />
    <clipPath
       clipPathUnits="userSpaceOnUse"
       id="clipPath65-3">
      <rect
         style="display:none;fill:#29292a;stroke-width:1.04339"
         width="39.68671"
         height="39.611187"
         x="20.884548"
         y="-42.184746"
         rx="3.1331613"
         ry="3.1271992"
         id="rect67-6"
         d="m 24.017709,-42.184746 h 33.420388 c 1.735772,0 3.133162,1.394731 3.133162,3.127199 v 33.356789 c 0,1.7324684 -1.39739,3.1271992 -3.133162,3.1271992 H 24.017709 c -1.735771,0 -3.133161,-1.3947308 -3.133161,-3.1271992 v -33.356789 c 0,-1.732468 1.39739,-3.127199 3.133161,-3.127199 z" />
      <path
         id="lpe_path-effect69"
         style="fill:#29292a;stroke-width:1.04339"
         class="powerclip"
         d="M -1.8700283,-65.947937 H 47.816972 V -16.33675 H -1.8700283 Z m 25.8877373,23.763191 c -1.735771,0 -3.133161,1.394731 -3.133161,3.127199 v 33.356789 c 0,1.7324684 1.39739,3.1271992 3.133161,3.1271992 h 33.420388 c 1.735772,0 3.133162,-1.3947308 3.133162,-3.1271992 v -33.356789 c 0,-1.732468 -1.39739,-3.127199 -3.133162,-3.127199 z" />
    </clipPath>
    <inkscape:path-effect
       effect="powerclip"
       id="path-effect69-7"
       is_visible="true"
       lpeversion="1"
       inverse="true"
       flatten="false"
       hide_clip="false"
       message="Use fill-rule evenodd on &lt;b&gt;fill and stroke&lt;/b&gt; dialog if no flatten result after convert clip to paths." />
    <clipPath
       clipPathUnits="userSpaceOnUse"
       id="clipPath890">
      <path
         style="display:block;fill:#e6e6e6"
         d="m 45.717108,-18.561604 c -3.063,-0.851 -6.246,-1.623 -9,-2.261 v -0.135 c 3.28,-0.793 5.863,-1.51 9,-2.295 v 4.691 m 9,-7.054 v -5.264 l -22,6.883 v 5.973 l 22,6.883 v -5.061 l -5,-1.35 v -6.715 l 5,-1.35"
         id="path892" />
    </clipPath>
    <inkscape:path-effect
       effect="powerclip"
       id="path-effect894"
       is_visible="true"
       lpeversion="1"
       inverse="true"
       flatten="false"
       hide_clip="false"
       message="Use fill-rule evenodd on &lt;b&gt;fill and stroke&lt;/b&gt; dialog if no flatten result after convert clip to paths." />
    <clipPath
       clipPathUnits="userSpaceOnUse"
       id="clipath_lpe_path-effect69-7">
      <rect
         style="display:block;fill:#29292a;stroke-width:1.04339"
         width="39.68671"
         height="39.611187"
         x="20.884548"
         y="-42.184746"
         rx="3.1331613"
         ry="3.1271992"
         id="rect2458" />
    </clipPath>
    <clipPath
       clipPathUnits="userSpaceOnUse"
       id="clipPath1880">
      <g
         id="g1898"
         style="display:block">
        <path
           style="color:#000000;opacity:0.85;fill:#ffffff;-inkscape-stroke:none"
           d="M 14.095703,26.000002 C 13.501406,26.000002 13,26.504334 13,27.098634 v 3.805662 C 13,31.498598 13.501406,32 14.095703,32 h 3.808593 C 18.498593,32 19,31.498598 19,30.904296 v -3.805662 c 0,-0.5943 -0.501407,-1.098632 -1.095704,-1.098632 z"
           id="path1882" />
        <path
           style="color:#000000;fill:#ffffff;-inkscape-stroke:none"
           d="M 14.095703,12 C 13.501406,12 13,12.504333 13,13.098633 v 3.805663 C 13,17.498596 13.501406,18 14.095703,18 h 3.808593 c 0.594297,0 1.095703,-0.501404 1.095703,-1.095704 V 13.098633 C 18.999999,12.504333 18.498593,12 17.904296,12 Z"
           id="path1884" />
        <g
           id="g1890"
           style="opacity:0.85">
          <path
             style="color:#000000;fill:#ffffff;stroke-width:6;stroke-linecap:round;-inkscape-stroke:none"
             d="M 28,28.9997 H 48"
             id="path1886" />
          <path
             style="color:#000000;fill:#ffffff;stroke-linecap:round;-inkscape-stroke:none"
             d="m 28,26 a 3,3 0 0 0 -3,3 3,3 0 0 0 3,3 h 20 a 3,3 0 0 0 3,-3 3,3 0 0 0 -3,-3 z"
             id="path1888" />
        </g>
        <path
           style="color:#000000;opacity:0.85;fill:#ffffff;stroke-linecap:round;-inkscape-stroke:none"
           d="m 28,12 a 3,3 0 0 0 -3,3 3,3 0 0 0 3,3 h 20 a 3,3 0 0 0 3,-3 3,3 0 0 0 -3,-3 z"
           id="path1892" />
        <path
           style="color:#000000;fill:#ffffff;-inkscape-stroke:none"
           d="M 14.095703,40 C 13.501406,40 13,40.504332 13,41.098632 v 3.805664 C 13,45.498594 13.501406,46 14.095703,46 h 3.808593 C 18.498593,46 19,45.498594 19,44.904296 V 41.098632 C 19,40.504332 18.498593,40 17.904296,40 Z"
           id="path1894" />
        <path
           style="color:#000000;opacity:0.85;fill:#ffffff;stroke-linecap:round;-inkscape-stroke:none"
           d="m 28,40 a 3,3 0 0 0 -3,3 3,3 0 0 0 3,3 h 20 a 3,3 0 0 0 3,-3 3,3 0 0 0 -3,-3 z"
           id="path1896" />
      </g>
    </clipPath>
    <inkscape:path-effect
       effect="powerclip"
       id="path-effect1900"
       is_visible="true"
       lpeversion="1"
       inverse="true"
       flatten="false"
       hide_clip="false"
       message="Use fill-rule evenodd on &lt;b&gt;fill and stroke&lt;/b&gt; dialog if no flatten result after convert clip to paths." />
    <clipPath
       clipPathUnits="userSpaceOnUse"
       id="clipath_lpe_path-effect33-7">
      <path
         style="display:block;opacity:0.85;fill:#f2f2f2;stroke-width:1.29244"
         d="m 31.918962,13.767821 c 4.218551,0 7.638612,3.524744 7.638612,7.872419 0,4.347937 -3.419806,7.872418 -7.638612,7.872418 -4.218806,0 -7.638611,-3.524481 -7.638611,-7.872418 0,-4.347675 3.419805,-7.872419 7.638611,-7.872419 z"
         id="path6277" />
    </clipPath>
    <inkscape:path-effect
       effect="powerclip"
       id="path-effect33-7"
       is_visible="true"
       lpeversion="1"
       inverse="true"
       flatten="false"
       hide_clip="false"
       message="Use fill-rule evenodd on &lt;b&gt;fill and stroke&lt;/b&gt; dialog if no flatten result after convert clip to paths." />
    <clipPath
       clipPathUnits="userSpaceOnUse"
       id="clipPath7">
      <path
         style="display:block;opacity:0.85;fill:#ffffff"
         d="m 15.999661,18.001241 v 27.99921 h 7.999775 V 30.000902 l 7.999774,6.999803 7.999774,-6.999803 v 15.999549 h 7.999775 v -27.99921 h -7.999775 l -7.999774,6.999802 -7.999774,-6.999802 z"
         id="path9" />
    </clipPath>
    <inkscape:path-effect
       effect="powerclip"
       id="path-effect11"
       is_visible="true"
       lpeversion="1"
       inverse="true"
       flatten="false"
       hide_clip="false"
       message="Use fill-rule evenodd on &lt;b&gt;fill and stroke&lt;/b&gt; dialog if no flatten result after convert clip to paths." />
    <clipPath
       clipPathUnits="userSpaceOnUse"
       id="clipPath297">
      <path
         style="display:block;fill:#4d4d4d;stroke-width:0.788458"
         d="m 19.044381,26.380231 c 0,0 3.021789,-4.291444 8.926101,-4.735445 v -1.556888 c -6.539814,0.516621 -12.267638,5.964807 -12.267638,5.964807 0,0 3.272328,9.120553 12.267638,9.955639 v -1.654965 c -6.601304,-0.818055 -8.926266,-7.973756 -8.926266,-7.973756 z m 8.926101,4.681768 v 1.515592 c -4.989164,-0.874893 -6.438716,-5.976211 -6.438716,-5.976211 0,0 2.460206,-2.610173 6.438716,-3.033494 v 1.663023 c -0.0024,0 -0.004,-8.66e-4 -0.0064,-8.66e-4 -2.08803,-0.246482 -3.784032,1.672299 -3.784032,1.672299 0,0 0.979025,3.230101 3.791719,4.159613 m 0,-13.845963 v 2.871709 c 0.191974,-0.01444 0.319238,-0.02661 0.51226,-0.03309 7.435012,-0.246481 12.279445,5.997956 12.279445,5.997956 0,0 -5.563993,6.654832 -11.360698,6.654832 -0.531264,0 -0.963883,-0.04849 -1.431041,-0.12987 v 1.775849 c 0.39947,0.04981 0.748915,0.07923 1.181108,0.07923 5.394243,0 9.295073,-2.70977 13.072432,-5.916759 0.626279,0.493357 3.190265,1.693586 3.717342,2.218936 -3.591418,2.957619 -11.961693,5.34184 -16.706861,5.34184 -0.457411,0 -0.831958,-0.02722 -1.263759,-0.06818 v 2.495372 h 20.437795 v -21.28764 h -20.43781 z m 0,6.351939 v -1.923037 c 0.190012,-0.01095 0.316735,-0.02305 0.51226,-0.0292 5.34649,-0.165193 8.854179,4.519222 8.854179,4.519222 0,0 -3.788644,5.175643 -7.85072,5.175643 -0.58461,0 -1.044049,-0.09239 -1.515786,-0.248428 V 25.23114 c 2.08149,0.247394 2.435578,1.151754 3.686958,3.203643 l 2.783059,-2.308344 c 0,0 -2.03161,-2.620818 -5.456387,-2.620818 -0.372273,-1.24e-4 -0.66376,0.02565 -1.013563,0.06228"
         id="path299" />
    </clipPath>
    <inkscape:path-effect
       effect="powerclip"
       id="path-effect305"
       is_visible="true"
       lpeversion="1"
       inverse="true"
       flatten="false"
       hide_clip="false"
       message="Use fill-rule evenodd on &lt;b&gt;fill and stroke&lt;/b&gt; dialog if no flatten result after convert clip to paths." />
    <clipPath
       clipPathUnits="userSpaceOnUse"
       id="clipPath80">
      <path
         id="path82"
         style="display:block;fill:#e6e6e6"
         d="M 32,4 C 16.536027,4 4,16.536027 4,32 4.00692,39.423412 6.9622361,46.539472 12.214844,51.785156 L 32,32 H 60 C 60,16.536027 47.463972,4 32,4 Z" />
    </clipPath>
    <inkscape:path-effect
       effect="powerclip"
       id="path-effect84"
       is_visible="true"
       lpeversion="1"
       inverse="true"
       flatten="false"
       hide_clip="false"
       message="Use fill-rule evenodd on &lt;b&gt;fill and stroke&lt;/b&gt; dialog if no flatten result after convert clip to paths." />
    <clipPath
       clipPathUnits="userSpaceOnUse"
       id="clipPath436">
      <path
         id="path438"
         style="display:block;fill:#ffcf24"
         d="m 13,11 a 2,2 0 0 0 -2,2 2,2 0 0 0 2,2 2,2 0 0 0 2,-2 2,2 0 0 0 -2,-2 z m 38,0 a 2,2 0 0 0 -2,2 2,2 0 0 0 2,2 2,2 0 0 0 2,-2 2,2 0 0 0 -2,-2 z M 32,12 A 20,20 0 0 0 12,32 20,20 0 0 0 32,52 20,20 0 0 0 52,32 20,20 0 0 0 32,12 Z M 13,49 a 2,2 0 0 0 -2,2 2,2 0 0 0 2,2 2,2 0 0 0 2,-2 2,2 0 0 0 -2,-2 z m 38,0 a 2,2 0 0 0 -2,2 2,2 0 0 0 2,2 2,2 0 0 0 2,-2 2,2 0 0 0 -2,-2 z" />
    </clipPath>
    <inkscape:path-effect
       effect="powerclip"
       id="path-effect440"
       is_visible="true"
       lpeversion="1"
       inverse="true"
       flatten="false"
       hide_clip="false"
       message="Use fill-rule evenodd on &lt;b&gt;fill and stroke&lt;/b&gt; dialog if no flatten result after convert clip to paths." />
    <clipPath
       clipPathUnits="userSpaceOnUse"
       id="clipPath184">
      <path
         id="path186"
         style="color:#000000;display:block;opacity:0.85;fill:#f2f2f2;stroke-width:4.432;-inkscape-stroke:none"
         d="m 17.570312,8.4453125 a 6.5431986,7.565543 0 0 0 -6.535156,7.5761715 6.5431986,7.565543 0 0 0 6.552735,7.554688 6.5431986,7.565543 0 0 0 6.535156,-7.574219 6.5431986,7.565543 0 0 0 -6.552735,-7.5566405 z M 45.646484,40.601562 a 6.5431985,7.3194421 2.8802482e-6 0 0 -6.533203,7.328126 6.5431985,7.3194421 2.8802482e-6 0 0 6.550781,7.310546 6.5431985,7.3194421 2.8802482e-6 0 0 6.535157,-7.330078 6.5431985,7.3194421 2.8802482e-6 0 0 -6.552735,-7.308594 z" />
    </clipPath>
    <inkscape:path-effect
       effect="powerclip"
       id="path-effect188"
       is_visible="true"
       lpeversion="1"
       inverse="true"
       flatten="false"
       hide_clip="false"
       message="Use fill-rule evenodd on &lt;b&gt;fill and stroke&lt;/b&gt; dialog if no flatten result after convert clip to paths." />
    <clipPath
       clipPathUnits="userSpaceOnUse"
       id="clipPath509">
      <path
         id="path511"
         style="display:block;fill:#ff6363"
         d="m 17.996094,26 a 6,6 0 0 0 -6,6 6,6 0 0 0 6,6 6,6 0 0 0 6,-6 6,6 0 0 0 -6,-6 z m 14.001953,0 a 6,6 0 0 0 -6,6 6,6 0 0 0 6,6 6,6 0 0 0 6,-6 6,6 0 0 0 -6,-6 z m 14,0 a 6,6 0 0 0 -6,6 6,6 0 0 0 6,6 6,6 0 0 0 6,-6 6,6 0 0 0 -6,-6 z" />
    </clipPath>
    <inkscape:path-effect
       effect="powerclip"
       id="path-effect513"
       is_visible="true"
       lpeversion="1"
       inverse="true"
       flatten="false"
       hide_clip="false"
       message="Use fill-rule evenodd on &lt;b&gt;fill and stroke&lt;/b&gt; dialog if no flatten result after convert clip to paths." />
    <clipPath
       clipPathUnits="userSpaceOnUse"
       id="clipPath1329">
      <path
         style="color:#000000;display:block;fill:#999999;stroke-width:1.17552;-inkscape-stroke:none"
         d="m -50.690387,-44.38376 a 5.9811887,6.0780373 1.1470659 0 1 6.005002,-6.057666 5.9811887,6.0780373 1.1470659 0 1 5.957359,6.098263 5.9811887,6.0780373 1.1470659 0 1 -6.005003,6.057666 5.9811887,6.0780373 1.1470659 0 1 -5.957358,-6.098263 z"
         id="path1331" />
    </clipPath>
    <inkscape:path-effect
       effect="powerclip"
       id="path-effect1333"
       is_visible="true"
       lpeversion="1"
       inverse="true"
       flatten="false"
       hide_clip="false"
       message="Use fill-rule evenodd on &lt;b&gt;fill and stroke&lt;/b&gt; dialog if no flatten result after convert clip to paths." />
    <clipPath
       clipPathUnits="userSpaceOnUse"
       id="clipPath34-5">
      <path
         style="display:block;opacity:0.85;fill:#ffffff;stroke-width:1.04323"
         d="m 32.800062,24.866067 c -0.995337,0 -2.21006,0.144059 -2.998038,0.435627 -0.774151,0.291562 -1.428501,0.64059 -1.953822,1.038176 l 0.913687,1.188814 c 0.552966,-0.344575 1.113747,-0.62967 1.680533,-0.854968 0.566791,-0.22531 1.576236,-0.333846 2.378036,-0.333846 0.829447,0 1.486295,0.18973 1.970137,0.574051 0.483843,0.371084 0.726056,0.902715 0.726056,1.591871 0,0.808425 -0.318571,1.455718 -0.954478,1.946072 -0.622083,0.49036 -1.867174,0.895682 -3.083694,0.895682 h -0.51395 v 1.331307 h 0.493555 c 1.313289,0 2.328131,0.200884 3.046984,0.598479 0.732677,0.384331 1.10132,1.017415 1.10132,1.905359 0,0.874695 -0.298854,1.564598 -0.893292,2.06821 -0.58061,0.490359 -1.532241,0.732831 -2.859354,0.732831 -0.663555,0 -1.357335,-0.0771 -2.076189,-0.236134 -0.718854,-0.159025 -1.388845,-0.391373 -2.01093,-0.696189 v 1.628511 c 0.608261,0.291567 1.245398,0.492457 1.908953,0.598477 0.663561,0.11928 1.37954,0.179143 2.153693,0.179143 1.31329,0 2.384776,-0.179579 3.214222,-0.537409 0.843272,-0.35783 1.467264,-0.853949 1.868165,-1.490088 0.400896,-0.636141 0.599608,-1.3717 0.599608,-2.206635 0,-0.940959 -0.294779,-1.70086 -0.889215,-2.283988 -0.580612,-0.583132 -1.459959,-0.942295 -2.635007,-1.074822 v -0.08142 c 0.926214,-0.185541 1.992308,-0.554839 2.545272,-1.11146 0.566788,-0.569875 0.852502,-1.333848 0.852502,-2.288059 0,-1.020475 -0.381784,-1.861549 -1.142109,-2.524195 -0.7465,-0.66264 -1.894348,-0.993397 -3.442645,-0.993397 z"
         id="path36-6" />
    </clipPath>
    <inkscape:path-effect
       effect="powerclip"
       id="path-effect38"
       is_visible="true"
       lpeversion="1"
       inverse="true"
       flatten="false"
       hide_clip="false"
       message="Use fill-rule evenodd on &lt;b&gt;fill and stroke&lt;/b&gt; dialog if no flatten result after convert clip to paths." />
    <clipPath
       clipPathUnits="userSpaceOnUse"
       id="clipPath3124">
      <path
         id="path3126"
         d="m 15.335938,18.400391 v 0.644531 c 0.866635,0.06872 1.448696,0.181317 1.74414,0.335937 0.512103,0.257701 0.767578,0.755399 0.767578,1.494141 v 12.472656 c 0,0.841822 -0.343833,1.374316 -1.033203,1.597656 -0.196963,0.06872 -0.690665,0.146522 -1.478515,0.232422 v 0.644532 h 9.957031 v -0.644532 c -0.965117,-0.10308 -1.604781,-0.232098 -1.919922,-0.386718 -0.492407,-0.257701 -0.738281,-0.738978 -0.738281,-1.44336 v -5.927734 h 7.11914 v 5.927734 c 0,0.721562 -0.245874,1.211049 -0.738281,1.46875 -0.275748,0.13744 -0.915412,0.258248 -1.919922,0.361328 v 0.644532 H 37.140625 V 35.177734 C 36.195204,35.074654 35.56514,34.937426 35.25,34.765625 34.777289,34.507925 34.541016,34.034858 34.541016,33.347656 V 20.875 c 0,-0.755922 0.274676,-1.271995 0.826172,-1.546875 0.374229,-0.188981 0.96589,-0.283203 1.773437,-0.283203 V 18.400391 H 27.095703 v 0.644531 c 1.063598,0 1.791621,0.172024 2.185547,0.515625 0.31514,0.27488 0.472656,0.713152 0.472656,1.314453 v 5.333984 h -7.11914 V 20.875 c 0,-0.773102 0.284277,-1.297385 0.855468,-1.572266 0.354533,-0.1718 0.955795,-0.257812 1.802735,-0.257812 v -0.644531 z m 22.957031,0 v 0.644531 c 0.866636,0 1.4967,0.09422 1.890625,0.283203 0.571192,0.27488 0.857422,0.790953 0.857422,1.546875 v 12.472656 c 0,0.601302 -0.147915,1.031362 -0.44336,1.289063 -0.295444,0.2577 -1.063823,0.437935 -2.304687,0.541015 v 0.644532 h 10.339843 v -0.644532 c -0.925724,0 -1.594191,-0.102433 -2.007812,-0.308593 -0.531799,-0.274881 -0.798828,-0.782743 -0.798828,-1.521485 V 20.875 c 0,-0.790282 0.295831,-1.314565 0.886719,-1.572266 0.393925,-0.1718 1.033589,-0.257812 1.919921,-0.257812 v -0.644531 z"
         style="display:block" />
    </clipPath>
    <inkscape:path-effect
       effect="powerclip"
       id="path-effect3128"
       is_visible="true"
       lpeversion="1"
       inverse="true"
       flatten="false"
       hide_clip="false"
       message="Use fill-rule evenodd on &lt;b&gt;fill and stroke&lt;/b&gt; dialog if no flatten result after convert clip to paths." />
    <clipPath
       clipPathUnits="userSpaceOnUse"
       id="clipPath11860">
      <path
         d="m 48.962212,20.381067 v -5.092764 q 0,-2.513023 -0.458334,-3.580502 -0.458333,-1.067478 -1.518231,-1.067478 -1.489585,0 -1.804689,2.357349 -0.114583,0.867326 -0.114583,2.290631 v 5.092764 q 0,2.424067 0.429687,3.513785 0.458334,1.089718 1.546877,1.089718 0.687501,0 1.088543,-0.444783 0.257813,-0.289109 0.401042,-0.77837 0.171876,-0.5115 0.286459,-1.423306 0.143229,-0.934043 0.143229,-1.957044 z m -8.421886,-2.446306 q 0,-3.86961 2.148441,-6.049046 1.861982,-1.868089 4.354172,-1.868089 2.520837,0 4.354172,1.957045 2.091149,2.223914 2.091149,5.96009 0,3.157959 -1.718752,5.337395 -1.833336,2.33511 -4.755215,2.33511 -2.778648,0 -4.64063,-2.157197 -1.833337,-2.179437 -1.833337,-5.515308 z"
         id="path11862"
         style="display:block" />
    </clipPath>
    <inkscape:path-effect
       effect="powerclip"
       id="path-effect11864"
       is_visible="true"
       lpeversion="1"
       inverse="true"
       flatten="false"
       hide_clip="false"
       message="Use fill-rule evenodd on &lt;b&gt;fill and stroke&lt;/b&gt; dialog if no flatten result after convert clip to paths." />
    <clipPath
       clipPathUnits="userSpaceOnUse"
       id="clipPath11753">
      <path
         d="m 22.751241,48.113279 h 1.804689 v 2.468544 h -1.804689 v 3.202437 h -4.153652 v -3.202437 h -7.104176 v -2.513022 q 1.203127,-1.490023 2.864587,-3.291394 1.489585,-1.601218 3.151046,-3.313632 1.460939,-1.490022 2.950524,-2.980045 h 2.291671 z m -4.09636,0 V 41.57497 l -5.986987,6.538309 z"
         id="path11755"
         style="display:block" />
    </clipPath>
    <inkscape:path-effect
       effect="powerclip"
       id="path-effect11757"
       is_visible="true"
       lpeversion="1"
       inverse="true"
       flatten="false"
       hide_clip="false"
       message="Use fill-rule evenodd on &lt;b&gt;fill and stroke&lt;/b&gt; dialog if no flatten result after convert clip to paths." />
    <clipPath
       clipPathUnits="userSpaceOnUse"
       id="clipath_lpe_path-effect13-5">
      <path
         style="display:block;opacity:0.85;fill:#f5f7fa;stroke-width:1.02768"
         d="m 47.458967,1023.3069 c 0.85688,1.8179 1.286598,4.0198 1.286598,6.5331 0,2.4237 -0.471043,4.5945 -1.412286,6.367 -0.94152,1.7735 -2.198842,3.2676 -3.705671,4.4122 -1.50626,1.1449 -3.245953,1.9605 -5.149374,2.5225 -1.904832,0.5606 -3.852868,0.8052 -5.777238,0.8052 -3.850431,0 -7.996222,-1.2967 -10.611304,-2.8214 -2.984685,-1.5261 -7.041712,-6.2092 -6.960672,-6.9347 0.105349,-0.9437 2.398251,-4.0793 3.788125,-6.1999 0.67691,-1.0328 0.945189,-1.5206 1.959266,-0.5557 1.267312,1.6672 3.027389,2.7385 4.649929,3.6343 1.422401,0.728 4.427349,1.775 6.001755,1.9875 1.317989,0.2094 3.286601,0.2094 3.429864,-2.016 0,-0.8517 -0.665023,-1.6274 -1.521901,-2.3915 -0.858009,-0.7623 -1.43195,-1.4142 -2.70807,-2.2454 -5.062162,-4.2564 -7.79732,-6.1773 -10.368074,-10.4259 -0.858006,-1.6832 -1.354021,-3.5518 -1.354021,-5.7516 0,-2.1546 0.309343,-4.2556 1.062619,-5.8717 2.446826,-4.82161 7.391989,-7.34282 11.820387,-7.40606 3.783597,0 6.559511,1.09784 9.049178,2.31298 3.362337,1.54068 5.501784,3.55878 7.329115,5.34908 0.71227,0.6978 0.09745,1.54 -0.273887,2.159 -0.933252,1.5561 -2.253588,3.4749 -2.665561,4.398 -0.327914,0.6711 -0.934034,0.9233 -1.436782,0.4557 0,0 -1.242737,-1.1321 -2.246817,-1.8289 -2.666217,-1.599 -5.433717,-3.9539 -8.253986,-4.2475 -0.753274,0 -1.510094,0.2379 -1.865076,0.6416 -0.356113,0.4043 -0.485072,1.2175 -0.466448,1.8457 0.03355,1.1324 0.328115,1.3432 1.320701,2.3637 0.856877,0.6962 1.532222,1.1971 3.266048,2.1905 1.296029,0.7422 2.886235,1.7855 4.372119,2.7054 1.485027,0.9204 2.977366,2.1036 4.275001,3.4048 1.29735,1.3031 2.307877,2.7902 3.166455,4.6077 z"
         id="path7356" />
    </clipPath>
    <inkscape:path-effect
       effect="powerclip"
       id="path-effect13-5"
       is_visible="true"
       lpeversion="1"
       inverse="true"
       flatten="false"
       hide_clip="false"
       message="Use fill-rule evenodd on &lt;b&gt;fill and stroke&lt;/b&gt; dialog if no flatten result after convert clip to paths." />
    <clipPath
       clipPathUnits="userSpaceOnUse"
       id="clipPath170">
      <ellipse
         style="display:none;fill:#29292a;stroke-width:0.980244"
         cx="42.011021"
         cy="24.379766"
         id="ellipse172"
         rx="11.519319"
         ry="12.011694" />
    </clipPath>
    <inkscape:path-effect
       effect="powerclip"
       id="path-effect174"
       is_visible="true"
       lpeversion="1"
       inverse="true"
       flatten="false"
       hide_clip="false"
       message="Use fill-rule evenodd on &lt;b&gt;fill and stroke&lt;/b&gt; dialog if no flatten result after convert clip to paths." />
    <clipPath
       clipPathUnits="userSpaceOnUse"
       id="clipPath631">
      <path
         id="path633"
         style="font-style:normal;font-variant:normal;font-weight:bold;font-stretch:normal;line-height:1.95;font-family:sans-serif;-inkscape-font-specification:'sans-serif Bold';letter-spacing:0px;display:block;opacity:0.754;stroke-width:1.08279"
         d="m 15.859375,15.755859 v 10.734375 h 2.660156 v -4.550781 h 3.925781 v 4.550781 h 2.660157 V 15.755859 h -2.660157 v 4.091797 h -3.925781 v -4.091797 z m 11.845703,0 v 10.734375 h 2.806641 c 1.548121,0 2.708361,-0.113659 3.482422,-0.34375 0.774061,-0.234883 1.437333,-0.631448 1.990234,-1.1875 0.483788,-0.484147 0.843143,-1.043033 1.078125,-1.675781 0.234983,-0.637541 0.353516,-1.359813 0.353516,-2.169922 0,-0.800521 -0.118533,-1.517643 -0.353516,-2.15039 -0.234982,-0.632748 -0.594337,-1.191633 -1.078125,-1.675782 -0.548293,-0.55605 -1.207109,-0.949597 -1.976563,-1.179687 -0.764845,-0.234884 -1.929542,-0.351563 -3.496093,-0.351563 z m 11.75,0 v 10.734375 h 2.804688 c 1.548121,0 2.710314,-0.113659 3.484375,-0.34375 0.77406,-0.234883 1.437333,-0.631448 1.990234,-1.1875 0.483788,-0.484147 0.843142,-1.043033 1.078125,-1.675781 0.234982,-0.637541 0.351562,-1.359813 0.351562,-2.169922 0,-0.800521 -0.11658,-1.517643 -0.351562,-2.15039 -0.234983,-0.632748 -0.594337,-1.191633 -1.078125,-1.675782 -0.548293,-0.55605 -1.20711,-0.949597 -1.976563,-1.179687 -0.764846,-0.234884 -1.931495,-0.351563 -3.498046,-0.351563 z m -9.089844,2.091797 h 0.955078 c 1.091978,0 1.92281,0.277933 2.494141,0.833985 0.571331,0.55605 0.857422,1.367474 0.857422,2.43164 0,1.06896 -0.287343,1.882515 -0.863281,2.44336 -0.571331,0.560844 -1.400911,0.841797 -2.488282,0.841797 h -0.955078 z m 11.75,0 h 0.953125 c 1.091979,0 1.924764,0.277933 2.496094,0.833985 0.571331,0.55605 0.855469,1.367474 0.855469,2.43164 0,1.06896 -0.287343,1.882515 -0.863281,2.44336 -0.571331,0.560844 -1.400911,0.841797 -2.488282,0.841797 H 42.115234 Z M 18.982422,30.189453 c -0.344949,0 -0.623047,0.270113 -0.623047,0.601563 0,0.331453 0.2781,0.599609 0.623047,0.599609 h 4.248047 c 0.34495,0 0.625,-0.268156 0.625,-0.599609 0,-0.331451 -0.28005,-0.601563 -0.625,-0.601563 z m 7.496094,0 c -0.344943,0 -0.625,0.270113 -0.625,0.601563 0,0.331453 0.280061,0.599609 0.625,0.599609 h 7.11914 c 0.344942,0 0.625,-0.268156 0.625,-0.599609 0,-0.331451 -0.28006,-0.601563 -0.625,-0.601563 z m 9.36914,0 c -0.344938,0 -0.625,0.270113 -0.625,0.601563 0,0.331453 0.280065,0.599609 0.625,0.599609 h 5.496094 c 0.344928,0 0.623047,-0.268156 0.623047,-0.599609 0,-0.331451 -0.278112,-0.601563 -0.623047,-0.601563 z m -16.865234,2.402344 c -0.344949,0 -0.623047,0.268158 -0.623047,0.599609 0,0.331452 0.2781,0.59961 0.623047,0.59961 h 2.75 c 0.344948,0 0.623047,-0.268159 0.623047,-0.59961 0,-0.331451 -0.278099,-0.599609 -0.623047,-0.599609 z m 7.496094,0 c -0.344942,0 -0.625,0.268158 -0.625,0.599609 0,0.331452 0.28006,0.59961 0.625,0.59961 h 3.373046 c 0.344952,0 0.623047,-0.268159 0.623047,-0.59961 0,-0.331451 -0.2781,-0.599609 -0.623047,-0.599609 z m 5.371093,0 c -0.344941,0 -0.625,0.268158 -0.625,0.599609 0,0.331452 0.28006,0.59961 0.625,0.59961 h 7.994141 c 0.344929,0 0.625,-0.268159 0.625,-0.59961 0,-0.331451 -0.280064,-0.599609 -0.625,-0.599609 z m 9.994141,0 c -0.344939,0 -0.625,0.268158 -0.625,0.599609 0,0.331452 0.280065,0.59961 0.625,0.59961 h 2.748047 c 0.344938,0 0.623047,-0.268159 0.623047,-0.59961 0,-0.331451 -0.278112,-0.599609 -0.623047,-0.599609 z m -22.861328,2.400391 c -0.344949,-10e-7 -0.623047,0.268156 -0.623047,0.599609 0,0.331465 0.2781,0.599609 0.623047,0.599609 h 4.248047 c 0.34495,0 0.625,-0.26816 0.625,-0.599609 0,-0.331459 -0.28005,-0.599609 -0.625,-0.599609 z m 7.496094,0 c -0.344942,-10e-7 -0.625,0.268156 -0.625,0.599609 0,0.331465 0.28006,0.599609 0.625,0.599609 H 39.21875 c 0.344941,0 0.625,-0.26816 0.625,-0.599609 0,-0.331459 -0.280063,-0.599609 -0.625,-0.599609 z m -7.496094,2.40039 c -0.344949,0 -0.623047,0.268161 -0.623047,0.59961 0,0.33147 0.2781,0.599609 0.623047,0.599609 h 4.873047 c 0.344937,0 0.625,-0.268156 0.625,-0.599609 0,-0.331432 -0.280062,-0.59961 -0.625,-0.59961 z m 7.496094,0 c -0.344943,0 -0.625,0.268161 -0.625,0.59961 0,0.33147 0.280061,0.599609 0.625,0.599609 h 7.49414 c 0.344939,0 0.625,-0.268156 0.625,-0.599609 0,-0.331432 -0.280061,-0.59961 -0.625,-0.59961 z m 9.49414,0 c -0.344938,0 -0.625,0.268161 -0.625,0.59961 0,0.33147 0.280067,0.599609 0.625,0.599609 h 6.369141 c 0.34493,0 0.625,-0.268156 0.625,-0.599609 0,-0.331432 -0.280062,-0.59961 -0.625,-0.59961 z m -16.990234,2.400391 c -0.344949,0 -0.623047,0.268158 -0.623047,0.599609 0,0.331467 0.2781,0.59961 0.623047,0.59961 h 2.998047 c 0.344941,0 0.625,-0.268159 0.625,-0.59961 0,-0.331457 -0.28006,-0.599609 -0.625,-0.599609 z m 7.496094,0 c -0.344943,0 -0.625,0.268158 -0.625,0.599609 0,0.331467 0.280061,0.59961 0.625,0.59961 h 1.748046 c 0.344937,0 0.625,-0.268159 0.625,-0.59961 10e-7,-0.331457 -0.280063,-0.599609 -0.625,-0.599609 z m 3.748046,0 c -0.344948,0 -0.625,0.268158 -0.625,0.599609 10e-7,0.331467 0.28005,0.59961 0.625,0.59961 h 8.992188 c 0.344941,0 0.625,-0.268159 0.625,-0.59961 0,-0.331457 -0.280063,-0.599609 -0.625,-0.599609 z" />
    </clipPath>
    <inkscape:path-effect
       effect="powerclip"
       id="path-effect635"
       is_visible="true"
       lpeversion="1"
       inverse="true"
       flatten="false"
       hide_clip="false"
       message="Use fill-rule evenodd on &lt;b&gt;fill and stroke&lt;/b&gt; dialog if no flatten result after convert clip to paths." />
    <clipPath
       clipPathUnits="userSpaceOnUse"
       id="clipPath989">
      <path
         style="color:#000000;display:block;fill:#f5f7fa;stroke-width:0.967242;stroke-linecap:round;stroke-linejoin:round;-inkscape-stroke:none"
         d="m 30.304302,10.807288 a 3.4219191,3.3801784 0 0 0 -3.548764,2.288793 L 21.35161,28.999339 H 6.0274887 a 3.4215768,3.3798405 0 0 0 -3.4214116,3.379679 3.4215768,3.3798405 0 0 0 3.4214116,3.381553 H 23.811224 a 3.4219191,3.3801784 0 0 0 3.244639,-2.305691 l 1.634674,-4.812285 3.332076,22.435424 a 3.4219191,3.3801784 0 0 0 6.629932,0.58581 l 5.403931,-15.903258 h 15.32412 a 3.4215768,3.3798405 0 0 0 3.421412,-3.381553 3.4215768,3.3798405 0 0 0 -3.421412,-3.379679 H 41.596861 a 3.4219191,3.3801784 0 0 0 -3.244637,2.305691 l -1.634675,4.812285 -3.332076,-22.435423 a 3.4219191,3.3801784 0 0 0 -3.081171,-2.874604 z"
         id="path991" />
    </clipPath>
    <inkscape:path-effect
       effect="powerclip"
       id="path-effect993"
       is_visible="true"
       lpeversion="1"
       inverse="true"
       flatten="false"
       hide_clip="false"
       message="Use fill-rule evenodd on &lt;b&gt;fill and stroke&lt;/b&gt; dialog if no flatten result after convert clip to paths." />
    <clipPath
       clipPathUnits="userSpaceOnUse"
       id="clipath_lpe_path-effect11-7">
      <path
         style="display:block;opacity:0.85;fill:#f5f7fa"
         d="m 18,13.441408 -5.999999,6.003906 V 44.546876 L 18,50.550782 v -0.03126 L 32.0625,36.453114 46.082031,50.472646 50.328123,46.226552 36.308594,32.210939 50.539061,17.984376 46.296875,13.742189 18,42.035156 Z"
         id="path774" />
    </clipPath>
    <inkscape:path-effect
       effect="powerclip"
       id="path-effect11-7"
       is_visible="true"
       lpeversion="1"
       inverse="true"
       flatten="false"
       hide_clip="false"
       message="Use fill-rule evenodd on &lt;b&gt;fill and stroke&lt;/b&gt; dialog if no flatten result after convert clip to paths." />
  </defs>
  <circle
     cx="32.516094"
     cy="31.877844"
     r="0"
     fill="url(#b)"
     stroke-width="1.5715"
     id="circle41"
     style="fill:url(#b)" />
  <g
     aria-label="GZ"
     transform="matrix(1.2212657,0,0,0.81882264,0.4960938,-0.1661539)"
     id="text93"
     style="font-weight:bold;font-size:11.5263px;line-height:1.25;font-family:sans-serif;-inkscape-font-specification:'sans-serif Bold';fill:#f2f2f2;stroke-width:0.288159" />
  <g
     id="g877"
     transform="matrix(1.1,0,0,1.1,-3.1845928,-3.2065454)">
    <path
       d="m 18.347203,7.2464043 c -6.244452,0 -11.2714308,5.1741617 -11.2714308,11.6016437 v 26.767119 c 0,6.427394 5.0268918,11.601644 11.2714308,11.601644 h 26.005262 c 6.244452,0 11.271431,-5.174161 11.271431,-11.601644 V 18.848048 c 0,-6.427393 -5.026893,-11.6016437 -11.271431,-11.6016437 z"
       fill="url(#linearGradient910)"
       stroke-width="3.32418"
       id="path33"
       style="fill:#578376;fill-opacity:1"
       clip-path="url(#clipPath1976)"
       inkscape:path-effect="#path-effect1980"
       inkscape:original-d="m 18.347203,7.2464043 c -6.244452,0 -11.2714308,5.1741617 -11.2714308,11.6016437 v 26.767119 c 0,6.427394 5.0268918,11.601644 11.2714308,11.601644 h 26.005262 c 6.244452,0 11.271431,-5.174161 11.271431,-11.601644 V 18.848048 c 0,-6.427393 -5.026893,-11.6016437 -11.271431,-11.6016437 z"
       transform="matrix(1.1,0,0,1.1,-2.6388896,-3.3893147)" />
    <rect
       x="8.0073938"
       y="7.5283623"
       width="47.677586"
       height="49.074364"
       rx="9.5358982"
       ry="9.8152657"
       fill="url(#linearGradient862)"
       stroke-width="3.26449"
       id="rect35-7"
       style="opacity:1;fill:#f5f7fa;fill-opacity:1" />
    <rect
       x="10.391273"
       y="9.9820805"
       width="42.909828"
       height="44.166924"
       rx="8.5823088"
       ry="8.8337393"
       fill="url(#linearGradient862)"
       stroke-width="2.93805"
       id="rect35-7-3"
       style="fill:#578376;fill-opacity:1" />
  </g>
  <g
     id="g4758"
     style="fill:#f5f7fa;fill-opacity:1"
     transform="matrix(0.71372156,0,0,0.74534374,10.077877,8.5174381)">
    <path
       style="fill:#f5f7fa;fill-opacity:1;stroke-width:1.51587"
       d="M 29.329326,29.207178 16.351817,12.640647 c -0.300881,-0.369638 -0.786392,-0.344438 -1.085905,0.02521 L 2.3841366,29.193739 c -0.4841439,0.594782 -0.1477046,1.525599 0.5388489,1.525599 l 7.4235365,0.0051 v 15.113161 c 0,0.927457 0.701597,1.690255 1.4579,1.690255 h 8.205825 c 0.754935,0 1.277372,-0.762798 1.277372,-1.690255 V 30.726052 l 7.491917,-0.0051 c 0.685187,0 1.033934,-0.917375 0.54979,-1.513837 z"
       id="path10-3" />
    <path
       style="fill:#f5f7fa;fill-opacity:1;stroke-width:1.51587"
       d="M 58.96814,33.110448 45.990628,49.676981 c -0.300879,0.369636 -0.78639,0.344436 -1.085904,-0.02521 L 32.02295,33.123888 c -0.484144,-0.594783 -0.147705,-1.525599 0.538849,-1.525599 l 7.423535,-0.0051 V 16.480077 c 0,-0.927456 0.701598,-1.690256 1.457901,-1.690256 h 8.205823 c 0.754936,0 1.277374,0.7628 1.277374,1.690256 v 15.111498 l 7.491918,0.0051 c 0.685185,0 1.033932,0.917375 0.54979,1.513837 z"
       id="path10-3-6" />
  </g>
  <g
     id="g5857"
     transform="matrix(0.729,0,0,0.729,8.4055082,8.519446)"
     style="fill:#f5f7fa;fill-opacity:1" />
  <g
     id="g1026"
     style="fill:#f5f7fa;fill-opacity:1"
     transform="translate(1.2014655,1.5487335)"
     inkscape:transform-center-x="0.56988548"
     inkscape:transform-center-y="4.5999709">
    <g
       id="g1765"
       transform="matrix(1.21,0,0,1.21,5.495892,-13.519947)"
       style="fill:#f5f7fa;fill-opacity:1">
      <g
         id="g1049"
         transform="matrix(0.38742049,0,0,0.38742049,24.944519,40.263873)"
         style="fill:#f5f7fa;fill-opacity:1">
        <rect
           x="0.4955225"
           y="1.188356"
           width="53.734447"
           height="53.524654"
           rx="10.747319"
           ry="10.705359"
           fill="url(#linearGradient862)"
           stroke-width="3.61939"
           id="rect35-3-0"
           style="fill:#f5f7fa;fill-opacity:1;stroke:#578376;stroke-opacity:1" />
      </g>
    </g>
  </g>
  <g
     id="g9181"
     transform="matrix(0.79388101,0,0,0.79388101,13.499628,11.782237)"
     style="fill:#616161;fill-opacity:1;stroke:none">
    <path
       style="fill:#616161;fill-opacity:1;stroke:none"
       d="m 55,38 v 1.666667 c 0,0.916933 -0.755783,1.666666 -1.666667,1.666666 -8.284333,0 -15,6.715667 -15,15 C 38.333333,57.250267 37.57755,58 36.666667,58 H 35 V 56.333333 C 35,46.208333 43.208333,38 53.333333,38 Z"
       id="path9166" />
    <path
       style="fill:#616161;fill-opacity:1;stroke:none"
       d="m 55,44.666667 v 1.666666 C 55,47.250267 54.244217,48 53.333333,48 48.731,48 45,51.731 45,56.333333 45,57.250267 44.244217,58 43.333333,58 H 41.666667 V 56.333333 C 41.666667,49.89 46.89,44.666667 53.333333,44.666667 Z"
       id="path9168" />
    <path
       style="fill:#616161;fill-opacity:1;stroke:none"
       d="M 51.500001,51 C 53.43305,51 55,52.567003 55,54.500001 55,56.432998 53.432998,58 51.500001,58 49.567003,58 48,56.432998 48,54.500001 48,52.567003 49.566951,51 51.500001,51 Z"
       id="path9170" />
  </g>
</svg>
