<?xml version="1.0" encoding="UTF-8" standalone="no"?>
<svg
   width="64"
   height="64"
   version="1.1"
   id="svg73"
   sodipodi:docname="zorin-appearance.svg"
   inkscape:version="1.2.2 (1:1.2.2+202212051550+b0a8486541)"
   xmlns:inkscape="http://www.inkscape.org/namespaces/inkscape"
   xmlns:sodipodi="http://sodipodi.sourceforge.net/DTD/sodipodi-0.dtd"
   xmlns="http://www.w3.org/2000/svg"
   xmlns:svg="http://www.w3.org/2000/svg"
   xmlns:rdf="http://www.w3.org/1999/02/22-rdf-syntax-ns#"
   xmlns:cc="http://creativecommons.org/ns#"
   xmlns:dc="http://purl.org/dc/elements/1.1/">
  <metadata
     id="metadata77">
    <rdf:RDF>
      <cc:Work
         rdf:about="">
        <dc:format>image/svg+xml</dc:format>
        <dc:type
           rdf:resource="http://purl.org/dc/dcmitype/StillImage" />
      </cc:Work>
    </rdf:RDF>
  </metadata>
  <sodipodi:namedview
     pagecolor="#f5f7fa"
     bordercolor="#666666"
     borderopacity="1"
     objecttolerance="10"
     gridtolerance="10"
     guidetolerance="10"
     inkscape:pageopacity="0"
     inkscape:pageshadow="2"
     inkscape:window-width="1377"
     inkscape:window-height="886"
     id="namedview75"
     showgrid="false"
     inkscape:zoom="6.2890625"
     inkscape:cx="49.212422"
     inkscape:cy="37.843478"
     inkscape:window-x="211"
     inkscape:window-y="181"
     inkscape:window-maximized="0"
     inkscape:current-layer="svg73"
     inkscape:document-rotation="0"
     inkscape:pagecheckerboard="0"
     inkscape:showpageshadow="2"
     inkscape:deskcolor="#d1d1d1" />
  <defs
     id="defs29">
    <inkscape:path-effect
       effect="powerclip"
       id="path-effect1980"
       is_visible="true"
       lpeversion="1"
       inverse="true"
       flatten="false"
       hide_clip="false"
       message="Use fill-rule evenodd on &lt;b&gt;fill and stroke&lt;/b&gt; dialog if no flatten result after convert clip to paths." />
    <linearGradient
       id="b"
       x1="399.57"
       x2="399.57"
       y1="545.8"
       y2="517.8"
       gradientTransform="matrix(2.1429,0,0,2.1429,-825.86391,-1107.6662)"
       gradientUnits="userSpaceOnUse">
      <stop
         stop-color="#3889e9"
         offset="0"
         id="stop2" />
      <stop
         stop-color="#5ea5fb"
         offset="1"
         id="stop4" />
    </linearGradient>
    <linearGradient
       id="linearGradient862"
       x1="7.9373"
       x2="7.9373"
       y1="15.081"
       y2="1.852"
       gradientTransform="matrix(3.3743 0 0 3.3743 3.4312 3.4278)"
       gradientUnits="userSpaceOnUse">
      <stop
         stop-color="#f1efeb"
         offset="0"
         id="stop7" />
      <stop
         stop-color="#fff"
         offset="1"
         id="stop9" />
    </linearGradient>
    <linearGradient
       id="linearGradient910"
       x1="7.9373"
       x2="7.9373"
       y1="15.081"
       y2="1.852"
       gradientTransform="scale(3.7796)"
       gradientUnits="userSpaceOnUse">
      <stop
         stop-color="#613583"
         offset="0"
         id="stop12" />
      <stop
         stop-color="#a663c0"
         offset="1"
         id="stop14" />
    </linearGradient>
    <linearGradient
       id="linearGradient932"
       x1="379.24"
       x2="374.24"
       y1="546.85"
       y2="546.85"
       gradientTransform="matrix(2.1429 0 0 2.1429 -769.68 -1134.5)"
       gradientUnits="userSpaceOnUse">
      <stop
         stop-color="#f6f5f4"
         offset="0"
         id="stop17" />
      <stop
         stop-color="#fff"
         offset=".6"
         id="stop19" />
      <stop
         stop-color="#dddbd8"
         offset="1"
         id="stop21" />
    </linearGradient>
    <linearGradient
       id="linearGradient1146"
       x1="18"
       x2="18"
       y1="52"
       y2="12"
       gradientUnits="userSpaceOnUse">
      <stop
         stop-color="#5e337f"
         offset="0"
         id="stop24" />
      <stop
         stop-color="#ab60bf"
         offset="1"
         id="stop26" />
    </linearGradient>
    <clipPath
       clipPathUnits="userSpaceOnUse"
       id="clipPath1976">
      <rect
         x="9.6784649"
         y="9.925169"
         width="43.343258"
         height="44.613056"
         rx="8.6689987"
         ry="8.9229689"
         fill="url(#linearGradient862)"
         stroke-width="2.96772"
         id="rect1978"
         style="display:none;fill:#333333;fill-opacity:1"
         d="m 18.347464,9.925169 h 26.00526 c 4.802625,0 8.668999,3.979644 8.668999,8.922969 v 26.767118 c 0,4.943325 -3.866374,8.922969 -8.668999,8.922969 h -26.00526 c -4.802626,0 -8.6689991,-3.979644 -8.6689991,-8.922969 V 18.848138 c 0,-4.943325 3.8663731,-8.922969 8.6689991,-8.922969 z" />
      <path
         id="lpe_path-effect1980"
         style="fill:#333333;fill-opacity:1"
         class="powerclip"
         d="M 2.0757722,2.2464043 H 60.623896 V 62.216811 H 2.0757722 Z M 18.347464,9.925169 c -4.802626,0 -8.6689991,3.979644 -8.6689991,8.922969 v 26.767118 c 0,4.943325 3.8663731,8.922969 8.6689991,8.922969 h 26.00526 c 4.802625,0 8.668999,-3.979644 8.668999,-8.922969 V 18.848138 c 0,-4.943325 -3.866374,-8.922969 -8.668999,-8.922969 z" />
    </clipPath>
    <filter
       style="color-interpolation-filters:sRGB;"
       inkscape:label="Drop Shadow"
       id="filter663"
       x="-0.098870968"
       y="-0.096056853"
       width="1.2389382"
       height="1.2321374">
      <feFlood
         flood-opacity="0.301961"
         flood-color="rgb(0,0,0)"
         result="flood"
         id="feFlood653" />
      <feComposite
         in="flood"
         in2="SourceGraphic"
         operator="in"
         result="composite1"
         id="feComposite655" />
      <feGaussianBlur
         in="composite1"
         stdDeviation="2"
         result="blur"
         id="feGaussianBlur657" />
      <feOffset
         dx="2"
         dy="2"
         result="offset"
         id="feOffset659" />
      <feComposite
         in="SourceGraphic"
         in2="offset"
         operator="over"
         result="composite2"
         id="feComposite661" />
    </filter>
    <clipPath
       clipPathUnits="userSpaceOnUse"
       id="clipPath38">
      <rect
         x="0.97311002"
         y="4.6963"
         width="14.987"
         height="9.9216995"
         ry="0.29919001"
         fill="#fffffc"
         id="rect40"
         style="display:block;opacity:0.85;fill:#f2f2f2;stroke-width:0.999999" />
    </clipPath>
    <inkscape:path-effect
       effect="powerclip"
       id="path-effect42"
       is_visible="true"
       lpeversion="1"
       inverse="true"
       flatten="false"
       hide_clip="false"
       message="Use fill-rule evenodd on &lt;b&gt;fill and stroke&lt;/b&gt; dialog if no flatten result after convert clip to paths." />
    <clipPath
       clipPathUnits="userSpaceOnUse"
       id="clipPath30">
      <path
         id="path32"
         style="color:#000000;display:block;opacity:0.85;fill:#f5f7fa;stroke-linecap:round;-inkscape-stroke:none"
         d="m 27.902344,19.023438 c -5.140587,0.01596 -9.820748,0.752518 -13.330078,2.15625 a 2.5,2.5 0 0 0 -1.392578,3.248046 2.5,2.5 0 0 0 3.248046,1.392578 c 3.180816,-1.272325 8.839301,-2.056673 14.796875,-1.699218 5.957575,0.357454 12.260098,1.820223 17.035157,4.548828 a 2.5,2.5 0 0 0 3.410156,-0.929688 2.5,2.5 0 0 0 -0.929688,-3.410156 c -5.72493,-3.271389 -12.67243,-4.808627 -19.214843,-5.201172 -1.226703,-0.0736 -2.436758,-0.109153 -3.623047,-0.105468 z m -1.240235,9.966796 c -1.05657,-0.0087 -2.093217,0.01082 -3.097656,0.05859 -2.678505,0.127409 -5.127438,0.45996 -7.113281,1.027344 a 2,2 0 0 0 -1.375,2.472656 2,2 0 0 0 2.472656,1.375 c 3.028306,-0.86523 8.701737,-1.165792 14.148438,-0.68164 5.4467,0.484152 10.812065,1.834345 13.193359,3.421874 a 2,2 0 0 0 2.773437,-0.554687 2,2 0 0 0 -0.554687,-2.773437 C 43.490675,30.923467 37.856023,29.773657 32.052734,29.257808 30.239207,29.096607 28.42306,29.004783 26.662109,28.99023 Z m 0.917969,8.988282 c -3.813243,-0.0048 -7.379665,0.410834 -10.064453,1.082031 a 2,2 0 0 0 -1.455078,2.423828 2,2 0 0 0 2.423828,1.455078 c 5.391278,-1.347819 17.438862,-1.241506 23.621094,1.849609 a 2,2 0 0 0 2.683593,-0.894531 2,2 0 0 0 -0.894531,-2.683593 c -3.908877,-1.954439 -8.851018,-2.904387 -13.642578,-3.160157 -0.898417,-0.04796 -1.791896,-0.07116 -2.671875,-0.07227 z" />
    </clipPath>
    <inkscape:path-effect
       effect="powerclip"
       id="path-effect34"
       is_visible="true"
       lpeversion="1"
       inverse="true"
       flatten="false"
       hide_clip="false"
       message="Use fill-rule evenodd on &lt;b&gt;fill and stroke&lt;/b&gt; dialog if no flatten result after convert clip to paths." />
    <clipPath
       clipPathUnits="userSpaceOnUse"
       id="clipPath1299">
      <path
         style="color:#000000;display:block;opacity:0.85;fill:#f5f7fa;-inkscape-stroke:none"
         d="m 24.149464,39.847234 c 1.129182,1.129183 1.129024,2.947446 -3.54e-4,4.076824 L 11.920405,56.152763 c -1.129378,1.129378 -2.9476414,1.129536 -4.0768237,3.54e-4 -1.1291824,-1.129183 -1.1290247,-2.947446 3.535e-4,-4.076825 L 20.072639,39.847588 c 1.129379,-1.129378 2.947642,-1.129536 4.076825,-3.54e-4 z"
         id="path1301" />
    </clipPath>
    <inkscape:path-effect
       effect="powerclip"
       id="path-effect1303"
       is_visible="true"
       lpeversion="1"
       inverse="true"
       flatten="false"
       hide_clip="false"
       message="Use fill-rule evenodd on &lt;b&gt;fill and stroke&lt;/b&gt; dialog if no flatten result after convert clip to paths." />
    <clipPath
       clipPathUnits="userSpaceOnUse"
       id="clipPath835">
      <path
         style="fill:#366adb"
         d="m 32,17.466694 v 15.261759 c -1.345739,-0.476141 -2.698156,-0.725645 -4.199935,-0.727989 -5.412306,0 -9.799847,3.133957 -9.799847,6.999891 0,3.865934 4.387541,6.999891 9.799847,6.999891 5.412306,0 10.199842,-3.133957 10.199842,-6.999891 V 22.000621 c 0,0 2.818336,2.432481 3.768941,4.955137 0.485882,1.289406 0.484445,2.60237 -0.631998,3.626114 -0.906512,0.519986 -1.203761,1.323663 -1.044514,2.023403 0.241826,1.062613 1.53443,1.888098 3.330416,1.123812 2.698508,-1.40694 3.576015,-3.929235 3.576015,-6.029204 0,-6.299902 -7.998876,-11.699817 -13.598789,-11.699817 C 32,16.000066 32,17.466694 32,17.466694 Z"
         id="path837" />
    </clipPath>
    <clipPath
       clipPathUnits="userSpaceOnUse"
       id="clipath_lpe_path-effect15-3">
      <path
         id="path18794"
         style="display:block;opacity:0.85;fill:#f5f7fa;stroke-width:1.14168"
         d="m 22.994141,9.2851562 c -2.426789,0 -4.550782,2.1396028 -4.550782,4.5839848 0,2.444382 2.123925,4.582031 4.550782,4.582031 2.426789,0 4.548828,-2.137649 4.548828,-4.582031 0,-2.444382 -2.122039,-4.5839848 -4.548828,-4.5839848 z m 15.925781,0 c -2.426791,0 -4.550781,2.1396028 -4.550781,4.5839848 0,2.444382 2.123922,4.582031 4.550781,4.582031 2.426789,0 4.548828,-2.137649 4.548828,-4.582031 0,-2.444382 -2.122039,-4.5839848 -4.548828,-4.5839848 z M 11.617188,23.035156 c -2.4268575,0 -4.5488286,2.138846 -4.5488286,4.583985 0,2.445137 2.1219711,4.582031 4.5488286,4.582031 2.426857,0 4.550781,-2.136894 4.550781,-4.582031 0,-2.445139 -2.123924,-4.583985 -4.550781,-4.583985 z m 38.677734,0 c -2.42679,0 -4.550781,2.139602 -4.550781,4.583985 0,2.444381 2.123923,4.582031 4.550781,4.582031 2.42679,0 4.550781,-2.13765 4.550781,-4.582031 0,-2.444383 -2.123991,-4.583985 -4.550781,-4.583985 z" />
    </clipPath>
    <inkscape:path-effect
       effect="powerclip"
       id="path-effect15-3"
       is_visible="true"
       lpeversion="1"
       inverse="true"
       flatten="false"
       hide_clip="false"
       message="Use fill-rule evenodd on &lt;b&gt;fill and stroke&lt;/b&gt; dialog if no flatten result after convert clip to paths." />
    <clipPath
       clipPathUnits="userSpaceOnUse"
       id="clipPath601">
      <ellipse
         style="display:none;fill:#666666;stroke:none;stroke-width:1.2408"
         id="ellipse603"
         cx="32.192383"
         cy="38.023426"
         rx="10.958354"
         ry="10.907267" />
    </clipPath>
    <inkscape:path-effect
       effect="powerclip"
       id="path-effect605"
       is_visible="true"
       lpeversion="1"
       inverse="true"
       flatten="false"
       hide_clip="false"
       message="Use fill-rule evenodd on &lt;b&gt;fill and stroke&lt;/b&gt; dialog if no flatten result after convert clip to paths." />
    <clipPath
       clipPathUnits="userSpaceOnUse"
       id="clipPath601-3">
      <ellipse
         style="display:none;fill:#666666;stroke:none;stroke-width:1.2408"
         id="ellipse603-6"
         cx="32.192383"
         cy="38.023426"
         rx="10.958354"
         ry="10.907267"
         d="M 43.150737,38.023426 A 10.958354,10.907267 0 0 1 32.192383,48.930693 10.958354,10.907267 0 0 1 21.234029,38.023426 10.958354,10.907267 0 0 1 32.192383,27.116159 10.958354,10.907267 0 0 1 43.150737,38.023426 Z" />
      <path
         id="lpe_path-effect605"
         style="fill:#666666;stroke:none;stroke-width:1.2408"
         class="powerclip"
         d="M -3.0605469,4.4863281 H 67.306641 V 58.824219 H -3.0605469 Z M 43.150737,38.023426 A 10.958354,10.907267 0 0 0 32.192383,27.116159 10.958354,10.907267 0 0 0 21.234029,38.023426 10.958354,10.907267 0 0 0 32.192383,48.930693 10.958354,10.907267 0 0 0 43.150737,38.023426 Z" />
    </clipPath>
    <inkscape:path-effect
       effect="powerclip"
       id="path-effect605-7"
       is_visible="true"
       lpeversion="1"
       inverse="true"
       flatten="false"
       hide_clip="false"
       message="Use fill-rule evenodd on &lt;b&gt;fill and stroke&lt;/b&gt; dialog if no flatten result after convert clip to paths." />
    <clipPath
       clipPathUnits="userSpaceOnUse"
       id="clipath_lpe_path-effect605-7">
      <ellipse
         style="display:none;fill:#666666;stroke:none;stroke-width:1.2408"
         id="ellipse2622"
         cx="32.192383"
         cy="38.023426"
         rx="10.958354"
         ry="10.907267" />
    </clipPath>
    <clipPath
       clipPathUnits="userSpaceOnUse"
       id="clipPath44">
      <path
         id="path46"
         style="display:block;opacity:0.85;fill:#f2f2f2;stroke-width:4.39162"
         d="m 17.570312,8.4453125 a 6.5431988,7.4283052 9.9958727e-8 0 0 -6.535156,7.4394535 6.5431988,7.4283052 9.9958727e-8 0 0 6.552735,7.417968 6.5431988,7.4283052 9.9958727e-8 0 0 6.535156,-7.4375 6.5431988,7.4283052 9.9958727e-8 0 0 -6.552735,-7.4199215 z M 45.646484,41.177734 a 6.5431986,7.0703472 2.4665357e-6 0 0 -6.533203,7.080078 6.5431986,7.0703472 2.4665357e-6 0 0 6.550781,7.060547 6.5431986,7.0703472 2.4665357e-6 0 0 6.535157,-7.080078 6.5431986,7.0703472 2.4665357e-6 0 0 -6.552735,-7.060547 z" />
    </clipPath>
    <inkscape:path-effect
       effect="powerclip"
       id="path-effect48"
       is_visible="true"
       lpeversion="1"
       inverse="true"
       flatten="false"
       hide_clip="false"
       message="Use fill-rule evenodd on &lt;b&gt;fill and stroke&lt;/b&gt; dialog if no flatten result after convert clip to paths." />
    <clipPath
       clipPathUnits="userSpaceOnUse"
       id="clipPath191">
      <g
         id="g195"
         style="display:block">
        <path
           id="path193"
           style="color:#000000;opacity:0.85;fill:#f5f7fa;stroke-width:2.97138;-inkscape-stroke:none"
           d="m 20.630859,13.712891 c -3.468166,-0.0017 -6.260369,2.787692 -6.259765,6.255859 6.04e-4,3.468166 2.793552,6.26197 6.261718,6.263672 l 22.275391,0.01172 c 3.468167,0.0017 6.26037,-2.789647 6.259766,-6.257813 -6.04e-4,-3.468167 -2.793552,-6.26197 -6.261719,-6.263672 z m 0.132813,17.759765 c -3.542387,-0.0017 -6.393071,2.848239 -6.392578,6.390625 4.93e-4,3.542386 2.852144,6.394827 6.394531,6.396485 l 22.007813,0.01172 c 3.542385,0.0017 6.395024,-2.850192 6.394531,-6.392578 -4.93e-4,-3.542386 -2.854099,-6.394826 -6.396485,-6.396484 z" />
      </g>
    </clipPath>
    <inkscape:path-effect
       effect="powerclip"
       id="path-effect197"
       is_visible="true"
       lpeversion="1"
       inverse="true"
       flatten="false"
       hide_clip="false"
       message="Use fill-rule evenodd on &lt;b&gt;fill and stroke&lt;/b&gt; dialog if no flatten result after convert clip to paths." />
    <clipPath
       clipPathUnits="userSpaceOnUse"
       id="clipPath114">
      <path
         id="path116"
         style="display:block;opacity:0.85;fill:#f5f7fa;stroke-width:2.34555"
         d="m 11.661568,15.1628 0.05338,1.76568 -3.0575358,0.03083 -0.053383,-1.76568 z M 11.68801,4.5505411 V 13.393011 H 8.5771041 V 4.5505411 Z" />
    </clipPath>
    <inkscape:path-effect
       effect="powerclip"
       id="path-effect118"
       is_visible="true"
       lpeversion="1"
       inverse="true"
       flatten="false"
       hide_clip="false"
       message="Use fill-rule evenodd on &lt;b&gt;fill and stroke&lt;/b&gt; dialog if no flatten result after convert clip to paths." />
    <clipPath
       clipPathUnits="userSpaceOnUse"
       id="clipPath6348">
      <rect
         style="display:block;opacity:1;fill:#f5f7fa;fill-opacity:1;stroke:none;stroke-width:0.81953;stroke-opacity:1"
         id="rect6350"
         width="49.927536"
         height="8.2595568"
         x="7.2316799"
         y="44.626305"
         ry="4.1297784" />
    </clipPath>
    <inkscape:path-effect
       effect="powerclip"
       id="path-effect6352"
       is_visible="true"
       lpeversion="1"
       inverse="true"
       flatten="false"
       hide_clip="false"
       message="Use fill-rule evenodd on &lt;b&gt;fill and stroke&lt;/b&gt; dialog if no flatten result after convert clip to paths." />
    <clipPath
       clipPathUnits="userSpaceOnUse"
       id="clipPath133">
      <path
         style="display:block;fill:#676767;stroke-width:1.08686"
         d="m 32.488464,17.537929 c -1.948585,-2.94e-4 -3.897273,0.360273 -5.339266,1.078703 L 5.2713661,29.514817 c -2.8839879,1.436862 -2.8813095,3.883396 0.00261,5.320257 L 27.14912,45.733256 c 2.883988,1.43686 7.794548,1.43686 10.678532,0 L 59.702804,34.835074 c 2.883982,-1.436857 2.881265,-3.883402 -0.0026,-5.320257 L 37.827728,18.616632 c -1.441993,-0.71843 -3.390677,-1.078408 -5.339264,-1.078703 z"
         id="path135"
         clip-path="url(#clipPath62)" />
    </clipPath>
    <inkscape:path-effect
       effect="powerclip"
       id="path-effect137"
       is_visible="true"
       lpeversion="1"
       inverse="true"
       flatten="false"
       hide_clip="false"
       message="Use fill-rule evenodd on &lt;b&gt;fill and stroke&lt;/b&gt; dialog if no flatten result after convert clip to paths." />
    <clipPath
       clipPathUnits="userSpaceOnUse"
       id="clipath_lpe_path-effect125">
      <path
         style="display:block;fill:#29292a;stroke-width:1.08686"
         d="M 32.488464,2.9014445 C 30.539879,2.9011484 28.591191,3.2617158 27.149198,3.9801462 L 5.2713661,14.878331 c -2.8839879,1.436858 -2.8813095,3.883396 0.00261,5.320256 L 27.14912,31.096772 c 2.883988,1.436859 7.794548,1.436855 10.678532,0 L 59.702804,20.198587 c 2.883982,-1.436855 2.881265,-3.8834 -0.0026,-5.320256 L 37.827728,3.9801462 C 36.385735,3.2617158 34.437051,2.9017372 32.488464,2.9014445 Z"
         id="path127" />
    </clipPath>
    <inkscape:path-effect
       effect="powerclip"
       id="path-effect125"
       is_visible="true"
       lpeversion="1"
       inverse="true"
       flatten="false"
       hide_clip="false"
       message="Use fill-rule evenodd on &lt;b&gt;fill and stroke&lt;/b&gt; dialog if no flatten result after convert clip to paths." />
    <clipPath
       clipPathUnits="userSpaceOnUse"
       id="clipath_lpe_path-effect682-5">
      <path
         id="path2314"
         d="m 189.32699,134.40316 c 0,-14.52214 11.86852,-26.39066 26.39065,-26.39066 h 80.56472 c 14.52214,0 26.39066,11.86852 26.39066,26.39066 v 91.67093 c 0,14.52214 -11.86852,26.35495 -26.39066,26.35495 h -80.56472 c -14.52213,0 -26.39065,-11.83281 -26.39065,-26.35495 z"
         style="color:#000000;font-style:normal;font-variant:normal;font-weight:normal;font-stretch:normal;font-size:medium;line-height:normal;font-family:Sans;-inkscape-font-specification:Sans;text-indent:0;text-align:start;text-decoration:none;text-decoration-line:none;letter-spacing:normal;word-spacing:normal;text-transform:none;writing-mode:lr-tb;direction:ltr;baseline-shift:baseline;text-anchor:start;display:block;overflow:visible;visibility:visible;fill:url(#linearGradient680);fill-opacity:1;fill-rule:nonzero;stroke:none;stroke-width:11.1102;marker:none;enable-background:accumulate"
         inkscape:connector-curvature="0" />
    </clipPath>
    <inkscape:path-effect
       effect="powerclip"
       id="path-effect682-5"
       is_visible="true"
       lpeversion="1"
       inverse="true"
       flatten="false"
       hide_clip="false"
       message="Use fill-rule evenodd on &lt;b&gt;fill and stroke&lt;/b&gt; dialog if no flatten result after convert clip to paths." />
    <clipPath
       clipPathUnits="userSpaceOnUse"
       id="clipPath119">
      <path
         id="path121"
         style="display:block;opacity:0.85;fill:#f5f7fa"
         d="m 18,24 c -3.3144,0 -6,2.6856 -6,6 0,3.3144 2.6856,6 6,6 3.3144,0 6,-2.6856 6,-6 0,-3.3144 -2.6856,-6 -6,-6 z m 28,0 c -3.3144,0 -6,2.6856 -6,6 0,3.3144 2.6856,6 6,6 3.3144,0 6,-2.6856 6,-6 0,-3.3144 -2.6856,-6 -6,-6 z m -14,4 c -1.108,0 -2,0.892 -2,2 v 4 c 0,1.108 0.892,2 2,2 1.108,0 2,-0.892 2,-2 v -4 c 0,-1.108 -0.892,-2 -2,-2 z M 8,40 v 2 h 8 v 3 a 1.0001,1.0001 0 0 0 1,1 h 10 a 1.0001,1.0001 0 0 0 1,-1 v -3 h 4 4 v 3 a 1.0001,1.0001 0 0 0 1,1 h 10 a 1.0001,1.0001 0 0 0 1,-1 v -3 h 8 v -2 h -9 a 1.0001,1.0001 0 0 0 -1,1 v 3 h -8 v -3 a 1.0001,1.0001 0 0 0 -1,-1 h -5 -5 a 1.0001,1.0001 0 0 0 -1,1 v 3 h -8 v -3 a 1.0001,1.0001 0 0 0 -1,-1 z" />
    </clipPath>
    <inkscape:path-effect
       effect="powerclip"
       id="path-effect123"
       is_visible="true"
       lpeversion="1"
       inverse="true"
       flatten="false"
       hide_clip="false"
       message="Use fill-rule evenodd on &lt;b&gt;fill and stroke&lt;/b&gt; dialog if no flatten result after convert clip to paths." />
    <clipPath
       clipPathUnits="userSpaceOnUse"
       id="clipPath861">
      <rect
         style="display:block;fill:#d9d9d9"
         width="44"
         height="44"
         x="10"
         y="10"
         rx="2.75"
         ry="2.75"
         id="rect863" />
    </clipPath>
    <inkscape:path-effect
       effect="powerclip"
       id="path-effect865"
       is_visible="true"
       lpeversion="1"
       inverse="true"
       flatten="false"
       hide_clip="false"
       message="Use fill-rule evenodd on &lt;b&gt;fill and stroke&lt;/b&gt; dialog if no flatten result after convert clip to paths." />
    <clipPath
       clipPathUnits="userSpaceOnUse"
       id="clipPath949">
      <circle
         style="display:none;fill:#d9d9d9"
         cx="32"
         cy="32"
         r="5"
         id="circle951" />
    </clipPath>
    <inkscape:path-effect
       effect="powerclip"
       id="path-effect953"
       is_visible="true"
       lpeversion="1"
       inverse="true"
       flatten="false"
       hide_clip="false"
       message="Use fill-rule evenodd on &lt;b&gt;fill and stroke&lt;/b&gt; dialog if no flatten result after convert clip to paths." />
    <clipPath
       clipPathUnits="userSpaceOnUse"
       id="clipPath37">
      <path
         id="path39"
         style="display:block;fill:#676767"
         d="M 36,4 V 19.1875 C 36,20.74675 37.2555,22 38.8125,22 H 54 Z M 20,31 v 3 h 24 v -3 z m 0,6 v 3 h 24 v -3 z m 0,6 v 3 h 24 v -3 z m 0,6 v 3 h 15 v -3 z" />
    </clipPath>
    <inkscape:path-effect
       effect="powerclip"
       id="path-effect41"
       is_visible="true"
       lpeversion="1"
       inverse="true"
       flatten="false"
       hide_clip="false"
       message="Use fill-rule evenodd on &lt;b&gt;fill and stroke&lt;/b&gt; dialog if no flatten result after convert clip to paths." />
    <clipPath
       clipPathUnits="userSpaceOnUse"
       id="clipPath9">
      <path
         style="display:block;opacity:0.85;fill:#f5f7fa;stroke-width:1.00584"
         d="m 26.67081,4.1295963 c -0.718533,0.1334686 -1.431824,0.2999099 -2.137912,0.4898048 -0.898744,0.2519797 -1.788266,0.5472375 -2.657578,0.8886041 -0.869231,0.3415678 -1.717051,0.7260084 -2.548123,1.1535255 -0.831052,0.4277186 -1.642372,0.8970977 -2.427059,1.406112 -0.784868,0.5096224 -1.544,1.0570628 -2.274581,1.6431279 -0.730557,0.5856624 -1.429703,1.2075234 -2.098686,1.8641664 -0.08599,0.091 -0.173194,0.184031 -0.257958,0.276652 0.533597,3.701235 3.168444,8.150923 6.018725,11.703316 a 16.00831,16.178488 0 0 0 -2.302396,8.493707 16.00831,16.178488 0 0 0 0.03517,1.003269 C 11.829442,30.739974 7.5610263,27.123475 5.5892023,22.853366 5.4860129,23.125974 5.383056,23.39939 5.2882661,23.67503 c -0.2755625,0.900334 -0.5026206,1.81341 -0.6878576,2.737201 -0.185346,0.923586 -0.325008,1.855064 -0.4181771,2.792608 -0.093045,0.937947 -0.1407816,1.877511 -0.1406961,2.820112 -1.04e-4,0.667161 0.023748,1.33695 0.070351,2.002492 0.066098,0.940173 0.1774601,1.875492 0.3361142,2.804341 0.1464949,0.832583 0.3313524,1.656677 0.5510667,2.472678 3.4343837,1.382655 8.5514418,1.308232 13.0185578,0.592538 A 16.00831,16.178488 0 0 0 24.904,46.532606 c -4.075516,2.513127 -9.314636,4.444637 -13.960444,4.036735 0.324086,0.393946 0.659622,0.777579 1.004419,1.153325 0.64978,0.676058 1.334616,1.320366 2.047864,1.927466 0.713268,0.607297 1.454131,1.177993 2.223752,1.710265 0.76972,0.532273 1.565593,1.025516 2.384039,1.4773 0.818463,0.451784 1.65792,0.861302 2.516906,1.228351 0.859104,0.367051 1.735302,0.693249 2.626363,0.971723 0.336856,0.09303 0.67607,0.175938 1.016146,0.256832 2.892903,-2.312714 5.379198,-6.821458 6.995833,-11.079434 a 16.00831,16.178488 0 0 0 0.234502,0.02024 16.00831,16.178488 0 0 0 8.891415,-2.741244 c 0.118034,4.831099 -0.844617,10.39751 -3.525229,14.266798 0.718535,-0.133468 1.431823,-0.295865 2.137912,-0.485759 0.898747,-0.252182 1.784365,-0.55128 2.653777,-0.892647 0.86923,-0.341569 1.720952,-0.725807 2.552124,-1.153324 0.831052,-0.427517 1.638451,-0.896895 2.423058,-1.406114 0.784869,-0.509219 1.544005,-1.057061 2.274581,-1.643128 0.73056,-0.58566 1.433607,-1.207925 2.102693,-1.864368 0.08598,-0.091 0.173193,-0.184031 0.257955,-0.276451 -0.53418,-3.705479 -3.176649,-8.157194 -6.030533,-11.711404 a 16.00831,16.178488 0 0 0 2.269178,-8.291475 16.00831,16.178488 0 0 0 -0.03518,-1.07041 c 4.204784,2.310287 8.49541,5.941347 10.474237,10.226018 0.103177,-0.272607 0.202244,-0.545822 0.297033,-0.821462 0.275545,-0.900535 0.506545,-1.813609 0.69176,-2.737199 0.185338,-0.923588 0.32501,-1.858907 0.418179,-2.796453 0.09302,-0.938149 0.136874,-1.881556 0.13679,-2.824155 1.04e-4,-0.667163 -0.01982,-1.333107 -0.06643,-1.998651 C 59.85061,29.073606 59.739227,28.13849 59.580587,27.209641 59.433598,26.373217 59.2465,25.54488 59.025624,24.725237 54.868463,23.227715 49.919693,23.489402 45.944632,24.144632 A 16.00831,16.178488 0 0 0 39.06986,17.544414 C 43.152781,15.014498 48.414312,13.062158 53.081136,13.47208 52.757048,13.077932 52.421513,12.694502 52.076714,12.318757 51.42694,11.642693 50.749907,10.998386 50.036657,10.391287 49.323381,9.7839779 48.578611,9.2171254 47.808895,8.6848534 47.039173,8.1527827 46.243301,7.6554965 45.424855,7.2037122 44.60639,6.7517269 43.763032,6.3424099 42.903945,5.9753603 42.044839,5.6081093 41.168666,5.2861578 40.277582,5.0076843 39.943531,4.9146562 39.610395,4.827699 39.273161,4.7470097 36.368453,7.0676103 33.871557,11.598801 32.253917,15.869718 a 16.00831,16.178488 0 0 0 -0.260137,0 16.00831,16.178488 0 0 0 -8.852194,2.709494 C 23.021653,13.745281 23.987847,8.1734109 26.670819,4.3006842 Z"
         id="path11" />
    </clipPath>
    <inkscape:path-effect
       effect="powerclip"
       id="path-effect13"
       is_visible="true"
       lpeversion="1"
       inverse="true"
       flatten="false"
       hide_clip="false"
       message="Use fill-rule evenodd on &lt;b&gt;fill and stroke&lt;/b&gt; dialog if no flatten result after convert clip to paths." />
    <clipPath
       clipPathUnits="userSpaceOnUse"
       id="clipPath5211">
      <g
         style="display:none;opacity:0.4;fill:#f5f7fa"
         id="g5229">
        <rect
           width="2"
           height="6"
           x="23"
           y="14"
           id="rect5213"
           d="m 23,14 h 2 v 6 h -2 z" />
        <rect
           width="2"
           height="6"
           x="23"
           y="22"
           id="rect5215"
           d="m 23,22 h 2 v 6 h -2 z" />
        <rect
           width="2"
           height="12"
           x="23"
           y="30"
           id="rect5217"
           d="m 23,30 h 2 v 12 h -2 z" />
        <rect
           width="2"
           height="16"
           x="31"
           y="14"
           id="rect5219"
           d="m 31,14 h 2 v 16 h -2 z" />
        <rect
           width="2"
           height="16"
           x="31"
           y="32"
           id="rect5221"
           d="m 31,32 h 2 v 16 h -2 z" />
        <rect
           width="2"
           height="12"
           x="39"
           y="14"
           id="rect5223"
           d="m 39,14 h 2 v 12 h -2 z" />
        <rect
           width="2"
           height="6"
           x="39"
           y="28"
           id="rect5225"
           d="m 39,28 h 2 v 6 h -2 z" />
        <rect
           width="2"
           height="14"
           x="39"
           y="36"
           id="rect5227"
           d="m 39,36 h 2 v 14 h -2 z" />
      </g>
      <path
         id="lpe_path-effect5231"
         style="opacity:0.4;fill:#f5f7fa"
         class="powerclip"
         d="M 9,3 H 55 V 61 H 9 Z m 14,11 v 6 h 2 v -6 z m 0,8 v 6 h 2 v -6 z m 0,8 v 12 h 2 V 30 Z m 8,-16 v 16 h 2 V 14 Z m 0,18 v 16 h 2 V 32 Z m 8,-18 v 12 h 2 V 14 Z m 0,14 v 6 h 2 v -6 z m 0,8 v 14 h 2 V 36 Z" />
    </clipPath>
    <inkscape:path-effect
       effect="powerclip"
       id="path-effect5231"
       is_visible="true"
       lpeversion="1"
       inverse="true"
       flatten="false"
       hide_clip="false"
       message="Use fill-rule evenodd on &lt;b&gt;fill and stroke&lt;/b&gt; dialog if no flatten result after convert clip to paths." />
  </defs>
  <circle
     cx="32.516094"
     cy="31.877844"
     r="0"
     fill="url(#b)"
     stroke-width="1.5715"
     id="circle41"
     style="fill:url(#b)" />
  <g
     aria-label="GZ"
     transform="matrix(1.2212657,0,0,0.81882264,0.4960938,-0.1661539)"
     id="text93"
     style="font-weight:bold;font-size:11.5263px;line-height:1.25;font-family:sans-serif;-inkscape-font-specification:'sans-serif Bold';fill:#f2f2f2;stroke-width:0.288159" />
  <g
     id="g877"
     transform="matrix(1.1,0,0,1.1,-3.1845928,-3.2065454)">
    <path
       d="m 18.347203,7.2464043 c -6.244452,0 -11.2714308,5.1741617 -11.2714308,11.6016437 v 26.767119 c 0,6.427394 5.0268918,11.601644 11.2714308,11.601644 h 26.005262 c 6.244452,0 11.271431,-5.174161 11.271431,-11.601644 V 18.848048 c 0,-6.427393 -5.026893,-11.6016437 -11.271431,-11.6016437 z"
       fill="url(#linearGradient910)"
       stroke-width="3.32418"
       id="path33"
       style="fill:#578376;fill-opacity:1"
       clip-path="url(#clipPath1976)"
       inkscape:path-effect="#path-effect1980"
       inkscape:original-d="m 18.347203,7.2464043 c -6.244452,0 -11.2714308,5.1741617 -11.2714308,11.6016437 v 26.767119 c 0,6.427394 5.0268918,11.601644 11.2714308,11.601644 h 26.005262 c 6.244452,0 11.271431,-5.174161 11.271431,-11.601644 V 18.848048 c 0,-6.427393 -5.026893,-11.6016437 -11.271431,-11.6016437 z"
       transform="matrix(1.1,0,0,1.1,-2.6388896,-3.3893147)" />
    <rect
       x="8.0073938"
       y="7.5283623"
       width="47.677586"
       height="49.074364"
       rx="9.5358982"
       ry="9.8152657"
       fill="url(#linearGradient862)"
       stroke-width="3.26449"
       id="rect35-7"
       style="opacity:1;fill:#f5f7fa;fill-opacity:1" />
    <rect
       x="10.391273"
       y="9.9820805"
       width="42.909828"
       height="44.166924"
       rx="8.5823088"
       ry="8.8337393"
       fill="url(#linearGradient862)"
       stroke-width="2.93805"
       id="rect35-7-3"
       style="fill:#578376;fill-opacity:1" />
  </g>
  <g
     id="g5329"
     transform="matrix(0.6561,0,0,0.6561,10.954166,10.880246)"
     style="fill:#f5f7fa;fill-opacity:1">
    <g
       style="fill:#f5f7fa;fill-opacity:1"
       id="g5179"
       transform="matrix(0.13395557,0,0,1,3.9258275,-0.01795751)">
      <rect
         width="40"
         height="5"
         x="12"
         y="12"
         id="rect5169"
         style="fill:#f5f7fa;fill-opacity:1" />
      <rect
         width="40"
         height="5"
         x="12"
         y="21"
         id="rect5171"
         style="fill:#f5f7fa;fill-opacity:1" />
      <rect
         width="40"
         height="5"
         x="12"
         y="30"
         id="rect5173"
         style="fill:#f5f7fa;fill-opacity:1" />
      <rect
         width="40"
         height="5"
         x="12"
         y="39"
         id="rect5175"
         style="fill:#f5f7fa;fill-opacity:1" />
      <rect
         width="40"
         height="5"
         x="12"
         y="48"
         id="rect5177"
         style="fill:#f5f7fa;fill-opacity:1" />
    </g>
    <g
       style="fill:#f5f7fa;fill-opacity:1"
       id="g5179-5"
       transform="matrix(0.13395557,0,0,1,51.351033,-0.02328762)">
      <rect
         width="40"
         height="5"
         x="12"
         y="12"
         id="rect5169-3"
         style="fill:#f5f7fa;fill-opacity:1" />
      <rect
         width="40"
         height="5"
         x="12"
         y="21"
         id="rect5171-5"
         style="fill:#f5f7fa;fill-opacity:1" />
      <rect
         width="40"
         height="5"
         x="12"
         y="30"
         id="rect5173-6"
         style="fill:#f5f7fa;fill-opacity:1" />
      <rect
         width="40"
         height="5"
         x="12"
         y="39"
         id="rect5175-2"
         style="fill:#f5f7fa;fill-opacity:1" />
      <rect
         width="40"
         height="5"
         x="12"
         y="48"
         id="rect5177-9"
         style="fill:#f5f7fa;fill-opacity:1" />
    </g>
    <path
       style="fill:#f5f7fa;fill-opacity:1"
       width="36"
       height="48"
       x="14"
       y="8"
       rx="2.5"
       ry="2.5"
       id="rect5183"
       clip-path="url(#clipPath5211)"
       inkscape:path-effect="#path-effect5231"
       d="m 16.5,8 h 31 c 1.385,0 2.5,1.115 2.5,2.5 v 43 c 0,1.385 -1.115,2.5 -2.5,2.5 h -31 C 15.115,56 14,54.885 14,53.5 v -43 C 14,9.115 15.115,8 16.5,8 Z"
       sodipodi:type="rect" />
  </g>
  <g
     id="g319"
     transform="matrix(0.81,0,0,0.81,6.3279091,5.6171621)"
     style="fill:#f5f7fa;fill-opacity:1">
    <g
       id="g311"
       style="fill:#f5f7fa;fill-opacity:1" />
  </g>
</svg>
