<?xml version="1.0" encoding="UTF-8" standalone="no"?>
<svg
   width="64"
   height="64"
   version="1.1"
   id="svg73"
   sodipodi:docname="boxes.svg"
   inkscape:version="1.2.2 (1:1.2.2+202212051550+b0a8486541)"
   xmlns:inkscape="http://www.inkscape.org/namespaces/inkscape"
   xmlns:sodipodi="http://sodipodi.sourceforge.net/DTD/sodipodi-0.dtd"
   xmlns="http://www.w3.org/2000/svg"
   xmlns:svg="http://www.w3.org/2000/svg"
   xmlns:rdf="http://www.w3.org/1999/02/22-rdf-syntax-ns#"
   xmlns:cc="http://creativecommons.org/ns#"
   xmlns:dc="http://purl.org/dc/elements/1.1/">
  <metadata
     id="metadata77">
    <rdf:RDF>
      <cc:Work
         rdf:about="">
        <dc:format>image/svg+xml</dc:format>
        <dc:type
           rdf:resource="http://purl.org/dc/dcmitype/StillImage" />
      </cc:Work>
    </rdf:RDF>
  </metadata>
  <sodipodi:namedview
     pagecolor="#f5f7fa"
     bordercolor="#666666"
     borderopacity="1"
     objecttolerance="10"
     gridtolerance="10"
     guidetolerance="10"
     inkscape:pageopacity="0"
     inkscape:pageshadow="2"
     inkscape:window-width="1377"
     inkscape:window-height="886"
     id="namedview75"
     showgrid="false"
     inkscape:zoom="6.2890625"
     inkscape:cx="-0.47701863"
     inkscape:cy="38.4"
     inkscape:window-x="227"
     inkscape:window-y="114"
     inkscape:window-maximized="0"
     inkscape:current-layer="svg73"
     inkscape:document-rotation="0"
     inkscape:pagecheckerboard="0"
     inkscape:showpageshadow="2"
     inkscape:deskcolor="#d1d1d1" />
  <defs
     id="defs29">
    <inkscape:path-effect
       effect="powerclip"
       id="path-effect1980"
       is_visible="true"
       lpeversion="1"
       inverse="true"
       flatten="false"
       hide_clip="false"
       message="Use fill-rule evenodd on &lt;b&gt;fill and stroke&lt;/b&gt; dialog if no flatten result after convert clip to paths." />
    <linearGradient
       id="b"
       x1="399.57"
       x2="399.57"
       y1="545.8"
       y2="517.8"
       gradientTransform="matrix(2.1429,0,0,2.1429,-825.86391,-1107.6662)"
       gradientUnits="userSpaceOnUse">
      <stop
         stop-color="#3889e9"
         offset="0"
         id="stop2" />
      <stop
         stop-color="#5ea5fb"
         offset="1"
         id="stop4" />
    </linearGradient>
    <linearGradient
       id="linearGradient862"
       x1="7.9373"
       x2="7.9373"
       y1="15.081"
       y2="1.852"
       gradientTransform="matrix(3.3743 0 0 3.3743 3.4312 3.4278)"
       gradientUnits="userSpaceOnUse">
      <stop
         stop-color="#f1efeb"
         offset="0"
         id="stop7" />
      <stop
         stop-color="#fff"
         offset="1"
         id="stop9" />
    </linearGradient>
    <linearGradient
       id="linearGradient910"
       x1="7.9373"
       x2="7.9373"
       y1="15.081"
       y2="1.852"
       gradientTransform="scale(3.7796)"
       gradientUnits="userSpaceOnUse">
      <stop
         stop-color="#613583"
         offset="0"
         id="stop12" />
      <stop
         stop-color="#a663c0"
         offset="1"
         id="stop14" />
    </linearGradient>
    <linearGradient
       id="linearGradient932"
       x1="379.24"
       x2="374.24"
       y1="546.85"
       y2="546.85"
       gradientTransform="matrix(2.1429 0 0 2.1429 -769.68 -1134.5)"
       gradientUnits="userSpaceOnUse">
      <stop
         stop-color="#f6f5f4"
         offset="0"
         id="stop17" />
      <stop
         stop-color="#fff"
         offset=".6"
         id="stop19" />
      <stop
         stop-color="#dddbd8"
         offset="1"
         id="stop21" />
    </linearGradient>
    <linearGradient
       id="linearGradient1146"
       x1="18"
       x2="18"
       y1="52"
       y2="12"
       gradientUnits="userSpaceOnUse">
      <stop
         stop-color="#5e337f"
         offset="0"
         id="stop24" />
      <stop
         stop-color="#ab60bf"
         offset="1"
         id="stop26" />
    </linearGradient>
    <clipPath
       clipPathUnits="userSpaceOnUse"
       id="clipPath1976">
      <rect
         x="9.6784649"
         y="9.925169"
         width="43.343258"
         height="44.613056"
         rx="8.6689987"
         ry="8.9229689"
         fill="url(#linearGradient862)"
         stroke-width="2.96772"
         id="rect1978"
         style="display:none;fill:#333333;fill-opacity:1"
         d="m 18.347464,9.925169 h 26.00526 c 4.802625,0 8.668999,3.979644 8.668999,8.922969 v 26.767118 c 0,4.943325 -3.866374,8.922969 -8.668999,8.922969 h -26.00526 c -4.802626,0 -8.6689991,-3.979644 -8.6689991,-8.922969 V 18.848138 c 0,-4.943325 3.8663731,-8.922969 8.6689991,-8.922969 z" />
      <path
         id="lpe_path-effect1980"
         style="fill:#333333;fill-opacity:1"
         class="powerclip"
         d="M 2.0757722,2.2464043 H 60.623896 V 62.216811 H 2.0757722 Z M 18.347464,9.925169 c -4.802626,0 -8.6689991,3.979644 -8.6689991,8.922969 v 26.767118 c 0,4.943325 3.8663731,8.922969 8.6689991,8.922969 h 26.00526 c 4.802625,0 8.668999,-3.979644 8.668999,-8.922969 V 18.848138 c 0,-4.943325 -3.866374,-8.922969 -8.668999,-8.922969 z" />
    </clipPath>
    <filter
       style="color-interpolation-filters:sRGB;"
       inkscape:label="Drop Shadow"
       id="filter663"
       x="-0.098870968"
       y="-0.096056853"
       width="1.2389382"
       height="1.2321374">
      <feFlood
         flood-opacity="0.301961"
         flood-color="rgb(0,0,0)"
         result="flood"
         id="feFlood653" />
      <feComposite
         in="flood"
         in2="SourceGraphic"
         operator="in"
         result="composite1"
         id="feComposite655" />
      <feGaussianBlur
         in="composite1"
         stdDeviation="2"
         result="blur"
         id="feGaussianBlur657" />
      <feOffset
         dx="2"
         dy="2"
         result="offset"
         id="feOffset659" />
      <feComposite
         in="SourceGraphic"
         in2="offset"
         operator="over"
         result="composite2"
         id="feComposite661" />
    </filter>
    <clipPath
       clipPathUnits="userSpaceOnUse"
       id="clipPath38">
      <rect
         x="0.97311002"
         y="4.6963"
         width="14.987"
         height="9.9216995"
         ry="0.29919001"
         fill="#fffffc"
         id="rect40"
         style="display:block;opacity:0.85;fill:#f2f2f2;stroke-width:0.999999" />
    </clipPath>
    <inkscape:path-effect
       effect="powerclip"
       id="path-effect42"
       is_visible="true"
       lpeversion="1"
       inverse="true"
       flatten="false"
       hide_clip="false"
       message="Use fill-rule evenodd on &lt;b&gt;fill and stroke&lt;/b&gt; dialog if no flatten result after convert clip to paths." />
    <clipPath
       clipPathUnits="userSpaceOnUse"
       id="clipPath30">
      <path
         id="path32"
         style="color:#000000;display:block;opacity:0.85;fill:#f5f7fa;stroke-linecap:round;-inkscape-stroke:none"
         d="m 27.902344,19.023438 c -5.140587,0.01596 -9.820748,0.752518 -13.330078,2.15625 a 2.5,2.5 0 0 0 -1.392578,3.248046 2.5,2.5 0 0 0 3.248046,1.392578 c 3.180816,-1.272325 8.839301,-2.056673 14.796875,-1.699218 5.957575,0.357454 12.260098,1.820223 17.035157,4.548828 a 2.5,2.5 0 0 0 3.410156,-0.929688 2.5,2.5 0 0 0 -0.929688,-3.410156 c -5.72493,-3.271389 -12.67243,-4.808627 -19.214843,-5.201172 -1.226703,-0.0736 -2.436758,-0.109153 -3.623047,-0.105468 z m -1.240235,9.966796 c -1.05657,-0.0087 -2.093217,0.01082 -3.097656,0.05859 -2.678505,0.127409 -5.127438,0.45996 -7.113281,1.027344 a 2,2 0 0 0 -1.375,2.472656 2,2 0 0 0 2.472656,1.375 c 3.028306,-0.86523 8.701737,-1.165792 14.148438,-0.68164 5.4467,0.484152 10.812065,1.834345 13.193359,3.421874 a 2,2 0 0 0 2.773437,-0.554687 2,2 0 0 0 -0.554687,-2.773437 C 43.490675,30.923467 37.856023,29.773657 32.052734,29.257808 30.239207,29.096607 28.42306,29.004783 26.662109,28.99023 Z m 0.917969,8.988282 c -3.813243,-0.0048 -7.379665,0.410834 -10.064453,1.082031 a 2,2 0 0 0 -1.455078,2.423828 2,2 0 0 0 2.423828,1.455078 c 5.391278,-1.347819 17.438862,-1.241506 23.621094,1.849609 a 2,2 0 0 0 2.683593,-0.894531 2,2 0 0 0 -0.894531,-2.683593 c -3.908877,-1.954439 -8.851018,-2.904387 -13.642578,-3.160157 -0.898417,-0.04796 -1.791896,-0.07116 -2.671875,-0.07227 z" />
    </clipPath>
    <inkscape:path-effect
       effect="powerclip"
       id="path-effect34"
       is_visible="true"
       lpeversion="1"
       inverse="true"
       flatten="false"
       hide_clip="false"
       message="Use fill-rule evenodd on &lt;b&gt;fill and stroke&lt;/b&gt; dialog if no flatten result after convert clip to paths." />
    <clipPath
       clipPathUnits="userSpaceOnUse"
       id="clipPath1299">
      <path
         style="color:#000000;display:block;opacity:0.85;fill:#f5f7fa;-inkscape-stroke:none"
         d="m 24.149464,39.847234 c 1.129182,1.129183 1.129024,2.947446 -3.54e-4,4.076824 L 11.920405,56.152763 c -1.129378,1.129378 -2.9476414,1.129536 -4.0768237,3.54e-4 -1.1291824,-1.129183 -1.1290247,-2.947446 3.535e-4,-4.076825 L 20.072639,39.847588 c 1.129379,-1.129378 2.947642,-1.129536 4.076825,-3.54e-4 z"
         id="path1301" />
    </clipPath>
    <inkscape:path-effect
       effect="powerclip"
       id="path-effect1303"
       is_visible="true"
       lpeversion="1"
       inverse="true"
       flatten="false"
       hide_clip="false"
       message="Use fill-rule evenodd on &lt;b&gt;fill and stroke&lt;/b&gt; dialog if no flatten result after convert clip to paths." />
    <clipPath
       clipPathUnits="userSpaceOnUse"
       id="clipPath65">
      <rect
         style="display:block;fill:#29292a;stroke-width:1.04339"
         width="39.68671"
         height="39.611187"
         x="20.884548"
         y="-42.184746"
         rx="3.1331613"
         ry="3.1271992"
         id="rect67" />
    </clipPath>
    <inkscape:path-effect
       effect="powerclip"
       id="path-effect69"
       is_visible="true"
       lpeversion="1"
       inverse="true"
       flatten="false"
       hide_clip="false"
       message="Use fill-rule evenodd on &lt;b&gt;fill and stroke&lt;/b&gt; dialog if no flatten result after convert clip to paths." />
    <clipPath
       clipPathUnits="userSpaceOnUse"
       id="clipPath710">
      <path
         style="display:block;opacity:0.85;fill:#f2f2f2;stroke-width:1.04339"
         d="m 45.7849,-22.241466 c 2.3e-5,2.293486 0.255623,3.882312 0.766851,4.766894 0.511247,0.884476 1.696159,1.326704 2.929224,1.326704 0.982372,0 1.764262,-0.329106 2.345692,-0.98732 0.571384,-0.66847 0.857066,-1.573502 0.857066,-2.715035 0,-1.573501 -0.541306,-2.833241 -1.623895,-3.779532 -1.092639,-0.956423 -2.854029,-1.225883 -4.658312,-1.225903 h -0.616481 v 2.614254 m -1.142559,-5.662315 h 10.357593 v 3.127136 h -2.992858 c 1.0235,0.646288 1.779635,1.166507 2.270497,2.13177 0.482507,0.967347 0.722718,2.149428 0.722718,3.548329 0,1.769995 -0.480421,3.177235 -1.443345,4.227972 -0.973367,1.038231 -2.270496,1.557346 -3.893474,1.557346 -1.894561,0 -3.635854,-0.647914 -4.598154,-1.943762 -0.962299,-1.306128 -1.511183,-3.25067 -1.443468,-5.831185 v -3.771318 H 43.35133 c -1.273044,2.3e-5 -1.942633,0.431949 -2.634223,1.295827 -1.565798,2.649865 -1.238485,6.616259 0.01797,9.209019 h -2.243416 c -0.390935,-1.038732 -0.681609,-2.270202 -0.872104,-3.247201 -0.200461,-0.97702 -0.3007,-1.928334 -0.300721,-2.853881 2.1e-5,-2.49905 0.63154,-4.36578 1.89456,-5.599771 1.263059,-1.234118 2.864825,-1.851177 5.431094,-1.851198 m -14.710013,9.562975 5.222247,-4.350351 v 2.360202 l -5.221622,5.028533 v -3.039011"
         id="path712" />
    </clipPath>
    <inkscape:path-effect
       effect="powerclip"
       id="path-effect714"
       is_visible="true"
       lpeversion="1"
       inverse="true"
       flatten="false"
       hide_clip="false"
       message="Use fill-rule evenodd on &lt;b&gt;fill and stroke&lt;/b&gt; dialog if no flatten result after convert clip to paths." />
    <clipPath
       clipPathUnits="userSpaceOnUse"
       id="clipath_lpe_path-effect15-5">
      <path
         style="display:block;fill:#f5f7fa"
         d="M 32.000002,9.9999998 C 19.861159,9.9999998 10,19.861158 10,31.999998 10,44.13884 19.861159,54.000002 32.000002,54 44.138842,54 54.000008,44.13884 54,31.999998 54,19.861158 44.138842,9.9999998 32.000002,9.9999998 Z"
         id="path8108" />
    </clipPath>
    <inkscape:path-effect
       effect="powerclip"
       id="path-effect15-5"
       is_visible="true"
       lpeversion="1"
       inverse="true"
       flatten="false"
       hide_clip="false"
       message="Use fill-rule evenodd on &lt;b&gt;fill and stroke&lt;/b&gt; dialog if no flatten result after convert clip to paths." />
    <clipPath
       clipPathUnits="userSpaceOnUse"
       id="clipath_lpe_path-effect85-3">
      <path
         style="display:block;fill:#f5f7fa"
         d="m 32,30 c -1.10353,0 -2,0.89647 -2,2 0,1.10353 0.89647,2 2,2 1.10353,0 2,-0.89647 2,-2 0,-1.10353 -0.89647,-2 -2,-2 z"
         id="path8113" />
    </clipPath>
    <inkscape:path-effect
       effect="powerclip"
       id="path-effect85-3"
       is_visible="true"
       lpeversion="1"
       inverse="true"
       flatten="false"
       hide_clip="false"
       message="Use fill-rule evenodd on &lt;b&gt;fill and stroke&lt;/b&gt; dialog if no flatten result after convert clip to paths." />
    <clipPath
       clipPathUnits="userSpaceOnUse"
       id="clipPath317">
      <ellipse
         style="display:none;fill:#5599ff;stroke-width:0.765748"
         cx="32.453663"
         cy="35.526337"
         id="ellipse319"
         rx="3.8311384"
         ry="3.8263443" />
    </clipPath>
    <inkscape:path-effect
       effect="powerclip"
       id="path-effect321"
       is_visible="true"
       lpeversion="1"
       inverse="true"
       flatten="false"
       hide_clip="false"
       message="Use fill-rule evenodd on &lt;b&gt;fill and stroke&lt;/b&gt; dialog if no flatten result after convert clip to paths." />
    <clipPath
       clipPathUnits="userSpaceOnUse"
       id="clipPath29">
      <path
         id="path31"
         d="m 27.322114,17.187734 c 0.405719,-1.613556 2.028599,-2.787919 3.516238,-2.787919 h 4.057197 c 1.48764,0 2.16384,1.174363 1.622879,2.641522 L 33.313869,25.0925 h 5.815317 c 2.975279,0 3.786718,2.055929 1.893358,4.404656 l -12.990415,16.49477 c -0.946681,1.174363 -1.487641,1.027965 -1.081921,-0.585589 l 2.300494,-12.676206 h -4.733399 c -1.487639,0 -2.299078,-1.174364 -1.893359,-2.787919 z"
         style="display:block;fill:#e6e6e6;stroke-width:1.46821" />
    </clipPath>
    <inkscape:path-effect
       effect="powerclip"
       id="path-effect33"
       is_visible="true"
       lpeversion="1"
       inverse="true"
       flatten="false"
       hide_clip="false"
       message="Use fill-rule evenodd on &lt;b&gt;fill and stroke&lt;/b&gt; dialog if no flatten result after convert clip to paths." />
    <clipPath
       clipPathUnits="userSpaceOnUse"
       id="clipath_lpe_path-effect179-3">
      <path
         id="path7314"
         style="color:#000000;display:block;stroke-width:1.37326;-inkscape-stroke:none"
         d="m 37.716797,18.251953 -2.789063,4.634766 -5.269531,0.310547 2.896485,5.009765 -1.556641,5.433594 5.556641,-1.978516 4.152343,2.939453 0.08594,-5.605468 3.914062,-3.453125 -5.076172,-2.003907 z m -13.109375,10.933594 -3.292969,4.216797 -5.261719,-0.4375 2.292969,5.380859 -2.162109,5.167969 5.742187,-1.183594 3.773438,3.488281 0.728515,-5.542968 4.277344,-2.873047 -4.804687,-2.707032 z m 10.630859,3.503906 -1.417969,5.347656 -4.951171,2.013672 4.115234,3.833985 -0.03125,5.699218 4.773437,-3.710937 4.75,1.439453 -1.417968,-5.380859 2.804687,-4.576172 -5.384765,-0.257813 z" />
    </clipPath>
    <inkscape:path-effect
       effect="powerclip"
       id="path-effect179-3"
       is_visible="true"
       lpeversion="1"
       inverse="true"
       flatten="false"
       hide_clip="false"
       message="Use fill-rule evenodd on &lt;b&gt;fill and stroke&lt;/b&gt; dialog if no flatten result after convert clip to paths." />
    <clipPath
       clipPathUnits="userSpaceOnUse"
       id="clipPath65-3">
      <rect
         style="display:none;fill:#29292a;stroke-width:1.04339"
         width="39.68671"
         height="39.611187"
         x="20.884548"
         y="-42.184746"
         rx="3.1331613"
         ry="3.1271992"
         id="rect67-6"
         d="m 24.017709,-42.184746 h 33.420388 c 1.735772,0 3.133162,1.394731 3.133162,3.127199 v 33.356789 c 0,1.7324684 -1.39739,3.1271992 -3.133162,3.1271992 H 24.017709 c -1.735771,0 -3.133161,-1.3947308 -3.133161,-3.1271992 v -33.356789 c 0,-1.732468 1.39739,-3.127199 3.133161,-3.127199 z" />
      <path
         id="lpe_path-effect69"
         style="fill:#29292a;stroke-width:1.04339"
         class="powerclip"
         d="M -1.8700283,-65.947937 H 47.816972 V -16.33675 H -1.8700283 Z m 25.8877373,23.763191 c -1.735771,0 -3.133161,1.394731 -3.133161,3.127199 v 33.356789 c 0,1.7324684 1.39739,3.1271992 3.133161,3.1271992 h 33.420388 c 1.735772,0 3.133162,-1.3947308 3.133162,-3.1271992 v -33.356789 c 0,-1.732468 -1.39739,-3.127199 -3.133162,-3.127199 z" />
    </clipPath>
    <inkscape:path-effect
       effect="powerclip"
       id="path-effect69-7"
       is_visible="true"
       lpeversion="1"
       inverse="true"
       flatten="false"
       hide_clip="false"
       message="Use fill-rule evenodd on &lt;b&gt;fill and stroke&lt;/b&gt; dialog if no flatten result after convert clip to paths." />
    <clipPath
       clipPathUnits="userSpaceOnUse"
       id="clipPath890">
      <path
         style="display:block;fill:#e6e6e6"
         d="m 45.717108,-18.561604 c -3.063,-0.851 -6.246,-1.623 -9,-2.261 v -0.135 c 3.28,-0.793 5.863,-1.51 9,-2.295 v 4.691 m 9,-7.054 v -5.264 l -22,6.883 v 5.973 l 22,6.883 v -5.061 l -5,-1.35 v -6.715 l 5,-1.35"
         id="path892" />
    </clipPath>
    <inkscape:path-effect
       effect="powerclip"
       id="path-effect894"
       is_visible="true"
       lpeversion="1"
       inverse="true"
       flatten="false"
       hide_clip="false"
       message="Use fill-rule evenodd on &lt;b&gt;fill and stroke&lt;/b&gt; dialog if no flatten result after convert clip to paths." />
    <clipPath
       clipPathUnits="userSpaceOnUse"
       id="clipath_lpe_path-effect69-7">
      <rect
         style="display:block;fill:#29292a;stroke-width:1.04339"
         width="39.68671"
         height="39.611187"
         x="20.884548"
         y="-42.184746"
         rx="3.1331613"
         ry="3.1271992"
         id="rect2458" />
    </clipPath>
    <clipPath
       clipPathUnits="userSpaceOnUse"
       id="clipPath1880">
      <g
         id="g1898"
         style="display:block">
        <path
           style="color:#000000;opacity:0.85;fill:#f5f7fa;-inkscape-stroke:none"
           d="M 14.095703,26.000002 C 13.501406,26.000002 13,26.504334 13,27.098634 v 3.805662 C 13,31.498598 13.501406,32 14.095703,32 h 3.808593 C 18.498593,32 19,31.498598 19,30.904296 v -3.805662 c 0,-0.5943 -0.501407,-1.098632 -1.095704,-1.098632 z"
           id="path1882" />
        <path
           style="color:#000000;fill:#f5f7fa;-inkscape-stroke:none"
           d="M 14.095703,12 C 13.501406,12 13,12.504333 13,13.098633 v 3.805663 C 13,17.498596 13.501406,18 14.095703,18 h 3.808593 c 0.594297,0 1.095703,-0.501404 1.095703,-1.095704 V 13.098633 C 18.999999,12.504333 18.498593,12 17.904296,12 Z"
           id="path1884" />
        <g
           id="g1890"
           style="opacity:0.85">
          <path
             style="color:#000000;fill:#f5f7fa;stroke-width:6;stroke-linecap:round;-inkscape-stroke:none"
             d="M 28,28.9997 H 48"
             id="path1886" />
          <path
             style="color:#000000;fill:#f5f7fa;stroke-linecap:round;-inkscape-stroke:none"
             d="m 28,26 a 3,3 0 0 0 -3,3 3,3 0 0 0 3,3 h 20 a 3,3 0 0 0 3,-3 3,3 0 0 0 -3,-3 z"
             id="path1888" />
        </g>
        <path
           style="color:#000000;opacity:0.85;fill:#f5f7fa;stroke-linecap:round;-inkscape-stroke:none"
           d="m 28,12 a 3,3 0 0 0 -3,3 3,3 0 0 0 3,3 h 20 a 3,3 0 0 0 3,-3 3,3 0 0 0 -3,-3 z"
           id="path1892" />
        <path
           style="color:#000000;fill:#f5f7fa;-inkscape-stroke:none"
           d="M 14.095703,40 C 13.501406,40 13,40.504332 13,41.098632 v 3.805664 C 13,45.498594 13.501406,46 14.095703,46 h 3.808593 C 18.498593,46 19,45.498594 19,44.904296 V 41.098632 C 19,40.504332 18.498593,40 17.904296,40 Z"
           id="path1894" />
        <path
           style="color:#000000;opacity:0.85;fill:#f5f7fa;stroke-linecap:round;-inkscape-stroke:none"
           d="m 28,40 a 3,3 0 0 0 -3,3 3,3 0 0 0 3,3 h 20 a 3,3 0 0 0 3,-3 3,3 0 0 0 -3,-3 z"
           id="path1896" />
      </g>
    </clipPath>
    <inkscape:path-effect
       effect="powerclip"
       id="path-effect1900"
       is_visible="true"
       lpeversion="1"
       inverse="true"
       flatten="false"
       hide_clip="false"
       message="Use fill-rule evenodd on &lt;b&gt;fill and stroke&lt;/b&gt; dialog if no flatten result after convert clip to paths." />
    <clipPath
       clipPathUnits="userSpaceOnUse"
       id="clipath_lpe_path-effect33-7">
      <path
         style="display:block;opacity:0.85;fill:#f2f2f2;stroke-width:1.29244"
         d="m 31.918962,13.767821 c 4.218551,0 7.638612,3.524744 7.638612,7.872419 0,4.347937 -3.419806,7.872418 -7.638612,7.872418 -4.218806,0 -7.638611,-3.524481 -7.638611,-7.872418 0,-4.347675 3.419805,-7.872419 7.638611,-7.872419 z"
         id="path6277" />
    </clipPath>
    <inkscape:path-effect
       effect="powerclip"
       id="path-effect33-7"
       is_visible="true"
       lpeversion="1"
       inverse="true"
       flatten="false"
       hide_clip="false"
       message="Use fill-rule evenodd on &lt;b&gt;fill and stroke&lt;/b&gt; dialog if no flatten result after convert clip to paths." />
    <clipPath
       clipPathUnits="userSpaceOnUse"
       id="clipPath7">
      <path
         style="display:block;opacity:0.85;fill:#f5f7fa"
         d="m 15.999661,18.001241 v 27.99921 h 7.999775 V 30.000902 l 7.999774,6.999803 7.999774,-6.999803 v 15.999549 h 7.999775 v -27.99921 h -7.999775 l -7.999774,6.999802 -7.999774,-6.999802 z"
         id="path9" />
    </clipPath>
    <inkscape:path-effect
       effect="powerclip"
       id="path-effect11"
       is_visible="true"
       lpeversion="1"
       inverse="true"
       flatten="false"
       hide_clip="false"
       message="Use fill-rule evenodd on &lt;b&gt;fill and stroke&lt;/b&gt; dialog if no flatten result after convert clip to paths." />
    <clipPath
       clipPathUnits="userSpaceOnUse"
       id="clipPath297">
      <path
         style="display:block;fill:#4d4d4d;stroke-width:0.788458"
         d="m 19.044381,26.380231 c 0,0 3.021789,-4.291444 8.926101,-4.735445 v -1.556888 c -6.539814,0.516621 -12.267638,5.964807 -12.267638,5.964807 0,0 3.272328,9.120553 12.267638,9.955639 v -1.654965 c -6.601304,-0.818055 -8.926266,-7.973756 -8.926266,-7.973756 z m 8.926101,4.681768 v 1.515592 c -4.989164,-0.874893 -6.438716,-5.976211 -6.438716,-5.976211 0,0 2.460206,-2.610173 6.438716,-3.033494 v 1.663023 c -0.0024,0 -0.004,-8.66e-4 -0.0064,-8.66e-4 -2.08803,-0.246482 -3.784032,1.672299 -3.784032,1.672299 0,0 0.979025,3.230101 3.791719,4.159613 m 0,-13.845963 v 2.871709 c 0.191974,-0.01444 0.319238,-0.02661 0.51226,-0.03309 7.435012,-0.246481 12.279445,5.997956 12.279445,5.997956 0,0 -5.563993,6.654832 -11.360698,6.654832 -0.531264,0 -0.963883,-0.04849 -1.431041,-0.12987 v 1.775849 c 0.39947,0.04981 0.748915,0.07923 1.181108,0.07923 5.394243,0 9.295073,-2.70977 13.072432,-5.916759 0.626279,0.493357 3.190265,1.693586 3.717342,2.218936 -3.591418,2.957619 -11.961693,5.34184 -16.706861,5.34184 -0.457411,0 -0.831958,-0.02722 -1.263759,-0.06818 v 2.495372 h 20.437795 v -21.28764 h -20.43781 z m 0,6.351939 v -1.923037 c 0.190012,-0.01095 0.316735,-0.02305 0.51226,-0.0292 5.34649,-0.165193 8.854179,4.519222 8.854179,4.519222 0,0 -3.788644,5.175643 -7.85072,5.175643 -0.58461,0 -1.044049,-0.09239 -1.515786,-0.248428 V 25.23114 c 2.08149,0.247394 2.435578,1.151754 3.686958,3.203643 l 2.783059,-2.308344 c 0,0 -2.03161,-2.620818 -5.456387,-2.620818 -0.372273,-1.24e-4 -0.66376,0.02565 -1.013563,0.06228"
         id="path299" />
    </clipPath>
    <inkscape:path-effect
       effect="powerclip"
       id="path-effect305"
       is_visible="true"
       lpeversion="1"
       inverse="true"
       flatten="false"
       hide_clip="false"
       message="Use fill-rule evenodd on &lt;b&gt;fill and stroke&lt;/b&gt; dialog if no flatten result after convert clip to paths." />
    <clipPath
       clipPathUnits="userSpaceOnUse"
       id="clipPath80">
      <path
         id="path82"
         style="display:block;fill:#e6e6e6"
         d="M 32,4 C 16.536027,4 4,16.536027 4,32 4.00692,39.423412 6.9622361,46.539472 12.214844,51.785156 L 32,32 H 60 C 60,16.536027 47.463972,4 32,4 Z" />
    </clipPath>
    <inkscape:path-effect
       effect="powerclip"
       id="path-effect84"
       is_visible="true"
       lpeversion="1"
       inverse="true"
       flatten="false"
       hide_clip="false"
       message="Use fill-rule evenodd on &lt;b&gt;fill and stroke&lt;/b&gt; dialog if no flatten result after convert clip to paths." />
    <clipPath
       clipPathUnits="userSpaceOnUse"
       id="clipPath436">
      <path
         id="path438"
         style="display:block;fill:#ffcf24"
         d="m 13,11 a 2,2 0 0 0 -2,2 2,2 0 0 0 2,2 2,2 0 0 0 2,-2 2,2 0 0 0 -2,-2 z m 38,0 a 2,2 0 0 0 -2,2 2,2 0 0 0 2,2 2,2 0 0 0 2,-2 2,2 0 0 0 -2,-2 z M 32,12 A 20,20 0 0 0 12,32 20,20 0 0 0 32,52 20,20 0 0 0 52,32 20,20 0 0 0 32,12 Z M 13,49 a 2,2 0 0 0 -2,2 2,2 0 0 0 2,2 2,2 0 0 0 2,-2 2,2 0 0 0 -2,-2 z m 38,0 a 2,2 0 0 0 -2,2 2,2 0 0 0 2,2 2,2 0 0 0 2,-2 2,2 0 0 0 -2,-2 z" />
    </clipPath>
    <inkscape:path-effect
       effect="powerclip"
       id="path-effect440"
       is_visible="true"
       lpeversion="1"
       inverse="true"
       flatten="false"
       hide_clip="false"
       message="Use fill-rule evenodd on &lt;b&gt;fill and stroke&lt;/b&gt; dialog if no flatten result after convert clip to paths." />
  </defs>
  <circle
     cx="32.516094"
     cy="31.877844"
     r="0"
     fill="url(#b)"
     stroke-width="1.5715"
     id="circle41"
     style="fill:url(#b)" />
  <g
     aria-label="GZ"
     transform="matrix(1.2212657,0,0,0.81882264,0.4960938,-0.1661539)"
     id="text93"
     style="font-weight:bold;font-size:11.5263px;line-height:1.25;font-family:sans-serif;-inkscape-font-specification:'sans-serif Bold';fill:#f2f2f2;stroke-width:0.288159" />
  <g
     id="g877"
     transform="matrix(1.1,0,0,1.1,-3.1845928,-3.2065454)">
    <path
       d="m 18.347203,7.2464043 c -6.244452,0 -11.2714308,5.1741617 -11.2714308,11.6016437 v 26.767119 c 0,6.427394 5.0268918,11.601644 11.2714308,11.601644 h 26.005262 c 6.244452,0 11.271431,-5.174161 11.271431,-11.601644 V 18.848048 c 0,-6.427393 -5.026893,-11.6016437 -11.271431,-11.6016437 z"
       fill="url(#linearGradient910)"
       stroke-width="3.32418"
       id="path33"
       style="fill:#578376;fill-opacity:1"
       clip-path="url(#clipPath1976)"
       inkscape:path-effect="#path-effect1980"
       inkscape:original-d="m 18.347203,7.2464043 c -6.244452,0 -11.2714308,5.1741617 -11.2714308,11.6016437 v 26.767119 c 0,6.427394 5.0268918,11.601644 11.2714308,11.601644 h 26.005262 c 6.244452,0 11.271431,-5.174161 11.271431,-11.601644 V 18.848048 c 0,-6.427393 -5.026893,-11.6016437 -11.271431,-11.6016437 z"
       transform="matrix(1.1,0,0,1.1,-2.6388896,-3.3893147)" />
    <rect
       x="8.0073938"
       y="7.5283623"
       width="47.677586"
       height="49.074364"
       rx="9.5358982"
       ry="9.8152657"
       fill="url(#linearGradient862)"
       stroke-width="3.26449"
       id="rect35-7"
       style="opacity:1;fill:#f5f7fa;fill-opacity:1" />
    <rect
       x="10.391273"
       y="9.9820805"
       width="42.909828"
       height="44.166924"
       rx="8.5823088"
       ry="8.8337393"
       fill="url(#linearGradient862)"
       stroke-width="2.93805"
       id="rect35-7-3"
       style="fill:#578376;fill-opacity:1" />
  </g>
  <path
     style="fill:#f5f7fa;fill-opacity:1;stroke-width:1.01528"
     d="M 16.787286,14.831589 V 50.022125 H 46.781093 V 14.831589 H 44.90648 v 2.199409 H 43.031867 V 14.831589 H 20.536512 v 2.199409 h -1.874614 l -3.74e-4,-2.199409 h -1.874313 z m 7.498452,4.398816 H 39.282641 V 30.227449 H 24.285738 Z m -5.624214,2.19941 h 1.874614 v 4.398817 h -1.874614 z m 24.369968,0 h 1.874613 v 4.398817 h -1.874613 z m -24.369968,8.797634 h 1.874614 v 4.398816 h -1.874614 z m 24.369968,0 h 1.874613 v 4.398816 h -1.874613 z m -18.74613,4.398816 H 39.282265 V 45.623308 H 24.285362 Z m -5.624214,4.398818 h 1.874614 v 4.398816 h -1.874614 z m 24.369969,0 h 1.874612 v 4.398816 h -1.874612 z m -24.369969,8.797633 h 1.874614 v 2.199409 h -1.874614 z m 24.369969,0 h 1.874612 v 2.199409 h -1.874612 z"
     id="path4" />
</svg>
