<?xml version="1.0" encoding="UTF-8" standalone="no"?>
<svg
   width="64"
   height="64"
   version="1.1"
   id="svg73"
   sodipodi:docname="preferences-desktop-theme.svg"
   inkscape:version="1.2.2 (1:1.2.2+202212051550+b0a8486541)"
   xmlns:inkscape="http://www.inkscape.org/namespaces/inkscape"
   xmlns:sodipodi="http://sodipodi.sourceforge.net/DTD/sodipodi-0.dtd"
   xmlns="http://www.w3.org/2000/svg"
   xmlns:svg="http://www.w3.org/2000/svg"
   xmlns:rdf="http://www.w3.org/1999/02/22-rdf-syntax-ns#"
   xmlns:cc="http://creativecommons.org/ns#"
   xmlns:dc="http://purl.org/dc/elements/1.1/">
  <metadata
     id="metadata77">
    <rdf:RDF>
      <cc:Work
         rdf:about="">
        <dc:format>image/svg+xml</dc:format>
        <dc:type
           rdf:resource="http://purl.org/dc/dcmitype/StillImage" />
      </cc:Work>
    </rdf:RDF>
  </metadata>
  <sodipodi:namedview
     pagecolor="#f5f7fa"
     bordercolor="#666666"
     borderopacity="1"
     objecttolerance="10"
     gridtolerance="10"
     guidetolerance="10"
     inkscape:pageopacity="0"
     inkscape:pageshadow="2"
     inkscape:window-width="1377"
     inkscape:window-height="886"
     id="namedview75"
     showgrid="false"
     inkscape:zoom="6.2890625"
     inkscape:cx="49.212422"
     inkscape:cy="37.843478"
     inkscape:window-x="207"
     inkscape:window-y="108"
     inkscape:window-maximized="0"
     inkscape:current-layer="svg73"
     inkscape:document-rotation="0"
     inkscape:pagecheckerboard="0"
     inkscape:showpageshadow="2"
     inkscape:deskcolor="#d1d1d1" />
  <defs
     id="defs29">
    <inkscape:path-effect
       effect="powerclip"
       id="path-effect1980"
       is_visible="true"
       lpeversion="1"
       inverse="true"
       flatten="false"
       hide_clip="false"
       message="Use fill-rule evenodd on &lt;b&gt;fill and stroke&lt;/b&gt; dialog if no flatten result after convert clip to paths." />
    <linearGradient
       id="b"
       x1="399.57"
       x2="399.57"
       y1="545.8"
       y2="517.8"
       gradientTransform="matrix(2.1429,0,0,2.1429,-825.86391,-1107.6662)"
       gradientUnits="userSpaceOnUse">
      <stop
         stop-color="#3889e9"
         offset="0"
         id="stop2" />
      <stop
         stop-color="#5ea5fb"
         offset="1"
         id="stop4" />
    </linearGradient>
    <linearGradient
       id="linearGradient862"
       x1="7.9373"
       x2="7.9373"
       y1="15.081"
       y2="1.852"
       gradientTransform="matrix(3.3743 0 0 3.3743 3.4312 3.4278)"
       gradientUnits="userSpaceOnUse">
      <stop
         stop-color="#f1efeb"
         offset="0"
         id="stop7" />
      <stop
         stop-color="#fff"
         offset="1"
         id="stop9" />
    </linearGradient>
    <linearGradient
       id="linearGradient910"
       x1="7.9373"
       x2="7.9373"
       y1="15.081"
       y2="1.852"
       gradientTransform="scale(3.7796)"
       gradientUnits="userSpaceOnUse">
      <stop
         stop-color="#613583"
         offset="0"
         id="stop12" />
      <stop
         stop-color="#a663c0"
         offset="1"
         id="stop14" />
    </linearGradient>
    <linearGradient
       id="linearGradient932"
       x1="379.24"
       x2="374.24"
       y1="546.85"
       y2="546.85"
       gradientTransform="matrix(2.1429 0 0 2.1429 -769.68 -1134.5)"
       gradientUnits="userSpaceOnUse">
      <stop
         stop-color="#f6f5f4"
         offset="0"
         id="stop17" />
      <stop
         stop-color="#fff"
         offset=".6"
         id="stop19" />
      <stop
         stop-color="#dddbd8"
         offset="1"
         id="stop21" />
    </linearGradient>
    <linearGradient
       id="linearGradient1146"
       x1="18"
       x2="18"
       y1="52"
       y2="12"
       gradientUnits="userSpaceOnUse">
      <stop
         stop-color="#5e337f"
         offset="0"
         id="stop24" />
      <stop
         stop-color="#ab60bf"
         offset="1"
         id="stop26" />
    </linearGradient>
    <clipPath
       clipPathUnits="userSpaceOnUse"
       id="clipPath1976">
      <rect
         x="9.6784649"
         y="9.925169"
         width="43.343258"
         height="44.613056"
         rx="8.6689987"
         ry="8.9229689"
         fill="url(#linearGradient862)"
         stroke-width="2.96772"
         id="rect1978"
         style="display:none;fill:#333333;fill-opacity:1"
         d="m 18.347464,9.925169 h 26.00526 c 4.802625,0 8.668999,3.979644 8.668999,8.922969 v 26.767118 c 0,4.943325 -3.866374,8.922969 -8.668999,8.922969 h -26.00526 c -4.802626,0 -8.6689991,-3.979644 -8.6689991,-8.922969 V 18.848138 c 0,-4.943325 3.8663731,-8.922969 8.6689991,-8.922969 z" />
      <path
         id="lpe_path-effect1980"
         style="fill:#333333;fill-opacity:1"
         class="powerclip"
         d="M 2.0757722,2.2464043 H 60.623896 V 62.216811 H 2.0757722 Z M 18.347464,9.925169 c -4.802626,0 -8.6689991,3.979644 -8.6689991,8.922969 v 26.767118 c 0,4.943325 3.8663731,8.922969 8.6689991,8.922969 h 26.00526 c 4.802625,0 8.668999,-3.979644 8.668999,-8.922969 V 18.848138 c 0,-4.943325 -3.866374,-8.922969 -8.668999,-8.922969 z" />
    </clipPath>
    <filter
       style="color-interpolation-filters:sRGB;"
       inkscape:label="Drop Shadow"
       id="filter663"
       x="-0.098870968"
       y="-0.096056853"
       width="1.2389382"
       height="1.2321374">
      <feFlood
         flood-opacity="0.301961"
         flood-color="rgb(0,0,0)"
         result="flood"
         id="feFlood653" />
      <feComposite
         in="flood"
         in2="SourceGraphic"
         operator="in"
         result="composite1"
         id="feComposite655" />
      <feGaussianBlur
         in="composite1"
         stdDeviation="2"
         result="blur"
         id="feGaussianBlur657" />
      <feOffset
         dx="2"
         dy="2"
         result="offset"
         id="feOffset659" />
      <feComposite
         in="SourceGraphic"
         in2="offset"
         operator="over"
         result="composite2"
         id="feComposite661" />
    </filter>
    <clipPath
       clipPathUnits="userSpaceOnUse"
       id="clipPath38">
      <rect
         x="0.97311002"
         y="4.6963"
         width="14.987"
         height="9.9216995"
         ry="0.29919001"
         fill="#fffffc"
         id="rect40"
         style="display:block;opacity:0.85;fill:#f2f2f2;stroke-width:0.999999" />
    </clipPath>
    <inkscape:path-effect
       effect="powerclip"
       id="path-effect42"
       is_visible="true"
       lpeversion="1"
       inverse="true"
       flatten="false"
       hide_clip="false"
       message="Use fill-rule evenodd on &lt;b&gt;fill and stroke&lt;/b&gt; dialog if no flatten result after convert clip to paths." />
    <clipPath
       clipPathUnits="userSpaceOnUse"
       id="clipPath30">
      <path
         id="path32"
         style="color:#000000;display:block;opacity:0.85;fill:#f5f7fa;stroke-linecap:round;-inkscape-stroke:none"
         d="m 27.902344,19.023438 c -5.140587,0.01596 -9.820748,0.752518 -13.330078,2.15625 a 2.5,2.5 0 0 0 -1.392578,3.248046 2.5,2.5 0 0 0 3.248046,1.392578 c 3.180816,-1.272325 8.839301,-2.056673 14.796875,-1.699218 5.957575,0.357454 12.260098,1.820223 17.035157,4.548828 a 2.5,2.5 0 0 0 3.410156,-0.929688 2.5,2.5 0 0 0 -0.929688,-3.410156 c -5.72493,-3.271389 -12.67243,-4.808627 -19.214843,-5.201172 -1.226703,-0.0736 -2.436758,-0.109153 -3.623047,-0.105468 z m -1.240235,9.966796 c -1.05657,-0.0087 -2.093217,0.01082 -3.097656,0.05859 -2.678505,0.127409 -5.127438,0.45996 -7.113281,1.027344 a 2,2 0 0 0 -1.375,2.472656 2,2 0 0 0 2.472656,1.375 c 3.028306,-0.86523 8.701737,-1.165792 14.148438,-0.68164 5.4467,0.484152 10.812065,1.834345 13.193359,3.421874 a 2,2 0 0 0 2.773437,-0.554687 2,2 0 0 0 -0.554687,-2.773437 C 43.490675,30.923467 37.856023,29.773657 32.052734,29.257808 30.239207,29.096607 28.42306,29.004783 26.662109,28.99023 Z m 0.917969,8.988282 c -3.813243,-0.0048 -7.379665,0.410834 -10.064453,1.082031 a 2,2 0 0 0 -1.455078,2.423828 2,2 0 0 0 2.423828,1.455078 c 5.391278,-1.347819 17.438862,-1.241506 23.621094,1.849609 a 2,2 0 0 0 2.683593,-0.894531 2,2 0 0 0 -0.894531,-2.683593 c -3.908877,-1.954439 -8.851018,-2.904387 -13.642578,-3.160157 -0.898417,-0.04796 -1.791896,-0.07116 -2.671875,-0.07227 z" />
    </clipPath>
    <inkscape:path-effect
       effect="powerclip"
       id="path-effect34"
       is_visible="true"
       lpeversion="1"
       inverse="true"
       flatten="false"
       hide_clip="false"
       message="Use fill-rule evenodd on &lt;b&gt;fill and stroke&lt;/b&gt; dialog if no flatten result after convert clip to paths." />
    <clipPath
       clipPathUnits="userSpaceOnUse"
       id="clipPath1299">
      <path
         style="color:#000000;display:block;opacity:0.85;fill:#f5f7fa;-inkscape-stroke:none"
         d="m 24.149464,39.847234 c 1.129182,1.129183 1.129024,2.947446 -3.54e-4,4.076824 L 11.920405,56.152763 c -1.129378,1.129378 -2.9476414,1.129536 -4.0768237,3.54e-4 -1.1291824,-1.129183 -1.1290247,-2.947446 3.535e-4,-4.076825 L 20.072639,39.847588 c 1.129379,-1.129378 2.947642,-1.129536 4.076825,-3.54e-4 z"
         id="path1301" />
    </clipPath>
    <inkscape:path-effect
       effect="powerclip"
       id="path-effect1303"
       is_visible="true"
       lpeversion="1"
       inverse="true"
       flatten="false"
       hide_clip="false"
       message="Use fill-rule evenodd on &lt;b&gt;fill and stroke&lt;/b&gt; dialog if no flatten result after convert clip to paths." />
    <clipPath
       clipPathUnits="userSpaceOnUse"
       id="clipPath6348">
      <rect
         style="display:block;opacity:1;fill:#f5f7fa;fill-opacity:1;stroke:none;stroke-width:0.81953;stroke-opacity:1"
         id="rect6350"
         width="49.927536"
         height="8.2595568"
         x="7.2316799"
         y="44.626305"
         ry="4.1297784" />
    </clipPath>
    <inkscape:path-effect
       effect="powerclip"
       id="path-effect6352"
       is_visible="true"
       lpeversion="1"
       inverse="true"
       flatten="false"
       hide_clip="false"
       message="Use fill-rule evenodd on &lt;b&gt;fill and stroke&lt;/b&gt; dialog if no flatten result after convert clip to paths." />
    <clipPath
       clipPathUnits="userSpaceOnUse"
       id="clipPath131">
      <ellipse
         cx="32.035774"
         cy="34.335609"
         rx="6.0847068"
         ry="7.9156404"
         style="display:none;opacity:0.85;fill:#e6e6e6;stroke-width:0.971802"
         id="ellipse133" />
    </clipPath>
    <inkscape:path-effect
       effect="powerclip"
       id="path-effect135"
       is_visible="true"
       lpeversion="1"
       inverse="true"
       flatten="false"
       hide_clip="false"
       message="Use fill-rule evenodd on &lt;b&gt;fill and stroke&lt;/b&gt; dialog if no flatten result after convert clip to paths." />
    <clipPath
       clipPathUnits="userSpaceOnUse"
       id="clipath_lpe_path-effect245-5">
      <path
         d="M 32,8 A 23.999999,23.999999 0 0 0 8,32 23.999999,23.999999 0 0 0 10.755859,43.130859 l 6.25586,-11.376953 A 15,15.000001 0 0 1 32,17 15,15.000001 0 0 1 46.388672,27.796875 l 5.257812,-9.560547 A 23.999999,23.999999 0 0 0 32,8 Z m 21.244141,12.869141 -6.25586,11.376953 A 15,15.000001 0 0 1 32,47 15,15.000001 0 0 1 17.611328,36.203125 l -5.257812,9.560547 A 23.999999,23.999999 0 0 0 32,56 23.999999,23.999999 0 0 0 56,32 23.999999,23.999999 0 0 0 53.244141,20.869141 Z"
         style="display:block;fill:#e4e4e4"
         id="path559" />
    </clipPath>
    <inkscape:path-effect
       effect="powerclip"
       id="path-effect245-5"
       is_visible="true"
       lpeversion="1"
       inverse="true"
       flatten="false"
       hide_clip="false"
       message="Use fill-rule evenodd on &lt;b&gt;fill and stroke&lt;/b&gt; dialog if no flatten result after convert clip to paths." />
    <clipPath
       clipPathUnits="userSpaceOnUse"
       id="clipPath121">
      <path
         style="display:none;fill:#29292a;stroke-width:1.06736"
         d="m 2.4291417,23.65902 6.3680632,6.440531 v 26.835546 c 0,1.784027 1.4200781,3.220265 3.1840311,3.220265 h 29.717627 c 1.763954,0 3.184032,-1.436238 3.184032,-3.220265 V 26.879286 c 0,-1.784028 -1.420078,-3.220266 -3.184032,-3.220266 z"
         id="path123" />
      <path
         id="lpe_path-effect125"
         style="fill:#29292a;stroke-width:1.06736"
         class="powerclip"
         d="M 14.410643,-0.6625733 H 66.864397 V 45.833769 H 14.410643 Z M 2.4291417,23.65902 8.7972049,30.099551 v 26.835546 c 0,1.784027 1.4200781,3.220265 3.1840311,3.220265 h 29.717627 c 1.763954,0 3.184032,-1.436238 3.184032,-3.220265 V 26.879286 c 0,-1.784028 -1.420078,-3.220266 -3.184032,-3.220266 z" />
    </clipPath>
    <inkscape:path-effect
       effect="powerclip"
       id="path-effect125"
       is_visible="true"
       lpeversion="1"
       inverse="true"
       flatten="false"
       hide_clip="false"
       message="Use fill-rule evenodd on &lt;b&gt;fill and stroke&lt;/b&gt; dialog if no flatten result after convert clip to paths." />
    <clipPath
       clipPathUnits="userSpaceOnUse"
       id="clipPath147">
      <path
         style="display:none;opacity:0.85;fill:#f5f7fa;fill-rule:evenodd;stroke-width:1.06736"
         d="m 21.223527,31.342786 -1.123538,6.440531 h -6.243674 v 2.146844 h 5.870505 l -1.127678,6.440531 h -4.742933 v 2.146843 h 4.369765 l -1.123539,6.440532 h 2.122688 l 1.123538,-6.440532 h 5.306719 l -1.123517,6.440532 h 2.122688 l 1.123517,-6.440532 h 7.305018 v -2.146843 h -6.931849 l 1.127657,-6.440531 h 5.804276 v -2.146844 h -5.431109 l 1.123518,-6.440531 h -2.122687 l -1.123518,6.440531 h -5.306719 l 1.123517,-6.440531 z m 0.626023,8.587375 h 5.306719 l -1.127656,6.440531 h -5.30672 z"
         id="path149" />
      <path
         id="lpe_path-effect151"
         style="opacity:0.85;fill:#f5f7fa;fill-rule:evenodd;stroke-width:1.06736"
         class="powerclip"
         d="M -3.8799178,19.902255 H 48.573836 V 66.398597 H -3.8799178 Z m 25.1034448,11.440531 -1.123538,6.440531 h -6.243674 v 2.146844 h 5.870505 l -1.127678,6.440531 h -4.742933 v 2.146843 h 4.369765 l -1.123539,6.440532 h 2.122688 l 1.123538,-6.440532 h 5.306719 l -1.123517,6.440532 h 2.122688 l 1.123517,-6.440532 h 7.305018 v -2.146843 h -6.931849 l 1.127657,-6.440531 h 5.804276 v -2.146844 h -5.431109 l 1.123518,-6.440531 h -2.122687 l -1.123518,6.440531 h -5.306719 l 1.123517,-6.440531 z m 0.626023,8.587375 -1.127657,6.440531 h 5.30672 l 1.127656,-6.440531 z" />
    </clipPath>
    <inkscape:path-effect
       effect="powerclip"
       id="path-effect151"
       is_visible="true"
       lpeversion="1"
       inverse="true"
       flatten="false"
       hide_clip="false"
       message="Use fill-rule evenodd on &lt;b&gt;fill and stroke&lt;/b&gt; dialog if no flatten result after convert clip to paths." />
  </defs>
  <circle
     cx="32.516094"
     cy="31.877844"
     r="0"
     fill="url(#b)"
     stroke-width="1.5715"
     id="circle41"
     style="fill:url(#b)" />
  <g
     aria-label="GZ"
     transform="matrix(1.2212657,0,0,0.81882264,0.4960938,-0.1661539)"
     id="text93"
     style="font-weight:bold;font-size:11.5263px;line-height:1.25;font-family:sans-serif;-inkscape-font-specification:'sans-serif Bold';fill:#f2f2f2;stroke-width:0.288159" />
  <g
     id="g877"
     transform="matrix(1.1,0,0,1.1,-3.1845928,-3.2065454)">
    <path
       d="m 18.347203,7.2464043 c -6.244452,0 -11.2714308,5.1741617 -11.2714308,11.6016437 v 26.767119 c 0,6.427394 5.0268918,11.601644 11.2714308,11.601644 h 26.005262 c 6.244452,0 11.271431,-5.174161 11.271431,-11.601644 V 18.848048 c 0,-6.427393 -5.026893,-11.6016437 -11.271431,-11.6016437 z"
       fill="url(#linearGradient910)"
       stroke-width="3.32418"
       id="path33"
       style="fill:#578376;fill-opacity:1"
       clip-path="url(#clipPath1976)"
       inkscape:path-effect="#path-effect1980"
       inkscape:original-d="m 18.347203,7.2464043 c -6.244452,0 -11.2714308,5.1741617 -11.2714308,11.6016437 v 26.767119 c 0,6.427394 5.0268918,11.601644 11.2714308,11.601644 h 26.005262 c 6.244452,0 11.271431,-5.174161 11.271431,-11.601644 V 18.848048 c 0,-6.427393 -5.026893,-11.6016437 -11.271431,-11.6016437 z"
       transform="matrix(1.1,0,0,1.1,-2.6388896,-3.3893147)" />
    <rect
       x="8.0073938"
       y="7.5283623"
       width="47.677586"
       height="49.074364"
       rx="9.5358982"
       ry="9.8152657"
       fill="url(#linearGradient862)"
       stroke-width="3.26449"
       id="rect35-7"
       style="opacity:1;fill:#f5f7fa;fill-opacity:1" />
    <rect
       x="10.391273"
       y="9.9820805"
       width="42.909828"
       height="44.166924"
       rx="8.5823088"
       ry="8.8337393"
       fill="url(#linearGradient862)"
       stroke-width="2.93805"
       id="rect35-7-3"
       style="fill:#578376;fill-opacity:1" />
  </g>
  <g
     id="g17"
     style="fill:#f5f7fa;fill-opacity:1"
     transform="matrix(0.5832,0,0,0.5832,12.58726,13.069868)">
    <path
       style="fill:#f5f7fa;stroke-width:1.06736;fill-opacity:1"
       d="m 22.594674,4.3374267 c -1.763952,0 -3.184031,1.4362384 -3.184031,3.2202655 V 37.613504 c 0,1.784027 1.420079,3.220265 3.184031,3.220265 h 29.717628 c 1.763953,0 3.184032,-1.436238 3.184032,-3.220265 V 10.777958 l 6.368063,-6.4405313 z"
       id="path4"
       clip-path="url(#clipPath121)"
       inkscape:path-effect="#path-effect125"
       inkscape:original-d="m 22.594674,4.3374267 c -1.763952,0 -3.184031,1.4362384 -3.184031,3.2202655 V 37.613504 c 0,1.784027 1.420079,3.220265 3.184031,3.220265 h 29.717628 c 1.763953,0 3.184032,-1.436238 3.184032,-3.220265 V 10.777958 l 6.368063,-6.4405313 z"
       transform="translate(1.252544,-1.2117301)" />
    <path
       style="fill:#f5f7fa;stroke-width:1.06736;fill-opacity:1"
       d="m 1.1200822,24.902255 6.368063,6.440531 v 26.835546 c 0,1.784027 1.420078,3.220265 3.1840318,3.220265 h 29.717627 c 1.763954,0 3.184032,-1.436238 3.184032,-3.220265 V 28.122521 c 0,-1.784028 -1.420078,-3.220266 -3.184032,-3.220266 z"
       id="path10-3"
       clip-path="url(#clipPath147)"
       inkscape:path-effect="#path-effect151"
       inkscape:original-d="m 1.1200822,24.902255 6.368063,6.440531 v 26.835546 c 0,1.784027 1.420078,3.220265 3.1840318,3.220265 h 29.717627 c 1.763954,0 3.184032,-1.436238 3.184032,-3.220265 V 28.122521 c 0,-1.784028 -1.420078,-3.220266 -3.184032,-3.220266 z" />
  </g>
</svg>
