<?xml version="1.0" encoding="UTF-8" standalone="no"?>
<svg
   width="64"
   height="64"
   version="1.1"
   id="svg73"
   sodipodi:docname="steam_icon_1227280.svg"
   inkscape:version="1.2.2 (1:1.2.2+202212051550+b0a8486541)"
   xmlns:inkscape="http://www.inkscape.org/namespaces/inkscape"
   xmlns:sodipodi="http://sodipodi.sourceforge.net/DTD/sodipodi-0.dtd"
   xmlns="http://www.w3.org/2000/svg"
   xmlns:svg="http://www.w3.org/2000/svg"
   xmlns:rdf="http://www.w3.org/1999/02/22-rdf-syntax-ns#"
   xmlns:cc="http://creativecommons.org/ns#"
   xmlns:dc="http://purl.org/dc/elements/1.1/">
  <metadata
     id="metadata77">
    <rdf:RDF>
      <cc:Work
         rdf:about="">
        <dc:format>image/svg+xml</dc:format>
        <dc:type
           rdf:resource="http://purl.org/dc/dcmitype/StillImage" />
      </cc:Work>
    </rdf:RDF>
  </metadata>
  <sodipodi:namedview
     pagecolor="#ffffff"
     bordercolor="#666666"
     borderopacity="1"
     objecttolerance="10"
     gridtolerance="10"
     guidetolerance="10"
     inkscape:pageopacity="0"
     inkscape:pageshadow="2"
     inkscape:window-width="1377"
     inkscape:window-height="886"
     id="namedview75"
     showgrid="false"
     inkscape:zoom="6.2890625"
     inkscape:cx="23.453416"
     inkscape:cy="39.115528"
     inkscape:window-x="267"
     inkscape:window-y="108"
     inkscape:window-maximized="0"
     inkscape:current-layer="svg73"
     inkscape:document-rotation="0"
     inkscape:pagecheckerboard="0"
     inkscape:showpageshadow="2"
     inkscape:deskcolor="#d1d1d1" />
  <defs
     id="defs29">
    <inkscape:path-effect
       effect="powerclip"
       id="path-effect1980"
       is_visible="true"
       lpeversion="1"
       inverse="true"
       flatten="false"
       hide_clip="false"
       message="Use fill-rule evenodd on &lt;b&gt;fill and stroke&lt;/b&gt; dialog if no flatten result after convert clip to paths." />
    <linearGradient
       id="b"
       x1="399.57"
       x2="399.57"
       y1="545.8"
       y2="517.8"
       gradientTransform="matrix(2.1429,0,0,2.1429,-825.86391,-1107.6662)"
       gradientUnits="userSpaceOnUse">
      <stop
         stop-color="#3889e9"
         offset="0"
         id="stop2" />
      <stop
         stop-color="#5ea5fb"
         offset="1"
         id="stop4" />
    </linearGradient>
    <linearGradient
       id="linearGradient862"
       x1="7.9373"
       x2="7.9373"
       y1="15.081"
       y2="1.852"
       gradientTransform="matrix(3.3743 0 0 3.3743 3.4312 3.4278)"
       gradientUnits="userSpaceOnUse">
      <stop
         stop-color="#f1efeb"
         offset="0"
         id="stop7" />
      <stop
         stop-color="#fff"
         offset="1"
         id="stop9" />
    </linearGradient>
    <linearGradient
       id="linearGradient910"
       x1="7.9373"
       x2="7.9373"
       y1="15.081"
       y2="1.852"
       gradientTransform="scale(3.7796)"
       gradientUnits="userSpaceOnUse">
      <stop
         stop-color="#613583"
         offset="0"
         id="stop12" />
      <stop
         stop-color="#a663c0"
         offset="1"
         id="stop14" />
    </linearGradient>
    <linearGradient
       id="linearGradient932"
       x1="379.24"
       x2="374.24"
       y1="546.85"
       y2="546.85"
       gradientTransform="matrix(2.1429 0 0 2.1429 -769.68 -1134.5)"
       gradientUnits="userSpaceOnUse">
      <stop
         stop-color="#f6f5f4"
         offset="0"
         id="stop17" />
      <stop
         stop-color="#fff"
         offset=".6"
         id="stop19" />
      <stop
         stop-color="#dddbd8"
         offset="1"
         id="stop21" />
    </linearGradient>
    <linearGradient
       id="linearGradient1146"
       x1="18"
       x2="18"
       y1="52"
       y2="12"
       gradientUnits="userSpaceOnUse">
      <stop
         stop-color="#5e337f"
         offset="0"
         id="stop24" />
      <stop
         stop-color="#ab60bf"
         offset="1"
         id="stop26" />
    </linearGradient>
    <clipPath
       clipPathUnits="userSpaceOnUse"
       id="clipPath1976">
      <rect
         x="9.6784649"
         y="9.925169"
         width="43.343258"
         height="44.613056"
         rx="8.6689987"
         ry="8.9229689"
         fill="url(#linearGradient862)"
         stroke-width="2.96772"
         id="rect1978"
         style="display:none;fill:#333333;fill-opacity:1"
         d="m 18.347464,9.925169 h 26.00526 c 4.802625,0 8.668999,3.979644 8.668999,8.922969 v 26.767118 c 0,4.943325 -3.866374,8.922969 -8.668999,8.922969 h -26.00526 c -4.802626,0 -8.6689991,-3.979644 -8.6689991,-8.922969 V 18.848138 c 0,-4.943325 3.8663731,-8.922969 8.6689991,-8.922969 z" />
      <path
         id="lpe_path-effect1980"
         style="fill:#333333;fill-opacity:1"
         class="powerclip"
         d="M 2.0757722,2.2464043 H 60.623896 V 62.216811 H 2.0757722 Z M 18.347464,9.925169 c -4.802626,0 -8.6689991,3.979644 -8.6689991,8.922969 v 26.767118 c 0,4.943325 3.8663731,8.922969 8.6689991,8.922969 h 26.00526 c 4.802625,0 8.668999,-3.979644 8.668999,-8.922969 V 18.848138 c 0,-4.943325 -3.866374,-8.922969 -8.668999,-8.922969 z" />
    </clipPath>
    <filter
       style="color-interpolation-filters:sRGB;"
       inkscape:label="Drop Shadow"
       id="filter663"
       x="-0.098870968"
       y="-0.096056853"
       width="1.2389382"
       height="1.2321374">
      <feFlood
         flood-opacity="0.301961"
         flood-color="rgb(0,0,0)"
         result="flood"
         id="feFlood653" />
      <feComposite
         in="flood"
         in2="SourceGraphic"
         operator="in"
         result="composite1"
         id="feComposite655" />
      <feGaussianBlur
         in="composite1"
         stdDeviation="2"
         result="blur"
         id="feGaussianBlur657" />
      <feOffset
         dx="2"
         dy="2"
         result="offset"
         id="feOffset659" />
      <feComposite
         in="SourceGraphic"
         in2="offset"
         operator="over"
         result="composite2"
         id="feComposite661" />
    </filter>
    <clipPath
       clipPathUnits="userSpaceOnUse"
       id="clipPath38">
      <rect
         x="0.97311002"
         y="4.6963"
         width="14.987"
         height="9.9216995"
         ry="0.29919001"
         fill="#fffffc"
         id="rect40"
         style="display:block;opacity:0.85;fill:#f2f2f2;stroke-width:0.999999" />
    </clipPath>
    <inkscape:path-effect
       effect="powerclip"
       id="path-effect42"
       is_visible="true"
       lpeversion="1"
       inverse="true"
       flatten="false"
       hide_clip="false"
       message="Use fill-rule evenodd on &lt;b&gt;fill and stroke&lt;/b&gt; dialog if no flatten result after convert clip to paths." />
    <clipPath
       clipPathUnits="userSpaceOnUse"
       id="clipPath30">
      <path
         id="path32"
         style="color:#000000;display:block;opacity:0.85;fill:#ffffff;stroke-linecap:round;-inkscape-stroke:none"
         d="m 27.902344,19.023438 c -5.140587,0.01596 -9.820748,0.752518 -13.330078,2.15625 a 2.5,2.5 0 0 0 -1.392578,3.248046 2.5,2.5 0 0 0 3.248046,1.392578 c 3.180816,-1.272325 8.839301,-2.056673 14.796875,-1.699218 5.957575,0.357454 12.260098,1.820223 17.035157,4.548828 a 2.5,2.5 0 0 0 3.410156,-0.929688 2.5,2.5 0 0 0 -0.929688,-3.410156 c -5.72493,-3.271389 -12.67243,-4.808627 -19.214843,-5.201172 -1.226703,-0.0736 -2.436758,-0.109153 -3.623047,-0.105468 z m -1.240235,9.966796 c -1.05657,-0.0087 -2.093217,0.01082 -3.097656,0.05859 -2.678505,0.127409 -5.127438,0.45996 -7.113281,1.027344 a 2,2 0 0 0 -1.375,2.472656 2,2 0 0 0 2.472656,1.375 c 3.028306,-0.86523 8.701737,-1.165792 14.148438,-0.68164 5.4467,0.484152 10.812065,1.834345 13.193359,3.421874 a 2,2 0 0 0 2.773437,-0.554687 2,2 0 0 0 -0.554687,-2.773437 C 43.490675,30.923467 37.856023,29.773657 32.052734,29.257808 30.239207,29.096607 28.42306,29.004783 26.662109,28.99023 Z m 0.917969,8.988282 c -3.813243,-0.0048 -7.379665,0.410834 -10.064453,1.082031 a 2,2 0 0 0 -1.455078,2.423828 2,2 0 0 0 2.423828,1.455078 c 5.391278,-1.347819 17.438862,-1.241506 23.621094,1.849609 a 2,2 0 0 0 2.683593,-0.894531 2,2 0 0 0 -0.894531,-2.683593 c -3.908877,-1.954439 -8.851018,-2.904387 -13.642578,-3.160157 -0.898417,-0.04796 -1.791896,-0.07116 -2.671875,-0.07227 z" />
    </clipPath>
    <inkscape:path-effect
       effect="powerclip"
       id="path-effect34"
       is_visible="true"
       lpeversion="1"
       inverse="true"
       flatten="false"
       hide_clip="false"
       message="Use fill-rule evenodd on &lt;b&gt;fill and stroke&lt;/b&gt; dialog if no flatten result after convert clip to paths." />
    <clipPath
       clipPathUnits="userSpaceOnUse"
       id="clipPath1299">
      <path
         style="color:#000000;display:block;opacity:0.85;fill:#ffffff;-inkscape-stroke:none"
         d="m 24.149464,39.847234 c 1.129182,1.129183 1.129024,2.947446 -3.54e-4,4.076824 L 11.920405,56.152763 c -1.129378,1.129378 -2.9476414,1.129536 -4.0768237,3.54e-4 -1.1291824,-1.129183 -1.1290247,-2.947446 3.535e-4,-4.076825 L 20.072639,39.847588 c 1.129379,-1.129378 2.947642,-1.129536 4.076825,-3.54e-4 z"
         id="path1301" />
    </clipPath>
    <inkscape:path-effect
       effect="powerclip"
       id="path-effect1303"
       is_visible="true"
       lpeversion="1"
       inverse="true"
       flatten="false"
       hide_clip="false"
       message="Use fill-rule evenodd on &lt;b&gt;fill and stroke&lt;/b&gt; dialog if no flatten result after convert clip to paths." />
    <clipPath
       clipPathUnits="userSpaceOnUse"
       id="clipPath88">
      <path
         style="display:block;fill:#e6e6e6;stroke-width:0.916698"
         d="m 23.606013,28.678269 -0.15639,2.012623 a 5.5308919,6.0029796 0 0 0 -1.615464,1.014705 l -1.685925,-0.861753 -1.759824,3.308983 1.531254,1.152735 a 5.5308919,6.0029796 0 0 0 -0.08593,1.01284 5.5308919,6.0029796 0 0 0 0.08078,1.01657 l -1.526098,1.149004 1.759824,3.308984 1.682488,-0.858024 a 5.5308919,6.0029796 0 0 0 1.618901,1.007245 l 0.156391,2.016353 h 3.519648 l 0.152953,-2.012623 a 5.5308919,6.0029796 0 0 0 1.6189,-1.014705 l 1.684207,0.861754 1.759824,-3.308984 -1.529535,-1.152735 a 5.5308919,6.0029796 0 0 0 0.08593,-1.012839 5.5308919,6.0029796 0 0 0 -0.08078,-1.016571 l 1.526098,-1.149004 -1.759824,-3.308983 -1.682489,0.858023 A 5.5308919,6.0029796 0 0 0 27.28205,30.694623 l -0.156389,-2.016354 z m 1.696236,4.775083 a 2.6394276,2.8654438 0 0 1 0.06359,0 2.6394276,2.8654438 0 0 1 2.639736,2.86505 2.6394276,2.8654438 0 0 1 -2.639736,2.865049 2.6394276,2.8654438 0 0 1 -2.639736,-2.865049 2.6394276,2.8654438 0 0 1 2.576148,-2.86505 z"
         id="path90" />
    </clipPath>
    <inkscape:path-effect
       effect="powerclip"
       id="path-effect92"
       is_visible="true"
       lpeversion="1"
       inverse="true"
       flatten="false"
       hide_clip="false"
       message="Use fill-rule evenodd on &lt;b&gt;fill and stroke&lt;/b&gt; dialog if no flatten result after convert clip to paths." />
  </defs>
  <circle
     cx="32.516094"
     cy="31.877844"
     r="0"
     fill="url(#b)"
     stroke-width="1.5715"
     id="circle41"
     style="fill:url(#b)" />
  <g
     aria-label="GZ"
     transform="matrix(1.2212657,0,0,0.81882264,0.4960938,-0.1661539)"
     id="text93"
     style="font-weight:bold;font-size:11.5263px;line-height:1.25;font-family:sans-serif;-inkscape-font-specification:'sans-serif Bold';fill:#f2f2f2;stroke-width:0.288159" />
  <g
     id="g877"
     transform="matrix(1.1,0,0,1.1,-3.1845928,-3.2065454)">
    <path
       d="m 18.347203,7.2464043 c -6.244452,0 -11.2714308,5.1741617 -11.2714308,11.6016437 v 26.767119 c 0,6.427394 5.0268918,11.601644 11.2714308,11.601644 h 26.005262 c 6.244452,0 11.271431,-5.174161 11.271431,-11.601644 V 18.848048 c 0,-6.427393 -5.026893,-11.6016437 -11.271431,-11.6016437 z"
       fill="url(#linearGradient910)"
       stroke-width="3.32418"
       id="path33"
       style="fill:#578376;fill-opacity:1"
       clip-path="url(#clipPath1976)"
       inkscape:path-effect="#path-effect1980"
       inkscape:original-d="m 18.347203,7.2464043 c -6.244452,0 -11.2714308,5.1741617 -11.2714308,11.6016437 v 26.767119 c 0,6.427394 5.0268918,11.601644 11.2714308,11.601644 h 26.005262 c 6.244452,0 11.271431,-5.174161 11.271431,-11.601644 V 18.848048 c 0,-6.427393 -5.026893,-11.6016437 -11.271431,-11.6016437 z"
       transform="matrix(1.1,0,0,1.1,-2.6388896,-3.3893147)" />
    <rect
       x="8.0073938"
       y="7.5283623"
       width="47.677586"
       height="49.074364"
       rx="9.5358982"
       ry="9.8152657"
       fill="url(#linearGradient862)"
       stroke-width="3.26449"
       id="rect35-7"
       style="opacity:1;fill:#f5f7fa;fill-opacity:1" />
    <rect
       x="10.391273"
       y="9.9820805"
       width="42.909828"
       height="44.166924"
       rx="8.5823088"
       ry="8.8337393"
       fill="url(#linearGradient862)"
       stroke-width="2.93805"
       id="rect35-7-3"
       style="fill:#578376;fill-opacity:1" />
  </g>
  <path
     style="fill:#f5f7fa;fill-opacity:1;stroke-width:0.0115617;-inkscape-stroke:none;stop-color:#000000"
     d="m 30.451122,51.71337 -0.79919,-1.076748 -1.163956,-0.08315 c -4.034847,-0.288257 -7.692962,-1.597894 -9.733239,-3.484591 -3.664385,-3.388551 -3.585805,-7.826193 0.245241,-13.8494 1.025037,-1.611579 1.494413,-2.531671 1.919952,-3.763583 0.414094,-1.198782 0.56044,-3.137617 0.316026,-4.186817 -0.194248,-0.833859 -0.986847,-2.445561 -1.375761,-2.797521 -0.243872,-0.220701 -0.285621,-0.207474 -0.838311,0.265606 -1.444727,1.236634 -3.525225,1.166065 -4.900479,-0.166222 -0.974282,-0.943842 -1.207363,-2.175113 -0.624951,-3.301376 0.496467,-0.960057 1.96629,-1.788711 3.172728,-1.788711 0.670859,0 1.657325,0.369591 2.589777,0.970292 l 0.830687,0.535142 h 2.346118 2.346116 l 0.03936,-1.262973 c 0.03852,-1.236604 0.04711,-1.265701 0.411564,-1.393538 0.29469,-0.103367 0.430087,-0.07819 0.650072,0.120891 0.236958,0.21444 0.277862,0.419588 0.277862,1.393537 v 1.142079 h 0.752716 0.752717 v -1.633379 c 0,-1.946122 0.108944,-2.335488 0.65353,-2.335488 0.656439,0 0.715045,0.176105 0.715045,2.148664 v 1.820207 h 0.821147 0.821145 v -2.453658 c 0,-2.048124 0.03555,-2.489206 0.215061,-2.668722 0.250017,-0.250017 0.517499,-0.272103 0.888796,-0.07339 0.247048,0.132214 0.26472,0.310369 0.26472,2.668722 v 2.527052 h 0.821145 0.821146 v -1.820209 c 0,-1.23324 0.05298,-1.873167 0.16423,-1.984436 0.260229,-0.260229 0.902105,-0.199533 1.062672,0.100496 0.07792,0.145596 0.141672,1.041664 0.141672,1.991264 v 1.726548 l 0.786932,-0.04104 0.786932,-0.04104 0.03962,-1.202902 c 0.03652,-1.108722 0.06464,-1.214297 0.359045,-1.34844 0.229518,-0.104577 0.401345,-0.101706 0.610455,0.01023 0.263572,0.141058 0.291025,0.271493 0.291025,1.382656 v 1.226903 h 2.346005 2.346004 l 0.844313,-0.533231 c 1.002,-0.63282 1.93573,-0.972202 2.674783,-0.972202 1.28122,0 2.735221,0.943424 3.209822,2.082682 1.062327,2.550062 -2.202259,4.998753 -4.876615,3.657836 -0.325053,-0.162981 -0.765417,-0.458914 -0.978586,-0.65763 l -0.387584,-0.361294 -0.324917,0.40529 c -0.885577,1.104635 -1.433514,2.678419 -1.429411,4.105551 0.0056,1.92315 0.686035,3.786302 2.355955,6.450355 1.227615,1.958436 1.719726,2.910998 2.220657,4.298426 1.245853,3.450675 0.914622,6.302897 -1.012378,8.717577 -1.836407,2.301159 -5.898811,3.997101 -10.450375,4.362742 l -1.204175,0.09673 -0.770011,1.075497 c -0.452315,0.631762 -0.867721,1.075499 -1.006836,1.075499 -0.136738,0 -0.574567,-0.455045 -1.036013,-1.076748 z m -0.218881,-4.191854 0.444787,-0.604767 V 34.183237 21.449728 H 29.855883 29.034735 V 34.793344 48.13696 l 0.376359,-0.0055 c 0.28361,-0.004 0.485971,-0.154375 0.821147,-0.610107 z M 33.687895,34.793344 V 21.449728 H 32.86675 32.045605 V 34.046502 46.64327 l 0.563873,0.746847 c 0.331994,0.439725 0.669669,0.746843 0.821145,0.746843 0.250033,0 0.257272,-0.375512 0.257272,-13.343616 z M 27.66616,34.724902 V 21.449728 h -0.752716 -0.752717 v 13.135723 13.135723 l 0.30793,0.06571 c 0.759385,0.162043 0.865179,0.182384 1.026432,0.197348 0.135791,0.01259 0.171071,-2.721934 0.171071,-13.259315 z m 8.622029,13.059026 0.410573,-0.0793 V 34.577183 21.449728 H 35.877617 35.05647 V 34.73579 48.02185 l 0.410575,-0.0793 c 0.225815,-0.04363 0.59533,-0.114986 0.821144,-0.158606 z M 24.792152,34.382771 V 21.449728 h -1.106267 c -0.608446,0 -1.083285,0.04619 -1.055199,0.102641 1.454685,2.923968 1.686912,3.773026 1.562802,5.713804 -0.141801,2.217379 -0.889681,4.22785 -2.5455,6.84288 -1.773227,2.800455 -2.56659,4.75337 -2.702611,6.652662 -0.20339,2.839958 1.105438,4.689862 4.307106,6.087678 0.583366,0.254692 1.168443,0.46383 1.300167,0.464748 0.226417,0.0015 0.239502,-0.70479 0.239502,-12.931374 z m 15.29784,12.183376 c 1.585182,-0.762656 2.602597,-1.687638 3.207262,-2.915886 0.362742,-0.736833 0.444928,-1.08335 0.492387,-2.076045 0.103323,-2.161009 -0.609801,-4.156503 -2.639632,-7.38637 -1.873227,-2.980672 -2.550336,-4.885367 -2.582257,-7.263814 -0.02319,-1.728291 0.162372,-2.560164 0.915873,-4.105729 0.311923,-0.639808 0.587889,-1.209476 0.61326,-1.26593 0.02537,-0.05646 -0.451692,-0.102641 -1.060139,-0.102641 h -1.106265 v 12.950149 12.95015 l 0.444787,-0.08644 c 0.244634,-0.04754 1.016259,-0.361392 1.714724,-0.69743 z"
     id="path2477" />
  <g
     id="g1026"
     style="fill:#f5f7fa;fill-opacity:1"
     transform="translate(1.2014655,1.5487335)"
     inkscape:transform-center-x="0.56988548"
     inkscape:transform-center-y="4.5999709">
    <g
       id="g1765"
       transform="matrix(1.21,0,0,1.21,5.495892,-13.519947)"
       style="fill:#f5f7fa;fill-opacity:1">
      <g
         id="g1049"
         transform="matrix(0.38742049,0,0,0.38742049,24.944519,40.263873)"
         style="fill:#f5f7fa;fill-opacity:1">
        <rect
           x="0.4955225"
           y="1.188356"
           width="53.734447"
           height="53.524654"
           rx="10.747319"
           ry="10.705359"
           fill="url(#linearGradient862)"
           stroke-width="3.61939"
           id="rect35-3-0"
           style="fill:#f5f7fa;fill-opacity:1;stroke:#578376;stroke-opacity:1" />
      </g>
    </g>
  </g>
  <g
     id="g884"
     transform="matrix(3.3676254,0,0,3.3676254,28.488968,8.440731)">
    <path
       d="m 7.0908066,9.6496973 c -0.947206,0 -1.717546,0.7783087 -1.717546,1.7347807 0,0.0077 -1.09e-4,0.01545 2.45e-4,0.02264 l -1.103313,1.615937 c -0.01704,-9.39e-4 -0.03408,-0.0015 -0.05114,-0.0016 -0.24754,2.71e-4 -0.4894733,0.07434 -0.6954483,0.212747 l -0.1191,-0.04948 -0.6490505,-0.269959 -0.011132,0.952658 c -0.011132,0.955262 0.5686535,1.779536 1.5640458,1.683214 0.147884,-0.01045 0.292771,-0.04715 0.427964,-0.10846 0.0013,-7.23e-4 0.0025,-0.0014 0.0038,-0.0022 0.447767,-0.205562 0.735376,-0.655636 0.735943,-1.15166 -3.02e-4,-0.01089 -8.95e-4,-0.02186 -0.0015,-0.03278 l 1.57743,-1.136512 c 0.01278,4.23e-4 0.02592,6.39e-4 0.03872,6.39e-4 0.947586,0 1.717848,-0.778675 1.717848,-1.735086 0,-0.956502 -0.770127,-1.7344763 -1.717848,-1.7344763 v -2.65e-4 z m 0,0.5789577 c 0.63121,0 1.144991,0.518877 1.144991,1.155839 0,0.637447 -0.513781,1.156129 -1.144991,1.156129 -0.630816,0 -1.144098,-0.518682 -1.144098,-1.156129 0,-0.636946 0.513298,-1.155839 1.144098,-1.155839 z m 0.0022,0.285457 c -0.474376,0 -0.859486,0.389049 -0.859486,0.868596 0,0.479578 0.38511,0.868292 0.859486,0.868292 0.474768,0 0.859772,-0.388714 0.859772,-0.868292 0,-0.479547 -0.385018,-0.868596 -0.859772,-0.868596 z m -2.873677,2.803325 c 0.09494,3e-6 0.189362,0.01416 0.280194,0.04202 0.02939,0.0092 0.05852,0.01972 0.08748,0.0319 0.08957,0.03758 0.171651,0.08757 0.244422,0.148091 0.121281,0.100881 0.216744,0.231025 0.278122,0.381711 0.02337,0.05736 0.04073,0.116281 0.0529,0.175796 8.94e-4,0.004 0.0016,0.008 0.0026,0.01198 0.0041,0.02165 0.0068,0.04347 0.0095,0.06525 0.0015,0.01113 0.0029,0.02242 0.0041,0.03367 0.0024,0.02685 0.0037,0.05354 0.0038,0.08044 v 2.59e-4 c -1.73e-4,0.536144 -0.431419,0.970636 -0.963218,0.970492 -0.352678,-2.72e-4 -0.6769593,-0.195008 -0.8452913,-0.507451 l 0.5110263,0.212458 c 0.332524,0.138261 0.705254,0.0092 0.890522,-0.287549 1.33e-4,-2e-4 4.69e-4,-3e-4 5.97e-4,-6.38e-4 0.0022,-0.0035 0.0035,-0.0076 0.0056,-0.01101 0.01863,-0.03106 0.03742,-0.062 0.05172,-0.09654 8.95e-4,-0.0021 9.81e-4,-0.004 0.0017,-0.0061 0.01847,-0.04468 0.03198,-0.09016 0.04108,-0.135876 5.7e-5,-2.45e-4 -5.6e-5,-6.39e-4 0,-8.95e-4 0.0093,-0.04731 0.01375,-0.09469 0.01359,-0.141835 -4.68e-4,-0.141996 -0.04268,-0.280347 -0.119693,-0.397195 -7.23e-4,-10e-4 -0.0015,-0.0018 -0.0024,-0.0029 -0.02469,-0.03704 -0.05277,-0.07188 -0.08424,-0.103983 -0.02537,-0.02602 -0.05443,-0.04869 -0.08394,-0.07092 -0.0075,-0.0056 -0.01356,-0.01251 -0.02128,-0.01789 -1.63e-4,-1.22e-4 -3.87e-4,-1.53e-4 -6.38e-4,-2.57e-4 -0.04156,-0.02879 -0.08644,-0.05429 -0.135073,-0.0745 L 3.8771816,13.38108 c 0.109208,-0.04201 0.225083,-0.06361 0.341966,-0.06377 z"
       color="#000000"
       fill="url(#b)"
       stroke-width="0.162077"
       id="path25"
       style="fill:#616161"
       sodipodi:nodetypes="csccccccsccccccsscccssssssssssccccccccccsccccccccsccsccccccccc" />
  </g>
</svg>
