<?xml version="1.0" encoding="UTF-8" standalone="no"?>
<svg
   width="64"
   height="64"
   version="1.1"
   id="svg73"
   sodipodi:docname="steam_icon_1227280.svg"
   inkscape:version="1.2.2 (1:1.2.2+202212051550+b0a8486541)"
   xmlns:inkscape="http://www.inkscape.org/namespaces/inkscape"
   xmlns:sodipodi="http://sodipodi.sourceforge.net/DTD/sodipodi-0.dtd"
   xmlns="http://www.w3.org/2000/svg"
   xmlns:svg="http://www.w3.org/2000/svg"
   xmlns:rdf="http://www.w3.org/1999/02/22-rdf-syntax-ns#"
   xmlns:cc="http://creativecommons.org/ns#"
   xmlns:dc="http://purl.org/dc/elements/1.1/">
  <metadata
     id="metadata77">
    <rdf:RDF>
      <cc:Work
         rdf:about="">
        <dc:format>image/svg+xml</dc:format>
        <dc:type
           rdf:resource="http://purl.org/dc/dcmitype/StillImage" />
      </cc:Work>
    </rdf:RDF>
  </metadata>
  <sodipodi:namedview
     pagecolor="#ffffff"
     bordercolor="#666666"
     borderopacity="1"
     objecttolerance="10"
     gridtolerance="10"
     guidetolerance="10"
     inkscape:pageopacity="0"
     inkscape:pageshadow="2"
     inkscape:window-width="1377"
     inkscape:window-height="886"
     id="namedview75"
     showgrid="false"
     inkscape:zoom="6.2890625"
     inkscape:cx="23.453416"
     inkscape:cy="39.115528"
     inkscape:window-x="267"
     inkscape:window-y="108"
     inkscape:window-maximized="0"
     inkscape:current-layer="svg73"
     inkscape:document-rotation="0"
     inkscape:pagecheckerboard="0"
     inkscape:showpageshadow="2"
     inkscape:deskcolor="#d1d1d1" />
  <defs
     id="defs29">
    <inkscape:path-effect
       effect="powerclip"
       id="path-effect1980"
       is_visible="true"
       lpeversion="1"
       inverse="true"
       flatten="false"
       hide_clip="false"
       message="Use fill-rule evenodd on &lt;b&gt;fill and stroke&lt;/b&gt; dialog if no flatten result after convert clip to paths." />
    <linearGradient
       id="b"
       x1="399.57"
       x2="399.57"
       y1="545.8"
       y2="517.8"
       gradientTransform="matrix(2.1429,0,0,2.1429,-825.86391,-1107.6662)"
       gradientUnits="userSpaceOnUse">
      <stop
         stop-color="#3889e9"
         offset="0"
         id="stop2" />
      <stop
         stop-color="#5ea5fb"
         offset="1"
         id="stop4" />
    </linearGradient>
    <linearGradient
       id="linearGradient862"
       x1="7.9373"
       x2="7.9373"
       y1="15.081"
       y2="1.852"
       gradientTransform="matrix(3.3743 0 0 3.3743 3.4312 3.4278)"
       gradientUnits="userSpaceOnUse">
      <stop
         stop-color="#f1efeb"
         offset="0"
         id="stop7" />
      <stop
         stop-color="#fff"
         offset="1"
         id="stop9" />
    </linearGradient>
    <linearGradient
       id="linearGradient910"
       x1="7.9373"
       x2="7.9373"
       y1="15.081"
       y2="1.852"
       gradientTransform="scale(3.7796)"
       gradientUnits="userSpaceOnUse">
      <stop
         stop-color="#613583"
         offset="0"
         id="stop12" />
      <stop
         stop-color="#a663c0"
         offset="1"
         id="stop14" />
    </linearGradient>
    <linearGradient
       id="linearGradient932"
       x1="379.24"
       x2="374.24"
       y1="546.85"
       y2="546.85"
       gradientTransform="matrix(2.1429 0 0 2.1429 -769.68 -1134.5)"
       gradientUnits="userSpaceOnUse">
      <stop
         stop-color="#f6f5f4"
         offset="0"
         id="stop17" />
      <stop
         stop-color="#fff"
         offset=".6"
         id="stop19" />
      <stop
         stop-color="#dddbd8"
         offset="1"
         id="stop21" />
    </linearGradient>
    <linearGradient
       id="linearGradient1146"
       x1="18"
       x2="18"
       y1="52"
       y2="12"
       gradientUnits="userSpaceOnUse">
      <stop
         stop-color="#5e337f"
         offset="0"
         id="stop24" />
      <stop
         stop-color="#ab60bf"
         offset="1"
         id="stop26" />
    </linearGradient>
    <clipPath
       clipPathUnits="userSpaceOnUse"
       id="clipPath1976">
      <rect
         x="9.6784649"
         y="9.925169"
         width="43.343258"
         height="44.613056"
         rx="8.6689987"
         ry="8.9229689"
         fill="url(#linearGradient862)"
         stroke-width="2.96772"
         id="rect1978"
         style="display:none;fill:#333333;fill-opacity:1"
         d="m 18.347464,9.925169 h 26.00526 c 4.802625,0 8.668999,3.979644 8.668999,8.922969 v 26.767118 c 0,4.943325 -3.866374,8.922969 -8.668999,8.922969 h -26.00526 c -4.802626,0 -8.6689991,-3.979644 -8.6689991,-8.922969 V 18.848138 c 0,-4.943325 3.8663731,-8.922969 8.6689991,-8.922969 z" />
      <path
         id="lpe_path-effect1980"
         style="fill:#333333;fill-opacity:1"
         class="powerclip"
         d="M 2.0757722,2.2464043 H 60.623896 V 62.216811 H 2.0757722 Z M 18.347464,9.925169 c -4.802626,0 -8.6689991,3.979644 -8.6689991,8.922969 v 26.767118 c 0,4.943325 3.8663731,8.922969 8.6689991,8.922969 h 26.00526 c 4.802625,0 8.668999,-3.979644 8.668999,-8.922969 V 18.848138 c 0,-4.943325 -3.866374,-8.922969 -8.668999,-8.922969 z" />
    </clipPath>
    <filter
       style="color-interpolation-filters:sRGB;"
       inkscape:label="Drop Shadow"
       id="filter663"
       x="-0.098870968"
       y="-0.096056853"
       width="1.2389382"
       height="1.2321374">
      <feFlood
         flood-opacity="0.301961"
         flood-color="rgb(0,0,0)"
         result="flood"
         id="feFlood653" />
      <feComposite
         in="flood"
         in2="SourceGraphic"
         operator="in"
         result="composite1"
         id="feComposite655" />
      <feGaussianBlur
         in="composite1"
         stdDeviation="2"
         result="blur"
         id="feGaussianBlur657" />
      <feOffset
         dx="2"
         dy="2"
         result="offset"
         id="feOffset659" />
      <feComposite
         in="SourceGraphic"
         in2="offset"
         operator="over"
         result="composite2"
         id="feComposite661" />
    </filter>
    <clipPath
       clipPathUnits="userSpaceOnUse"
       id="clipPath38">
      <rect
         x="0.97311002"
         y="4.6963"
         width="14.987"
         height="9.9216995"
         ry="0.29919001"
         fill="#fffffc"
         id="rect40"
         style="display:block;opacity:0.85;fill:#f2f2f2;stroke-width:0.999999" />
    </clipPath>
    <inkscape:path-effect
       effect="powerclip"
       id="path-effect42"
       is_visible="true"
       lpeversion="1"
       inverse="true"
       flatten="false"
       hide_clip="false"
       message="Use fill-rule evenodd on &lt;b&gt;fill and stroke&lt;/b&gt; dialog if no flatten result after convert clip to paths." />
    <clipPath
       clipPathUnits="userSpaceOnUse"
       id="clipPath30">
      <path
         id="path32"
         style="color:#000000;display:block;opacity:0.85;fill:#ffffff;stroke-linecap:round;-inkscape-stroke:none"
         d="m 27.902344,19.023438 c -5.140587,0.01596 -9.820748,0.752518 -13.330078,2.15625 a 2.5,2.5 0 0 0 -1.392578,3.248046 2.5,2.5 0 0 0 3.248046,1.392578 c 3.180816,-1.272325 8.839301,-2.056673 14.796875,-1.699218 5.957575,0.357454 12.260098,1.820223 17.035157,4.548828 a 2.5,2.5 0 0 0 3.410156,-0.929688 2.5,2.5 0 0 0 -0.929688,-3.410156 c -5.72493,-3.271389 -12.67243,-4.808627 -19.214843,-5.201172 -1.226703,-0.0736 -2.436758,-0.109153 -3.623047,-0.105468 z m -1.240235,9.966796 c -1.05657,-0.0087 -2.093217,0.01082 -3.097656,0.05859 -2.678505,0.127409 -5.127438,0.45996 -7.113281,1.027344 a 2,2 0 0 0 -1.375,2.472656 2,2 0 0 0 2.472656,1.375 c 3.028306,-0.86523 8.701737,-1.165792 14.148438,-0.68164 5.4467,0.484152 10.812065,1.834345 13.193359,3.421874 a 2,2 0 0 0 2.773437,-0.554687 2,2 0 0 0 -0.554687,-2.773437 C 43.490675,30.923467 37.856023,29.773657 32.052734,29.257808 30.239207,29.096607 28.42306,29.004783 26.662109,28.99023 Z m 0.917969,8.988282 c -3.813243,-0.0048 -7.379665,0.410834 -10.064453,1.082031 a 2,2 0 0 0 -1.455078,2.423828 2,2 0 0 0 2.423828,1.455078 c 5.391278,-1.347819 17.438862,-1.241506 23.621094,1.849609 a 2,2 0 0 0 2.683593,-0.894531 2,2 0 0 0 -0.894531,-2.683593 c -3.908877,-1.954439 -8.851018,-2.904387 -13.642578,-3.160157 -0.898417,-0.04796 -1.791896,-0.07116 -2.671875,-0.07227 z" />
    </clipPath>
    <inkscape:path-effect
       effect="powerclip"
       id="path-effect34"
       is_visible="true"
       lpeversion="1"
       inverse="true"
       flatten="false"
       hide_clip="false"
       message="Use fill-rule evenodd on &lt;b&gt;fill and stroke&lt;/b&gt; dialog if no flatten result after convert clip to paths." />
    <clipPath
       clipPathUnits="userSpaceOnUse"
       id="clipPath1299">
      <path
         style="color:#000000;display:block;opacity:0.85;fill:#ffffff;-inkscape-stroke:none"
         d="m 24.149464,39.847234 c 1.129182,1.129183 1.129024,2.947446 -3.54e-4,4.076824 L 11.920405,56.152763 c -1.129378,1.129378 -2.9476414,1.129536 -4.0768237,3.54e-4 -1.1291824,-1.129183 -1.1290247,-2.947446 3.535e-4,-4.076825 L 20.072639,39.847588 c 1.129379,-1.129378 2.947642,-1.129536 4.076825,-3.54e-4 z"
         id="path1301" />
    </clipPath>
    <inkscape:path-effect
       effect="powerclip"
       id="path-effect1303"
       is_visible="true"
       lpeversion="1"
       inverse="true"
       flatten="false"
       hide_clip="false"
       message="Use fill-rule evenodd on &lt;b&gt;fill and stroke&lt;/b&gt; dialog if no flatten result after convert clip to paths." />
    <clipPath
       clipPathUnits="userSpaceOnUse"
       id="clipPath88">
      <path
         style="display:block;fill:#e6e6e6;stroke-width:0.916698"
         d="m 23.606013,28.678269 -0.15639,2.012623 a 5.5308919,6.0029796 0 0 0 -1.615464,1.014705 l -1.685925,-0.861753 -1.759824,3.308983 1.531254,1.152735 a 5.5308919,6.0029796 0 0 0 -0.08593,1.01284 5.5308919,6.0029796 0 0 0 0.08078,1.01657 l -1.526098,1.149004 1.759824,3.308984 1.682488,-0.858024 a 5.5308919,6.0029796 0 0 0 1.618901,1.007245 l 0.156391,2.016353 h 3.519648 l 0.152953,-2.012623 a 5.5308919,6.0029796 0 0 0 1.6189,-1.014705 l 1.684207,0.861754 1.759824,-3.308984 -1.529535,-1.152735 a 5.5308919,6.0029796 0 0 0 0.08593,-1.012839 5.5308919,6.0029796 0 0 0 -0.08078,-1.016571 l 1.526098,-1.149004 -1.759824,-3.308983 -1.682489,0.858023 A 5.5308919,6.0029796 0 0 0 27.28205,30.694623 l -0.156389,-2.016354 z m 1.696236,4.775083 a 2.6394276,2.8654438 0 0 1 0.06359,0 2.6394276,2.8654438 0 0 1 2.639736,2.86505 2.6394276,2.8654438 0 0 1 -2.639736,2.865049 2.6394276,2.8654438 0 0 1 -2.639736,-2.865049 2.6394276,2.8654438 0 0 1 2.576148,-2.86505 z"
         id="path90" />
    </clipPath>
    <inkscape:path-effect
       effect="powerclip"
       id="path-effect92"
       is_visible="true"
       lpeversion="1"
       inverse="true"
       flatten="false"
       hide_clip="false"
       message="Use fill-rule evenodd on &lt;b&gt;fill and stroke&lt;/b&gt; dialog if no flatten result after convert clip to paths." />
  </defs>
  <circle
     cx="32.516094"
     cy="31.877844"
     r="0"
     fill="url(#b)"
     stroke-width="1.5715"
     id="circle41"
     style="fill:url(#b)" />
  <g
     aria-label="GZ"
     transform="matrix(1.2212657,0,0,0.81882264,0.4960938,-0.1661539)"
     id="text93"
     style="font-weight:bold;font-size:11.5263px;line-height:1.25;font-family:sans-serif;-inkscape-font-specification:'sans-serif Bold';fill:#f2f2f2;stroke-width:0.288159" />
  <g
     id="g877"
     transform="matrix(1.1,0,0,1.1,-3.1845928,-3.2065454)">
    <path
       d="m 18.347203,7.2464043 c -6.244452,0 -11.2714308,5.1741617 -11.2714308,11.6016437 v 26.767119 c 0,6.427394 5.0268918,11.601644 11.2714308,11.601644 h 26.005262 c 6.244452,0 11.271431,-5.174161 11.271431,-11.601644 V 18.848048 c 0,-6.427393 -5.026893,-11.6016437 -11.271431,-11.6016437 z"
       fill="url(#linearGradient910)"
       stroke-width="3.32418"
       id="path33"
       style="fill:#578376;fill-opacity:1"
       clip-path="url(#clipPath1976)"
       inkscape:path-effect="#path-effect1980"
       inkscape:original-d="m 18.347203,7.2464043 c -6.244452,0 -11.2714308,5.1741617 -11.2714308,11.6016437 v 26.767119 c 0,6.427394 5.0268918,11.601644 11.2714308,11.601644 h 26.005262 c 6.244452,0 11.271431,-5.174161 11.271431,-11.601644 V 18.848048 c 0,-6.427393 -5.026893,-11.6016437 -11.271431,-11.6016437 z"
       transform="matrix(1.1,0,0,1.1,-2.6388896,-3.3893147)" />
    <rect
       x="8.0073938"
       y="7.5283623"
       width="47.677586"
       height="49.074364"
       rx="9.5358982"
       ry="9.8152657"
       fill="url(#linearGradient862)"
       stroke-width="3.26449"
       id="rect35-7"
       style="opacity:1;fill:#f5f7fa;fill-opacity:1" />
    <rect
       x="10.391273"
       y="9.9820805"
       width="42.909828"
       height="44.166924"
       rx="8.5823088"
       ry="8.8337393"
       fill="url(#linearGradient862)"
       stroke-width="2.93805"
       id="rect35-7-3"
       style="fill:#578376;fill-opacity:1" />
  </g>
  <path
     style="fill:#f5f7fa;stroke-width:0.161051;fill-opacity:1"
     d="M 23.417518,48.805372 C 22.956846,48.3083 21.550396,45.619067 20.926818,44.042977 20.663975,43.378642 20.281013,42.150279 20.075791,41.313281 19.675206,39.679509 19.2747,39.07612 17.657562,37.670058 c -2.136175,-1.857346 -2.974636,-2.851186 -4.660525,-5.524185 -0.628553,-0.996575 -1.280378,-2.435579 -1.280378,-2.826631 0,-0.305562 1.633312,-1.147131 3.623647,-1.867089 1.924135,-0.696013 4.562474,-1.563236 5.112388,-1.680444 0.291247,-0.06206 0.525039,-0.271678 0.685739,-0.614782 0.134112,-0.286327 0.416614,-0.77425 0.627793,-1.084274 0.21118,-0.310023 0.989691,-1.4847 1.730025,-2.610393 1.839266,-2.796637 2.162115,-2.891747 4.308296,-1.26921 0.654869,0.495087 1.40878,1.059791 1.675355,1.254894 l 0.484684,0.354734 0.820936,-0.845176 c 0.451516,-0.464844 1.120558,-1.076877 1.486762,-1.36007 4.400782,-3.403217 6.75122,-4.387412 8.675131,-3.632528 0.354313,0.139016 1.079042,0.41197 1.61051,0.606551 1.521207,0.556948 2.818834,1.250488 3.166386,1.692338 l 0.319155,0.405742 -1.259614,0.18656 c -1.548663,0.229372 -1.998629,0.401851 -2.522641,0.966976 -0.378787,0.408502 -0.404037,0.531405 -0.34402,1.674376 0.03562,0.678432 0.138415,1.427243 0.22845,1.664026 0.09002,0.23678 0.2522,1.226587 0.360389,2.199563 l 0.196709,1.769051 0.571797,0.08989 c 4.504093,0.708122 7.47054,1.549772 8.346932,2.368227 0.332539,0.310546 0.374926,0.462882 0.294353,1.057591 -0.120794,0.891521 -0.94194,2.285998 -2.324417,3.947305 -1.367999,1.643927 -1.960376,2.516481 -1.960376,2.887612 0,0.158489 0.173386,1.029462 0.385298,1.935491 0.211926,0.906027 0.582167,2.874574 0.822777,4.374547 0.568332,3.543102 0.715211,3.385583 -2.577009,2.763874 -2.379175,-0.449294 -6.385503,-1.402767 -7.238408,-1.722688 l -0.796375,-0.298715 -2.585696,1.26581 c -2.544236,1.245515 -3.408921,1.587822 -5.645668,2.234981 -1.478262,0.427706 -2.407634,0.642379 -4.002549,0.924529 -1.824649,0.322794 -2.152853,0.303278 -2.57588,-0.153174 z m 2.210117,-0.595237 c 1.667047,-0.388311 6.507401,-2.175369 8.797215,-3.247933 0.841492,-0.394159 2.053357,-0.850227 2.693032,-1.013484 1.003101,-0.256007 1.257802,-0.268604 1.852087,-0.09161 2.294306,0.683338 6.515619,1.620606 8.436182,1.873105 l 0.82194,0.108064 0.10516,-0.895264 c 0.118362,-1.006878 -0.18487,-2.607032 -1.101314,-5.812094 l -0.5526,-1.932612 0.900631,-1.368934 c 1.069072,-1.62498 2.334964,-3.334804 3.345254,-4.518378 0.812566,-0.951944 0.903464,-1.337419 0.381287,-1.616876 -0.480946,-0.257396 -3.11888,-0.899332 -4.26553,-1.03801 -0.517007,-0.06252 -1.66228,-0.29063 -2.545061,-0.506892 -1.521072,-0.372629 -1.615884,-0.378405 -1.811825,-0.110449 -0.230054,0.314618 -0.26289,0.693129 -0.08349,0.962681 0.06508,0.09779 0.710239,0.217353 1.433693,0.265697 1.237006,0.08267 5.14423,1.04208 4.966735,1.219579 -0.04429,0.04427 -1.030437,-0.01346 -2.191485,-0.128575 l -2.110989,-0.209069 -0.892368,0.892369 c -0.859297,0.859295 -0.89393,0.927253 -0.934438,1.833583 -0.08938,2.00006 -0.402308,2.671773 -1.797056,3.857576 -1.74109,1.480265 -2.266575,1.864186 -3.576779,2.613229 -1.549908,0.886075 -2.03899,1.088733 -3.572311,1.480222 -2.714348,0.693036 -4.203327,0.25308 -6.384086,-1.886334 -0.705413,-0.692041 -1.468421,-1.584382 -1.695577,-1.982983 -0.474041,-0.831835 -1.004439,-2.798154 -0.830633,-3.079379 0.06442,-0.104225 0.129015,-1.066546 0.143541,-2.13846 0.01853,-1.367221 0.111913,-2.213315 0.312871,-2.834711 0.268907,-0.831506 0.271041,-1.0034 0.03483,-2.805331 -0.138401,-1.055753 -0.322187,-1.990099 -0.408411,-2.076322 -0.162544,-0.162546 0.537853,-1.238285 0.806226,-1.238285 0.07597,0 0.281562,0.271772 0.456921,0.603941 l 0.318831,0.603942 0.007,-0.860895 0.007,-0.860891 0.883342,0.498526 c 0.485835,0.274191 0.988211,0.49853 1.116389,0.49853 0.294899,0 0.994037,-0.963703 0.801222,-1.104417 -1.13803,-0.830511 -2.753297,-1.793813 -3.156284,-1.882325 -0.554937,-0.12188 -0.703292,0.0048 -1.700219,1.452599 -0.242408,0.352024 -0.792826,1.109064 -1.22315,1.682311 -0.430324,0.573244 -0.928888,1.372318 -1.107918,1.775719 -0.179031,0.403398 -0.373646,0.834639 -0.432478,0.958308 -0.05883,0.123676 -0.756075,0.387638 -1.549423,0.586597 -2.185514,0.548088 -3.012429,0.79738 -5.468732,1.64868 -2.196962,0.761417 -2.255963,0.794015 -2.303555,1.272812 -0.03941,0.396492 0.160905,0.767719 1.037324,1.922344 1.447307,1.906731 3.567643,4.155854 5.05093,5.357717 0.664335,0.538288 1.334711,1.088901 1.489722,1.22358 0.184634,0.160407 0.282845,0.480941 0.284756,0.929335 0.0038,0.900366 0.811721,4.422681 1.329228,5.795342 0.717977,1.904391 1.846226,3.666405 2.347666,3.666405 0.03576,0 0.726244,-0.154031 1.534412,-0.342271 z m -0.704794,-1.36789 c 0,-0.120116 0.30801,-0.411107 0.684467,-0.646626 0.376457,-0.23552 0.914034,-0.61691 1.194615,-0.847539 2.241803,-1.842683 2.602601,-1.981785 5.529264,-2.131766 1.372961,-0.07038 2.916548,-0.23927 3.430193,-0.375359 0.513645,-0.136088 0.984719,-0.24555 1.046831,-0.243248 0.171562,0.0064 -2.084358,1.41649 -2.544412,1.590456 -2.301058,0.870125 -3.30909,1.210136 -5.314683,1.792643 -3.463885,1.006055 -4.026275,1.126381 -4.026275,0.861439 z m -1.302796,-0.823973 c -0.0921,-0.242262 -0.268199,-0.658982 -0.391316,-0.926043 -0.956407,-2.07463 -1.526908,-4.413377 -1.526908,-6.259515 0,-1.512483 -0.03044,-1.558841 -1.795067,-2.735351 -1.235136,-0.823481 -3.06543,-2.647715 -4.297301,-4.28307 -0.859944,-1.141614 -0.979011,-1.375639 -0.761742,-1.497228 0.373867,-0.209226 0.764665,-0.04953 2.827835,1.155538 1.018648,0.594981 2.275401,1.320437 2.792784,1.612126 0.517384,0.291688 1.068895,0.741145 1.225582,0.998796 0.302624,0.497625 0.507621,1.792088 0.901345,5.691601 0.134156,1.32867 0.347542,2.814366 0.474201,3.301545 0.795252,3.058895 0.989257,4.095388 0.550587,2.941601 z m 8.422689,-9.340632 1.885733,-0.928789 0.0033,-0.966306 c 0.0019,-0.531468 -0.10131,-1.54609 -0.229342,-2.254714 -0.338751,-1.874875 -0.313114,-3.071212 0.07941,-3.706353 0.177897,-0.287844 0.920745,-1.08752 1.650772,-1.777056 1.660407,-1.568313 1.985663,-2.005828 2.189802,-2.945607 0.696323,-3.205592 0.895415,-4.000419 1.052129,-4.20035 0.09849,-0.125634 0.721751,-0.630457 1.385043,-1.121809 1.157326,-0.857321 1.254804,-0.896881 2.415765,-0.980417 1.115937,-0.0803 1.180109,-0.103851 0.827278,-0.303833 -0.210375,-0.119221 -0.893444,-0.390563 -1.517932,-0.602965 -1.611724,-0.548183 -3.133788,-0.532421 -4.308673,0.04463 -2.420278,1.188715 -4.961088,3.280489 -6.616972,5.447556 -1.056406,1.38253 -2.804401,4.083491 -3.465095,5.354188 -0.311093,0.598318 -0.683215,1.218785 -0.826936,1.378817 -0.400005,0.445393 -0.471847,3.012548 -0.118338,4.228579 0.679203,2.336366 2.203397,4.206852 3.466588,4.254179 0.132873,0.005 1.090156,-0.408903 2.127311,-0.919739 z"
     id="path847" />
  <g
     id="g1026"
     style="fill:#f5f7fa;fill-opacity:1"
     transform="translate(1.2014655,1.5487335)"
     inkscape:transform-center-x="0.56988548"
     inkscape:transform-center-y="4.5999709">
    <g
       id="g1765"
       transform="matrix(1.21,0,0,1.21,5.495892,-13.519947)"
       style="fill:#f5f7fa;fill-opacity:1">
      <g
         id="g1049"
         transform="matrix(0.38742049,0,0,0.38742049,24.944519,40.263873)"
         style="fill:#f5f7fa;fill-opacity:1">
        <rect
           x="0.4955225"
           y="1.188356"
           width="53.734447"
           height="53.524654"
           rx="10.747319"
           ry="10.705359"
           fill="url(#linearGradient862)"
           stroke-width="3.61939"
           id="rect35-3-0"
           style="fill:#f5f7fa;fill-opacity:1;stroke:#578376;stroke-opacity:1" />
      </g>
    </g>
  </g>
  <g
     id="g884"
     transform="matrix(3.3676254,0,0,3.3676254,28.488968,8.440731)">
    <path
       d="m 7.0908066,9.6496973 c -0.947206,0 -1.717546,0.7783087 -1.717546,1.7347807 0,0.0077 -1.09e-4,0.01545 2.45e-4,0.02264 l -1.103313,1.615937 c -0.01704,-9.39e-4 -0.03408,-0.0015 -0.05114,-0.0016 -0.24754,2.71e-4 -0.4894733,0.07434 -0.6954483,0.212747 l -0.1191,-0.04948 -0.6490505,-0.269959 -0.011132,0.952658 c -0.011132,0.955262 0.5686535,1.779536 1.5640458,1.683214 0.147884,-0.01045 0.292771,-0.04715 0.427964,-0.10846 0.0013,-7.23e-4 0.0025,-0.0014 0.0038,-0.0022 0.447767,-0.205562 0.735376,-0.655636 0.735943,-1.15166 -3.02e-4,-0.01089 -8.95e-4,-0.02186 -0.0015,-0.03278 l 1.57743,-1.136512 c 0.01278,4.23e-4 0.02592,6.39e-4 0.03872,6.39e-4 0.947586,0 1.717848,-0.778675 1.717848,-1.735086 0,-0.956502 -0.770127,-1.7344763 -1.717848,-1.7344763 v -2.65e-4 z m 0,0.5789577 c 0.63121,0 1.144991,0.518877 1.144991,1.155839 0,0.637447 -0.513781,1.156129 -1.144991,1.156129 -0.630816,0 -1.144098,-0.518682 -1.144098,-1.156129 0,-0.636946 0.513298,-1.155839 1.144098,-1.155839 z m 0.0022,0.285457 c -0.474376,0 -0.859486,0.389049 -0.859486,0.868596 0,0.479578 0.38511,0.868292 0.859486,0.868292 0.474768,0 0.859772,-0.388714 0.859772,-0.868292 0,-0.479547 -0.385018,-0.868596 -0.859772,-0.868596 z m -2.873677,2.803325 c 0.09494,3e-6 0.189362,0.01416 0.280194,0.04202 0.02939,0.0092 0.05852,0.01972 0.08748,0.0319 0.08957,0.03758 0.171651,0.08757 0.244422,0.148091 0.121281,0.100881 0.216744,0.231025 0.278122,0.381711 0.02337,0.05736 0.04073,0.116281 0.0529,0.175796 8.94e-4,0.004 0.0016,0.008 0.0026,0.01198 0.0041,0.02165 0.0068,0.04347 0.0095,0.06525 0.0015,0.01113 0.0029,0.02242 0.0041,0.03367 0.0024,0.02685 0.0037,0.05354 0.0038,0.08044 v 2.59e-4 c -1.73e-4,0.536144 -0.431419,0.970636 -0.963218,0.970492 -0.352678,-2.72e-4 -0.6769593,-0.195008 -0.8452913,-0.507451 l 0.5110263,0.212458 c 0.332524,0.138261 0.705254,0.0092 0.890522,-0.287549 1.33e-4,-2e-4 4.69e-4,-3e-4 5.97e-4,-6.38e-4 0.0022,-0.0035 0.0035,-0.0076 0.0056,-0.01101 0.01863,-0.03106 0.03742,-0.062 0.05172,-0.09654 8.95e-4,-0.0021 9.81e-4,-0.004 0.0017,-0.0061 0.01847,-0.04468 0.03198,-0.09016 0.04108,-0.135876 5.7e-5,-2.45e-4 -5.6e-5,-6.39e-4 0,-8.95e-4 0.0093,-0.04731 0.01375,-0.09469 0.01359,-0.141835 -4.68e-4,-0.141996 -0.04268,-0.280347 -0.119693,-0.397195 -7.23e-4,-10e-4 -0.0015,-0.0018 -0.0024,-0.0029 -0.02469,-0.03704 -0.05277,-0.07188 -0.08424,-0.103983 -0.02537,-0.02602 -0.05443,-0.04869 -0.08394,-0.07092 -0.0075,-0.0056 -0.01356,-0.01251 -0.02128,-0.01789 -1.63e-4,-1.22e-4 -3.87e-4,-1.53e-4 -6.38e-4,-2.57e-4 -0.04156,-0.02879 -0.08644,-0.05429 -0.135073,-0.0745 L 3.8771816,13.38108 c 0.109208,-0.04201 0.225083,-0.06361 0.341966,-0.06377 z"
       color="#000000"
       fill="url(#b)"
       stroke-width="0.162077"
       id="path25"
       style="fill:#616161"
       sodipodi:nodetypes="csccccccsccccccsscccssssssssssccccccccccsccccccccsccsccccccccc" />
  </g>
</svg>
