<?xml version="1.0" encoding="UTF-8" standalone="no"?>
<svg
   width="64"
   height="64"
   version="1.1"
   id="svg73"
   sodipodi:docname="blueman-headset.svg"
   inkscape:version="1.2.2 (1:1.2.2+202212051550+b0a8486541)"
   xmlns:inkscape="http://www.inkscape.org/namespaces/inkscape"
   xmlns:sodipodi="http://sodipodi.sourceforge.net/DTD/sodipodi-0.dtd"
   xmlns="http://www.w3.org/2000/svg"
   xmlns:svg="http://www.w3.org/2000/svg"
   xmlns:rdf="http://www.w3.org/1999/02/22-rdf-syntax-ns#"
   xmlns:cc="http://creativecommons.org/ns#"
   xmlns:dc="http://purl.org/dc/elements/1.1/">
  <metadata
     id="metadata77">
    <rdf:RDF>
      <cc:Work
         rdf:about="">
        <dc:format>image/svg+xml</dc:format>
        <dc:type
           rdf:resource="http://purl.org/dc/dcmitype/StillImage" />
      </cc:Work>
    </rdf:RDF>
  </metadata>
  <sodipodi:namedview
     pagecolor="#f5f7fa"
     bordercolor="#666666"
     borderopacity="1"
     objecttolerance="10"
     gridtolerance="10"
     guidetolerance="10"
     inkscape:pageopacity="0"
     inkscape:pageshadow="2"
     inkscape:window-width="1377"
     inkscape:window-height="886"
     id="namedview75"
     showgrid="false"
     inkscape:zoom="6.2890625"
     inkscape:cx="55.890683"
     inkscape:cy="37.843478"
     inkscape:window-x="207"
     inkscape:window-y="108"
     inkscape:window-maximized="0"
     inkscape:current-layer="svg73"
     inkscape:document-rotation="0"
     inkscape:pagecheckerboard="0"
     inkscape:showpageshadow="2"
     inkscape:deskcolor="#d1d1d1" />
  <defs
     id="defs29">
    <inkscape:path-effect
       effect="powerclip"
       id="path-effect3068"
       is_visible="true"
       lpeversion="1"
       inverse="true"
       flatten="false"
       hide_clip="false"
       message="Use fill-rule evenodd on &lt;b&gt;fill and stroke&lt;/b&gt; dialog if no flatten result after convert clip to paths." />
    <inkscape:path-effect
       effect="powerclip"
       id="path-effect1980"
       is_visible="true"
       lpeversion="1"
       inverse="true"
       flatten="false"
       hide_clip="false"
       message="Use fill-rule evenodd on &lt;b&gt;fill and stroke&lt;/b&gt; dialog if no flatten result after convert clip to paths." />
    <linearGradient
       id="b"
       x1="399.57"
       x2="399.57"
       y1="545.8"
       y2="517.8"
       gradientTransform="matrix(2.1429,0,0,2.1429,-825.86391,-1107.6662)"
       gradientUnits="userSpaceOnUse">
      <stop
         stop-color="#3889e9"
         offset="0"
         id="stop2" />
      <stop
         stop-color="#5ea5fb"
         offset="1"
         id="stop4" />
    </linearGradient>
    <linearGradient
       id="linearGradient862"
       x1="7.9373"
       x2="7.9373"
       y1="15.081"
       y2="1.852"
       gradientTransform="matrix(3.3743 0 0 3.3743 3.4312 3.4278)"
       gradientUnits="userSpaceOnUse">
      <stop
         stop-color="#f1efeb"
         offset="0"
         id="stop7" />
      <stop
         stop-color="#fff"
         offset="1"
         id="stop9" />
    </linearGradient>
    <linearGradient
       id="linearGradient910"
       x1="7.9373"
       x2="7.9373"
       y1="15.081"
       y2="1.852"
       gradientTransform="scale(3.7796)"
       gradientUnits="userSpaceOnUse">
      <stop
         stop-color="#613583"
         offset="0"
         id="stop12" />
      <stop
         stop-color="#a663c0"
         offset="1"
         id="stop14" />
    </linearGradient>
    <linearGradient
       id="linearGradient932"
       x1="379.24"
       x2="374.24"
       y1="546.85"
       y2="546.85"
       gradientTransform="matrix(2.1429 0 0 2.1429 -769.68 -1134.5)"
       gradientUnits="userSpaceOnUse">
      <stop
         stop-color="#f6f5f4"
         offset="0"
         id="stop17" />
      <stop
         stop-color="#fff"
         offset=".6"
         id="stop19" />
      <stop
         stop-color="#dddbd8"
         offset="1"
         id="stop21" />
    </linearGradient>
    <linearGradient
       id="linearGradient1146"
       x1="18"
       x2="18"
       y1="52"
       y2="12"
       gradientUnits="userSpaceOnUse">
      <stop
         stop-color="#5e337f"
         offset="0"
         id="stop24" />
      <stop
         stop-color="#ab60bf"
         offset="1"
         id="stop26" />
    </linearGradient>
    <clipPath
       clipPathUnits="userSpaceOnUse"
       id="clipPath1976">
      <rect
         x="9.6784649"
         y="9.925169"
         width="43.343258"
         height="44.613056"
         rx="8.6689987"
         ry="8.9229689"
         fill="url(#linearGradient862)"
         stroke-width="2.96772"
         id="rect1978"
         style="display:none;fill:#333333;fill-opacity:1"
         d="m 18.347464,9.925169 h 26.00526 c 4.802625,0 8.668999,3.979644 8.668999,8.922969 v 26.767118 c 0,4.943325 -3.866374,8.922969 -8.668999,8.922969 h -26.00526 c -4.802626,0 -8.6689991,-3.979644 -8.6689991,-8.922969 V 18.848138 c 0,-4.943325 3.8663731,-8.922969 8.6689991,-8.922969 z" />
      <path
         id="lpe_path-effect1980"
         style="fill:#333333;fill-opacity:1"
         class="powerclip"
         d="M 2.0757722,2.2464043 H 60.623896 V 62.216811 H 2.0757722 Z M 18.347464,9.925169 c -4.802626,0 -8.6689991,3.979644 -8.6689991,8.922969 v 26.767118 c 0,4.943325 3.8663731,8.922969 8.6689991,8.922969 h 26.00526 c 4.802625,0 8.668999,-3.979644 8.668999,-8.922969 V 18.848138 c 0,-4.943325 -3.866374,-8.922969 -8.668999,-8.922969 z" />
    </clipPath>
    <filter
       style="color-interpolation-filters:sRGB;"
       inkscape:label="Drop Shadow"
       id="filter663"
       x="-0.098870968"
       y="-0.096056853"
       width="1.2389382"
       height="1.2321374">
      <feFlood
         flood-opacity="0.301961"
         flood-color="rgb(0,0,0)"
         result="flood"
         id="feFlood653" />
      <feComposite
         in="flood"
         in2="SourceGraphic"
         operator="in"
         result="composite1"
         id="feComposite655" />
      <feGaussianBlur
         in="composite1"
         stdDeviation="2"
         result="blur"
         id="feGaussianBlur657" />
      <feOffset
         dx="2"
         dy="2"
         result="offset"
         id="feOffset659" />
      <feComposite
         in="SourceGraphic"
         in2="offset"
         operator="over"
         result="composite2"
         id="feComposite661" />
    </filter>
    <clipPath
       clipPathUnits="userSpaceOnUse"
       id="clipPath38">
      <rect
         x="0.97311002"
         y="4.6963"
         width="14.987"
         height="9.9216995"
         ry="0.29919001"
         fill="#fffffc"
         id="rect40"
         style="display:block;opacity:0.85;fill:#f2f2f2;stroke-width:0.999999" />
    </clipPath>
    <inkscape:path-effect
       effect="powerclip"
       id="path-effect42"
       is_visible="true"
       lpeversion="1"
       inverse="true"
       flatten="false"
       hide_clip="false"
       message="Use fill-rule evenodd on &lt;b&gt;fill and stroke&lt;/b&gt; dialog if no flatten result after convert clip to paths." />
    <clipPath
       clipPathUnits="userSpaceOnUse"
       id="clipPath30">
      <path
         id="path32"
         style="color:#000000;display:block;opacity:0.85;fill:#f5f7fa;stroke-linecap:round;-inkscape-stroke:none"
         d="m 27.902344,19.023438 c -5.140587,0.01596 -9.820748,0.752518 -13.330078,2.15625 a 2.5,2.5 0 0 0 -1.392578,3.248046 2.5,2.5 0 0 0 3.248046,1.392578 c 3.180816,-1.272325 8.839301,-2.056673 14.796875,-1.699218 5.957575,0.357454 12.260098,1.820223 17.035157,4.548828 a 2.5,2.5 0 0 0 3.410156,-0.929688 2.5,2.5 0 0 0 -0.929688,-3.410156 c -5.72493,-3.271389 -12.67243,-4.808627 -19.214843,-5.201172 -1.226703,-0.0736 -2.436758,-0.109153 -3.623047,-0.105468 z m -1.240235,9.966796 c -1.05657,-0.0087 -2.093217,0.01082 -3.097656,0.05859 -2.678505,0.127409 -5.127438,0.45996 -7.113281,1.027344 a 2,2 0 0 0 -1.375,2.472656 2,2 0 0 0 2.472656,1.375 c 3.028306,-0.86523 8.701737,-1.165792 14.148438,-0.68164 5.4467,0.484152 10.812065,1.834345 13.193359,3.421874 a 2,2 0 0 0 2.773437,-0.554687 2,2 0 0 0 -0.554687,-2.773437 C 43.490675,30.923467 37.856023,29.773657 32.052734,29.257808 30.239207,29.096607 28.42306,29.004783 26.662109,28.99023 Z m 0.917969,8.988282 c -3.813243,-0.0048 -7.379665,0.410834 -10.064453,1.082031 a 2,2 0 0 0 -1.455078,2.423828 2,2 0 0 0 2.423828,1.455078 c 5.391278,-1.347819 17.438862,-1.241506 23.621094,1.849609 a 2,2 0 0 0 2.683593,-0.894531 2,2 0 0 0 -0.894531,-2.683593 c -3.908877,-1.954439 -8.851018,-2.904387 -13.642578,-3.160157 -0.898417,-0.04796 -1.791896,-0.07116 -2.671875,-0.07227 z" />
    </clipPath>
    <inkscape:path-effect
       effect="powerclip"
       id="path-effect34"
       is_visible="true"
       lpeversion="1"
       inverse="true"
       flatten="false"
       hide_clip="false"
       message="Use fill-rule evenodd on &lt;b&gt;fill and stroke&lt;/b&gt; dialog if no flatten result after convert clip to paths." />
    <clipPath
       clipPathUnits="userSpaceOnUse"
       id="clipPath1299">
      <path
         style="color:#000000;display:block;opacity:0.85;fill:#f5f7fa;-inkscape-stroke:none"
         d="m 24.149464,39.847234 c 1.129182,1.129183 1.129024,2.947446 -3.54e-4,4.076824 L 11.920405,56.152763 c -1.129378,1.129378 -2.9476414,1.129536 -4.0768237,3.54e-4 -1.1291824,-1.129183 -1.1290247,-2.947446 3.535e-4,-4.076825 L 20.072639,39.847588 c 1.129379,-1.129378 2.947642,-1.129536 4.076825,-3.54e-4 z"
         id="path1301" />
    </clipPath>
    <inkscape:path-effect
       effect="powerclip"
       id="path-effect1303"
       is_visible="true"
       lpeversion="1"
       inverse="true"
       flatten="false"
       hide_clip="false"
       message="Use fill-rule evenodd on &lt;b&gt;fill and stroke&lt;/b&gt; dialog if no flatten result after convert clip to paths." />
    <clipPath
       clipPathUnits="userSpaceOnUse"
       id="clipPath835">
      <path
         style="fill:#366adb"
         d="m 32,17.466694 v 15.261759 c -1.345739,-0.476141 -2.698156,-0.725645 -4.199935,-0.727989 -5.412306,0 -9.799847,3.133957 -9.799847,6.999891 0,3.865934 4.387541,6.999891 9.799847,6.999891 5.412306,0 10.199842,-3.133957 10.199842,-6.999891 V 22.000621 c 0,0 2.818336,2.432481 3.768941,4.955137 0.485882,1.289406 0.484445,2.60237 -0.631998,3.626114 -0.906512,0.519986 -1.203761,1.323663 -1.044514,2.023403 0.241826,1.062613 1.53443,1.888098 3.330416,1.123812 2.698508,-1.40694 3.576015,-3.929235 3.576015,-6.029204 0,-6.299902 -7.998876,-11.699817 -13.598789,-11.699817 C 32,16.000066 32,17.466694 32,17.466694 Z"
         id="path837" />
    </clipPath>
    <clipPath
       clipPathUnits="userSpaceOnUse"
       id="clipath_lpe_path-effect15-3">
      <path
         id="path18794"
         style="display:block;opacity:0.85;fill:#f5f7fa;stroke-width:1.14168"
         d="m 22.994141,9.2851562 c -2.426789,0 -4.550782,2.1396028 -4.550782,4.5839848 0,2.444382 2.123925,4.582031 4.550782,4.582031 2.426789,0 4.548828,-2.137649 4.548828,-4.582031 0,-2.444382 -2.122039,-4.5839848 -4.548828,-4.5839848 z m 15.925781,0 c -2.426791,0 -4.550781,2.1396028 -4.550781,4.5839848 0,2.444382 2.123922,4.582031 4.550781,4.582031 2.426789,0 4.548828,-2.137649 4.548828,-4.582031 0,-2.444382 -2.122039,-4.5839848 -4.548828,-4.5839848 z M 11.617188,23.035156 c -2.4268575,0 -4.5488286,2.138846 -4.5488286,4.583985 0,2.445137 2.1219711,4.582031 4.5488286,4.582031 2.426857,0 4.550781,-2.136894 4.550781,-4.582031 0,-2.445139 -2.123924,-4.583985 -4.550781,-4.583985 z m 38.677734,0 c -2.42679,0 -4.550781,2.139602 -4.550781,4.583985 0,2.444381 2.123923,4.582031 4.550781,4.582031 2.42679,0 4.550781,-2.13765 4.550781,-4.582031 0,-2.444383 -2.123991,-4.583985 -4.550781,-4.583985 z" />
    </clipPath>
    <inkscape:path-effect
       effect="powerclip"
       id="path-effect15-3"
       is_visible="true"
       lpeversion="1"
       inverse="true"
       flatten="false"
       hide_clip="false"
       message="Use fill-rule evenodd on &lt;b&gt;fill and stroke&lt;/b&gt; dialog if no flatten result after convert clip to paths." />
    <clipPath
       clipPathUnits="userSpaceOnUse"
       id="clipPath601">
      <ellipse
         style="display:none;fill:#666666;stroke:none;stroke-width:1.2408"
         id="ellipse603"
         cx="32.192383"
         cy="38.023426"
         rx="10.958354"
         ry="10.907267" />
    </clipPath>
    <inkscape:path-effect
       effect="powerclip"
       id="path-effect605"
       is_visible="true"
       lpeversion="1"
       inverse="true"
       flatten="false"
       hide_clip="false"
       message="Use fill-rule evenodd on &lt;b&gt;fill and stroke&lt;/b&gt; dialog if no flatten result after convert clip to paths." />
    <clipPath
       clipPathUnits="userSpaceOnUse"
       id="clipPath601-3">
      <ellipse
         style="display:none;fill:#666666;stroke:none;stroke-width:1.2408"
         id="ellipse603-6"
         cx="32.192383"
         cy="38.023426"
         rx="10.958354"
         ry="10.907267"
         d="M 43.150737,38.023426 A 10.958354,10.907267 0 0 1 32.192383,48.930693 10.958354,10.907267 0 0 1 21.234029,38.023426 10.958354,10.907267 0 0 1 32.192383,27.116159 10.958354,10.907267 0 0 1 43.150737,38.023426 Z" />
      <path
         id="lpe_path-effect605"
         style="fill:#666666;stroke:none;stroke-width:1.2408"
         class="powerclip"
         d="M -3.0605469,4.4863281 H 67.306641 V 58.824219 H -3.0605469 Z M 43.150737,38.023426 A 10.958354,10.907267 0 0 0 32.192383,27.116159 10.958354,10.907267 0 0 0 21.234029,38.023426 10.958354,10.907267 0 0 0 32.192383,48.930693 10.958354,10.907267 0 0 0 43.150737,38.023426 Z" />
    </clipPath>
    <inkscape:path-effect
       effect="powerclip"
       id="path-effect605-7"
       is_visible="true"
       lpeversion="1"
       inverse="true"
       flatten="false"
       hide_clip="false"
       message="Use fill-rule evenodd on &lt;b&gt;fill and stroke&lt;/b&gt; dialog if no flatten result after convert clip to paths." />
    <clipPath
       clipPathUnits="userSpaceOnUse"
       id="clipath_lpe_path-effect605-7">
      <ellipse
         style="display:none;fill:#666666;stroke:none;stroke-width:1.2408"
         id="ellipse2622"
         cx="32.192383"
         cy="38.023426"
         rx="10.958354"
         ry="10.907267" />
    </clipPath>
    <clipPath
       clipPathUnits="userSpaceOnUse"
       id="clipPath44">
      <path
         id="path46"
         style="display:block;opacity:0.85;fill:#f2f2f2;stroke-width:4.39162"
         d="m 17.570312,8.4453125 a 6.5431988,7.4283052 9.9958727e-8 0 0 -6.535156,7.4394535 6.5431988,7.4283052 9.9958727e-8 0 0 6.552735,7.417968 6.5431988,7.4283052 9.9958727e-8 0 0 6.535156,-7.4375 6.5431988,7.4283052 9.9958727e-8 0 0 -6.552735,-7.4199215 z M 45.646484,41.177734 a 6.5431986,7.0703472 2.4665357e-6 0 0 -6.533203,7.080078 6.5431986,7.0703472 2.4665357e-6 0 0 6.550781,7.060547 6.5431986,7.0703472 2.4665357e-6 0 0 6.535157,-7.080078 6.5431986,7.0703472 2.4665357e-6 0 0 -6.552735,-7.060547 z" />
    </clipPath>
    <inkscape:path-effect
       effect="powerclip"
       id="path-effect48"
       is_visible="true"
       lpeversion="1"
       inverse="true"
       flatten="false"
       hide_clip="false"
       message="Use fill-rule evenodd on &lt;b&gt;fill and stroke&lt;/b&gt; dialog if no flatten result after convert clip to paths." />
    <clipPath
       clipPathUnits="userSpaceOnUse"
       id="clipPath191">
      <g
         id="g195"
         style="display:block">
        <path
           id="path193"
           style="color:#000000;opacity:0.85;fill:#f5f7fa;stroke-width:2.97138;-inkscape-stroke:none"
           d="m 20.630859,13.712891 c -3.468166,-0.0017 -6.260369,2.787692 -6.259765,6.255859 6.04e-4,3.468166 2.793552,6.26197 6.261718,6.263672 l 22.275391,0.01172 c 3.468167,0.0017 6.26037,-2.789647 6.259766,-6.257813 -6.04e-4,-3.468167 -2.793552,-6.26197 -6.261719,-6.263672 z m 0.132813,17.759765 c -3.542387,-0.0017 -6.393071,2.848239 -6.392578,6.390625 4.93e-4,3.542386 2.852144,6.394827 6.394531,6.396485 l 22.007813,0.01172 c 3.542385,0.0017 6.395024,-2.850192 6.394531,-6.392578 -4.93e-4,-3.542386 -2.854099,-6.394826 -6.396485,-6.396484 z" />
      </g>
    </clipPath>
    <inkscape:path-effect
       effect="powerclip"
       id="path-effect197"
       is_visible="true"
       lpeversion="1"
       inverse="true"
       flatten="false"
       hide_clip="false"
       message="Use fill-rule evenodd on &lt;b&gt;fill and stroke&lt;/b&gt; dialog if no flatten result after convert clip to paths." />
    <clipPath
       clipPathUnits="userSpaceOnUse"
       id="clipPath114">
      <path
         id="path116"
         style="display:block;opacity:0.85;fill:#f5f7fa;stroke-width:2.34555"
         d="m 11.661568,15.1628 0.05338,1.76568 -3.0575358,0.03083 -0.053383,-1.76568 z M 11.68801,4.5505411 V 13.393011 H 8.5771041 V 4.5505411 Z" />
    </clipPath>
    <inkscape:path-effect
       effect="powerclip"
       id="path-effect118"
       is_visible="true"
       lpeversion="1"
       inverse="true"
       flatten="false"
       hide_clip="false"
       message="Use fill-rule evenodd on &lt;b&gt;fill and stroke&lt;/b&gt; dialog if no flatten result after convert clip to paths." />
    <clipPath
       clipPathUnits="userSpaceOnUse"
       id="clipPath6348">
      <rect
         style="display:block;opacity:1;fill:#f5f7fa;fill-opacity:1;stroke:none;stroke-width:0.81953;stroke-opacity:1"
         id="rect6350"
         width="49.927536"
         height="8.2595568"
         x="7.2316799"
         y="44.626305"
         ry="4.1297784" />
    </clipPath>
    <inkscape:path-effect
       effect="powerclip"
       id="path-effect6352"
       is_visible="true"
       lpeversion="1"
       inverse="true"
       flatten="false"
       hide_clip="false"
       message="Use fill-rule evenodd on &lt;b&gt;fill and stroke&lt;/b&gt; dialog if no flatten result after convert clip to paths." />
    <clipPath
       clipPathUnits="userSpaceOnUse"
       id="clipPath133">
      <path
         style="display:block;fill:#676767;stroke-width:1.08686"
         d="m 32.488464,17.537929 c -1.948585,-2.94e-4 -3.897273,0.360273 -5.339266,1.078703 L 5.2713661,29.514817 c -2.8839879,1.436862 -2.8813095,3.883396 0.00261,5.320257 L 27.14912,45.733256 c 2.883988,1.43686 7.794548,1.43686 10.678532,0 L 59.702804,34.835074 c 2.883982,-1.436857 2.881265,-3.883402 -0.0026,-5.320257 L 37.827728,18.616632 c -1.441993,-0.71843 -3.390677,-1.078408 -5.339264,-1.078703 z"
         id="path135"
         clip-path="url(#clipPath62)" />
    </clipPath>
    <inkscape:path-effect
       effect="powerclip"
       id="path-effect137"
       is_visible="true"
       lpeversion="1"
       inverse="true"
       flatten="false"
       hide_clip="false"
       message="Use fill-rule evenodd on &lt;b&gt;fill and stroke&lt;/b&gt; dialog if no flatten result after convert clip to paths." />
    <clipPath
       clipPathUnits="userSpaceOnUse"
       id="clipath_lpe_path-effect125">
      <path
         style="display:block;fill:#29292a;stroke-width:1.08686"
         d="M 32.488464,2.9014445 C 30.539879,2.9011484 28.591191,3.2617158 27.149198,3.9801462 L 5.2713661,14.878331 c -2.8839879,1.436858 -2.8813095,3.883396 0.00261,5.320256 L 27.14912,31.096772 c 2.883988,1.436859 7.794548,1.436855 10.678532,0 L 59.702804,20.198587 c 2.883982,-1.436855 2.881265,-3.8834 -0.0026,-5.320256 L 37.827728,3.9801462 C 36.385735,3.2617158 34.437051,2.9017372 32.488464,2.9014445 Z"
         id="path127" />
    </clipPath>
    <inkscape:path-effect
       effect="powerclip"
       id="path-effect125"
       is_visible="true"
       lpeversion="1"
       inverse="true"
       flatten="false"
       hide_clip="false"
       message="Use fill-rule evenodd on &lt;b&gt;fill and stroke&lt;/b&gt; dialog if no flatten result after convert clip to paths." />
    <clipPath
       clipPathUnits="userSpaceOnUse"
       id="clipPath18">
      <path
         style="display:block;opacity:0.85;fill:#f5f7fa"
         d="m 42,19 -17,6 v 6 6.263672 A 4.5,4.5 0 0 0 23.5,37 4.5,4.5 0 0 0 19,41.5 4.5,4.5 0 0 0 23.5,46 4.5,4.5 0 0 0 28,41.5 V 29.941406 l 11,-3.882812 v 8.205078 A 4.5,4.5 0 0 0 37.5,34 4.5,4.5 0 0 0 33,38.5 4.5,4.5 0 0 0 37.5,43 4.5,4.5 0 0 0 42,38.5 V 25 Z"
         id="path20" />
    </clipPath>
    <inkscape:path-effect
       effect="powerclip"
       id="path-effect22"
       is_visible="true"
       lpeversion="1"
       inverse="true"
       flatten="false"
       hide_clip="false"
       message="Use fill-rule evenodd on &lt;b&gt;fill and stroke&lt;/b&gt; dialog if no flatten result after convert clip to paths." />
    <clipPath
       clipPathUnits="userSpaceOnUse"
       id="clipPath3064">
      <path
         style="display:block;fill:#ff0000;stroke:none;stroke-width:0.117269"
         d="M -84.920138,43.116537 V 33.67205 h -11.355872 -11.35587 v 9.444487 9.444487 h 11.35587 11.355872 z m -17.090022,3.766552 v -2.867077 h 5.73415 5.734153 v 2.867077 2.867076 h -5.734153 -5.73415 z m 0,-8.095275 v -2.417339 h 5.73415 5.734153 v 2.417339 2.417339 h -5.734153 -5.73415 z"
         id="path3066" />
    </clipPath>
    <clipPath
       clipPathUnits="userSpaceOnUse"
       id="clipPath1224">
      <g
         id="g1230"
         style="display:block">
        <path
           style="fill:#f5f7fa"
           d="M 49,11.000001 A 4,4 0 0 1 53,15 a 4,4 0 0 1 -4,4 4,4 0 0 1 -4,-4 4,4 0 0 1 4,-3.999999 z"
           id="path1226" />
        <path
           style="opacity:0.85;fill:#f5f7fa"
           d="M 32,14.999999 A 17.000001,17.000001 0 0 1 49.000001,32 17.000001,17.000001 0 0 1 32,49.000001 17.000001,17.000001 0 0 1 14.999999,32 17.000001,17.000001 0 0 1 32,14.999999 Z"
           id="path1228" />
      </g>
    </clipPath>
    <inkscape:path-effect
       effect="powerclip"
       id="path-effect1232"
       is_visible="true"
       lpeversion="1"
       inverse="true"
       flatten="false"
       hide_clip="false"
       message="Use fill-rule evenodd on &lt;b&gt;fill and stroke&lt;/b&gt; dialog if no flatten result after convert clip to paths." />
    <clipPath
       clipPathUnits="userSpaceOnUse"
       id="clipath_lpe_path-effect11-5">
      <path
         style="display:block;opacity:0.85;fill:#f5f7fa;stroke-width:1.07922"
         d="m 21.270774,21.248293 c -2.153753,0 -2.153753,2.163126 -2.153753,2.163126 v 2.163127 c 0,0 0,6.489382 -5.384381,6.489382 -3.193479,0 -4.472849,-2.274205 -5.0015851,-4.13191 A 23.691278,23.794397 0 0 0 8.3482593,32.063928 23.691278,23.794397 0 0 0 32.039537,55.858325 23.691278,23.794397 0 0 0 55.730814,32.063928 23.691278,23.794397 0 0 0 55.099831,26.738495 c -1.513501,0.37938 -1.52277,2.080742 -1.52277,2.080742 v 7.570944 c 0,0 0,2.163128 -2.153752,2.163128 -2.153752,0 -2.153752,-2.163128 -2.153752,-2.163128 V 29.9008 c 0,0 0,-2.163126 -2.153754,-2.163126 -2.153752,0 -2.153752,2.163126 -2.153752,2.163126 v 8.652509 c 0,0 0,3.24469 -4.307504,3.24469 -4.307506,0 -4.307506,-4.326253 -4.307506,-4.326253 v -11.8972 c 0,0 0,-4.326253 -4.307504,-4.326253 -4.307506,0 -4.307506,4.326253 -4.307506,4.326253 v 18.386581 c 0,0 0,2.163126 -2.153752,2.163126 -2.153752,0 -2.153752,-2.163126 -2.153752,-2.163126 V 23.411419 c 0,0 0,-2.163126 -2.153753,-2.163126 z"
         id="path1497" />
    </clipPath>
    <inkscape:path-effect
       effect="powerclip"
       id="path-effect11-5"
       is_visible="true"
       lpeversion="1"
       inverse="true"
       flatten="false"
       hide_clip="false"
       message="Use fill-rule evenodd on &lt;b&gt;fill and stroke&lt;/b&gt; dialog if no flatten result after convert clip to paths." />
  </defs>
  <circle
     cx="32.516094"
     cy="31.877844"
     r="0"
     fill="url(#b)"
     stroke-width="1.5715"
     id="circle41"
     style="fill:url(#b)" />
  <g
     aria-label="GZ"
     transform="matrix(1.2212657,0,0,0.81882264,0.4960938,-0.1661539)"
     id="text93"
     style="font-weight:bold;font-size:11.5263px;line-height:1.25;font-family:sans-serif;-inkscape-font-specification:'sans-serif Bold';fill:#f2f2f2;stroke-width:0.288159" />
  <g
     id="g877"
     transform="matrix(1.1,0,0,1.1,-3.1845928,-3.2065454)">
    <path
       d="m 18.347203,7.2464043 c -6.244452,0 -11.2714308,5.1741617 -11.2714308,11.6016437 v 26.767119 c 0,6.427394 5.0268918,11.601644 11.2714308,11.601644 h 26.005262 c 6.244452,0 11.271431,-5.174161 11.271431,-11.601644 V 18.848048 c 0,-6.427393 -5.026893,-11.6016437 -11.271431,-11.6016437 z"
       fill="url(#linearGradient910)"
       stroke-width="3.32418"
       id="path33"
       style="fill:#578376;fill-opacity:1"
       clip-path="url(#clipPath1976)"
       inkscape:path-effect="#path-effect1980"
       inkscape:original-d="m 18.347203,7.2464043 c -6.244452,0 -11.2714308,5.1741617 -11.2714308,11.6016437 v 26.767119 c 0,6.427394 5.0268918,11.601644 11.2714308,11.601644 h 26.005262 c 6.244452,0 11.271431,-5.174161 11.271431,-11.601644 V 18.848048 c 0,-6.427393 -5.026893,-11.6016437 -11.271431,-11.6016437 z"
       transform="matrix(1.1,0,0,1.1,-2.6388896,-3.3893147)" />
    <rect
       x="8.0073938"
       y="7.5283623"
       width="47.677586"
       height="49.074364"
       rx="9.5358982"
       ry="9.8152657"
       fill="url(#linearGradient862)"
       stroke-width="3.26449"
       id="rect35-7"
       style="opacity:1;fill:#f5f7fa;fill-opacity:1" />
    <rect
       x="10.391273"
       y="9.9820805"
       width="42.909828"
       height="44.166924"
       rx="8.5823088"
       ry="8.8337393"
       fill="url(#linearGradient862)"
       stroke-width="2.93805"
       id="rect35-7-3"
       style="fill:#578376;fill-opacity:1" />
  </g>
  <g
     fill="none"
     fill-rule="evenodd"
     id="g14"
     transform="matrix(0.46618523,0,0,0.5420796,3.8041338,-2.6607738)"
     style="fill:#f5f7fa;fill-opacity:1">
    <g
       transform="matrix(5.5127557,0,0,4.7712173,-193.53557,-158.61308)"
       fill="#ffffff"
       stroke-width="2.1839"
       id="g89"
       style="fill:#f5f7fa;fill-opacity:1">
      <rect
         x="42"
         y="39"
         width="8.0005999"
         height="13.335"
         rx="3.9991"
         ry="3.9991"
         style="fill:#f5f7fa;paint-order:stroke markers fill;fill-opacity:1"
         id="rect85" />
      <path
         d="m 40.334,47.996 a 0.33262,0.33262 0 0 0 -0.33514,0.33515 0.33262,0.33262 0 0 0 0.0051,0.04031 5.9998,5.9998 0 0 0 5.9973,5.9595 5.9998,5.9998 0 0 0 5.9973,-5.9671 0.33262,0.33262 0 0 0 0,-0.0252 5.9998,5.9998 0 0 0 0,-0.0076 0.33262,0.33262 0 0 1 0,-0.0025 0.33262,0.33262 0 0 0 -0.33262,-0.33262 0.33262,0.33262 0 0 0 -0.33262,0.33262 5.3321,5.3321 0 0 1 -5.3321,5.3346 5.3321,5.3321 0 0 1 -5.3321,-5.3346 h -0.0051 a 0.33262,0.33262 0 0 0 -0.33011,-0.33262 z"
         style="fill:#f5f7fa;paint-order:stroke markers fill;fill-opacity:1"
         id="path87" />
    </g>
  </g>
</svg>
