<?xml version="1.0" encoding="UTF-8" standalone="no"?>
<svg
   width="64"
   height="64"
   version="1.1"
   viewBox="0 0 16.933 16.933"
   id="svg56"
   sodipodi:docname="folder-cozycloud.svg"
   inkscape:version="1.2.2 (1:1.2.2+202212051550+b0a8486541)"
   xmlns:inkscape="http://www.inkscape.org/namespaces/inkscape"
   xmlns:sodipodi="http://sodipodi.sourceforge.net/DTD/sodipodi-0.dtd"
   xmlns:xlink="http://www.w3.org/1999/xlink"
   xmlns="http://www.w3.org/2000/svg"
   xmlns:svg="http://www.w3.org/2000/svg"
   xmlns:rdf="http://www.w3.org/1999/02/22-rdf-syntax-ns#"
   xmlns:cc="http://creativecommons.org/ns#"
   xmlns:dc="http://purl.org/dc/elements/1.1/">
  <sodipodi:namedview
     pagecolor="#ffffff"
     bordercolor="#666666"
     borderopacity="1"
     objecttolerance="10"
     gridtolerance="10"
     guidetolerance="10"
     inkscape:pageopacity="0"
     inkscape:pageshadow="2"
     inkscape:window-width="1502"
     inkscape:window-height="836"
     id="namedview58"
     showgrid="false"
     inkscape:zoom="12.890625"
     inkscape:cx="35.258182"
     inkscape:cy="37.352727"
     inkscape:window-x="302"
     inkscape:window-y="41"
     inkscape:window-maximized="0"
     inkscape:current-layer="svg56"
     inkscape:document-rotation="0"
     inkscape:pagecheckerboard="0"
     inkscape:showpageshadow="0"
     inkscape:deskcolor="#d1d1d1" />
  <defs
     id="defs18">
    <inkscape:path-effect
       effect="powerclip"
       id="path-effect51"
       is_visible="true"
       lpeversion="1"
       inverse="true"
       flatten="false"
       hide_clip="false"
       message="Use fill-rule evenodd on &lt;b&gt;fill and stroke&lt;/b&gt; dialog if no flatten result after convert clip to paths." />
    <linearGradient
       id="linearGradient1064"
       x1="-15.961"
       x2="-.30109"
       y1="-43.254"
       y2="-54.196"
       gradientTransform="matrix(1 0 0 1.1 16.669 62.435)"
       gradientUnits="userSpaceOnUse">
      <stop
         stop-color="#3c3c3c"
         offset="0"
         id="stop2" />
      <stop
         stop-color="#646464"
         offset="1"
         id="stop4" />
    </linearGradient>
    <linearGradient
       id="linearGradient992"
       x1="-16.14"
       x2="-1.0699"
       y1="-55.616"
       y2="-44.835"
       gradientTransform="matrix(1 0 0 1.1 16.669 62.435)"
       gradientUnits="userSpaceOnUse">
      <stop
         stop-color="#3c3c3c"
         offset="0"
         id="stop7" />
      <stop
         stop-color="#646464"
         offset="1"
         id="stop9" />
    </linearGradient>
    <linearGradient
       id="linearGradient1006"
       x1=".52939"
       x2="16.217"
       y1="2.7784"
       y2="14.872"
       gradientTransform="matrix(1,0,0,1.1,16.669,62.435)"
       gradientUnits="userSpaceOnUse">
      <stop
         stop-color="#3c3c3c"
         offset="0"
         id="stop12" />
      <stop
         stop-color="#646464"
         offset="1"
         id="stop14" />
    </linearGradient>
    <linearGradient
       id="linearGradient939"
       x1="-16.14"
       x2="-1.0699"
       y1="-55.616"
       y2="-44.835"
       gradientTransform="matrix(1,0,0,1.1,16.669,62.435)"
       gradientUnits="userSpaceOnUse"
       xlink:href="#linearGradient992" />
    <clipPath
       clipPathUnits="userSpaceOnUse"
       id="clipPath46">
      <rect
         x="0.97311002"
         y="4.6963"
         width="14.987"
         height="9.9216995"
         ry="0.29919001"
         fill="#fffffc"
         id="rect49"
         style="display:none;opacity:0.85;fill:#f2f2f2;stroke-width:0.999999" />
      <path
         id="lpe_path-effect51"
         style="opacity:0.85;fill:#f2f2f2;stroke-width:0.999999"
         class="powerclip"
         d="M -4.4709,-2.221974 H 21.40339 V 20.0813 H -4.4709 Z M 1.2723,4.6963 c -0.1657512,0 -0.29918998,0.1334388 -0.29918998,0.29919 v 9.32332 c 0,0.165751 0.13343878,0.29919 0.29918998,0.29919 h 14.38862 c 0.165752,0 0.29919,-0.133439 0.29919,-0.29919 V 4.99549 c 0,-0.1657512 -0.133438,-0.29919 -0.29919,-0.29919 z" />
    </clipPath>
  </defs>
  <metadata
     id="metadata20">
    <rdf:RDF>
      <cc:Work
         rdf:about="">
        <dc:format>image/svg+xml</dc:format>
        <dc:type
           rdf:resource="http://purl.org/dc/dcmitype/StillImage" />
      </cc:Work>
    </rdf:RDF>
  </metadata>
  <g
     fill="#5e4aa6"
     stroke-width="0.26458"
     id="g30"
     transform="translate(0,1.5874687)">
    <circle
       cx="-330.35001"
       cy="-328.38"
       r="0"
       id="circle22" />
    <circle
       cx="-312.10999"
       cy="-326.25"
       r="0"
       id="circle24" />
    <circle
       cx="-306.01999"
       cy="-333.07001"
       r="0"
       id="circle26" />
    <circle
       cx="-308.84"
       cy="-326.01001"
       r="0"
       id="circle28" />
  </g>
  <g
     transform="translate(2.95e-4,1.5871389)"
     fill="#5e4aa6"
     stroke-width="0.26458"
     id="g42">
    <circle
       cx="-330.35001"
       cy="-328.38"
       r="0"
       id="circle32" />
    <circle
       cx="-312.10999"
       cy="-326.25"
       r="0"
       id="circle34" />
    <circle
       cx="-306.01999"
       cy="-333.07001"
       r="0"
       id="circle36" />
    <circle
       cx="-308.84"
       cy="-326.01001"
       r="0"
       id="circle38" />
    <circle
       cx="-328.79999"
       cy="-330.45001"
       r="0"
       id="circle40" />
  </g>
  <g
     transform="translate(2.95e-4,-3.297e-4)"
     id="g52"
     style="fill:#616161;fill-opacity:1">
    <g
       id="g44"
       clip-path="url(#clipPath46)"
       inkscape:path-effect="#path-effect51"
       style="fill:#616161;fill-opacity:1">
      <g
         transform="matrix(1,0,0,1.1,16.669,63.956)"
         fill="url(#linearGradient939)"
         stroke-width="0.66145"
         id="g46"
         style="fill:#616161;fill-opacity:1">
        <path
           d="m -8.2026,-51.317 h -7.9373 v -3.6379 c 0,-0.36531 0.29614,-0.66144 0.66144,-0.66144 h 5.6223 l 1.6536,1.3229 z"
           fill="url(#linearGradient939)"
           id="path44"
           style="fill:#616161;fill-opacity:1"
           inkscape:original-d="m -8.2026,-51.317 h -7.9373 v -3.6379 c 0,-0.36531 0.29614,-0.66144 0.66144,-0.66144 h 5.6223 l 1.6536,1.3229 z" />
      </g>
      <path
         x="0.52938998"
         y="4.2333002"
         width="15.874"
         height="10.848"
         ry="0.79373002"
         fill="url(#linearGradient1006)"
         id="rect48"
         style="fill:#616161;fill-opacity:1"
         sodipodi:type="rect"
         d="m 1.32312,4.2333002 h 14.28654 c 0.439726,0 0.79373,0.3540036 0.79373,0.79373 V 14.28757 c 0,0.439726 -0.354004,0.79373 -0.79373,0.79373 H 1.32312 c -0.43972643,0 -0.79373002,-0.354004 -0.79373002,-0.79373 V 5.0270302 c 0,-0.4397264 0.35400359,-0.79373 0.79373002,-0.79373 z" />
    </g>
  </g>
  <path
     d="M 15.742,4.2328997 H 8.4661 l -1.6536,1.4552 H 1.1902 c -0.36531,0 -0.66144,0.32575 -0.66144,0.72759 V 14.35299 c 0,0.40184 0.29614,0.72759 0.66144,0.72759 h 14.552 c 0.36531,0 0.66145,-0.32575 0.66145,-0.72759 V 4.9603897 c 0,-0.40184 -0.29614,-0.72759 -0.66145,-0.72759 z"
     fill="url(#linearGradient1064)"
     stroke-width="0.69373"
     id="path54"
     style="fill:#578376;fill-opacity:1" />
  <rect
     style="fill:#f5f7fa;stroke:#578376;stroke-width:0.442653;stroke-dasharray:none;stroke-opacity:1;fill-opacity:1"
     id="rect1597"
     width="7.5944591"
     height="7.297564"
     x="2.5527244"
     y="8.8776846"
     ry="0.78259724" />
  <g
     id="g1433"
     transform="matrix(0.20954588,0,0,0.20954588,-2.4943761e-4,4.677322)"
     style="fill:#616161">
    <path
       style="fill:#616161;stroke:none;stroke-width:0.0721587"
       d="m 23.453251,47.431389 c -2.37777,-0.17888 -4.398954,-1.211405 -5.731263,-2.927825 -0.399215,-0.514309 -0.83341,-1.358262 -1.071774,-2.083226 -0.191983,-0.583898 -0.206404,-0.713049 -0.206404,-1.848407 0,-1.135516 0.0144,-1.264428 0.206476,-1.848408 0.564994,-1.717778 1.766798,-3.148782 3.40097,-4.049582 0.796221,-0.438898 1.545079,-0.680293 2.822328,-0.909782 0.108341,-0.01947 0.18263,-0.09685 0.211913,-0.220727 0.275686,-1.166295 0.571108,-1.844833 1.163486,-2.672342 1.068537,-1.492665 2.790731,-2.554946 4.765628,-2.939527 1.017432,-0.198129 2.589499,-0.146894 3.545834,0.115562 1.306998,0.358692 2.239591,0.857892 3.200637,1.713241 1.040775,0.92631 1.713549,1.996606 2.047349,3.257071 l 0.1899,0.717078 0.267022,0.04131 c 1.70187,0.263254 3.059171,0.914643 4.264411,2.046559 1.404103,1.318681 2.091544,2.876862 2.091316,4.740261 -2.24e-4,1.858767 -0.639351,3.349533 -2.016997,4.704677 -1.265329,1.244663 -2.903425,1.967446 -4.849848,2.139915 -0.705653,0.06253 -13.503591,0.08414 -14.300984,0.02416 z m 7.728143,-5.884479 c 1.010866,-0.113925 2.101602,-0.472383 2.762047,-0.907718 0.18507,-0.12199 0.194078,-0.120514 0.479855,0.07858 0.355448,0.247641 0.514974,0.254355 0.75326,0.0317 0.268899,-0.251255 0.232147,-0.434512 -0.151795,-0.756877 -0.283758,-0.23825 -0.3424,-0.333231 -0.383208,-0.620675 -0.06029,-0.424673 -0.266428,-0.68328 -0.54465,-0.68328 -0.328508,0 -0.491371,0.227841 -0.491371,0.687414 v 0.39373 l -0.709166,0.331443 c -1.520223,0.710503 -3.120218,0.727706 -4.681975,0.05034 l -0.613598,-0.26613 0.04594,-0.459622 c 0.05313,-0.531639 -0.06822,-0.737175 -0.435264,-0.737175 -0.308843,0 -0.480829,0.201558 -0.541701,0.634839 -0.04603,0.327666 -0.09593,0.413601 -0.384333,0.661904 -0.396127,0.341048 -0.433579,0.57109 -0.129378,0.794674 0.219285,0.161173 0.480971,0.144854 0.70528,-0.04399 0.110738,-0.09322 0.195688,-0.07126 0.82114,0.21234 0.735203,0.333363 1.329832,0.502102 2.09871,0.595553 0.669403,0.08136 0.703689,0.08143 1.400212,0.003 z"
       id="path310" />
  </g>
</svg>
