<?xml version="1.0" encoding="UTF-8" standalone="no"?>
<svg
   width="22"
   height="22"
   viewBox="0 0 22 22"
   version="1.1"
   id="svg9"
   sodipodi:docname="megapaused.svg"
   inkscape:version="1.2.2 (1:1.2.2+202212051550+b0a8486541)"
   xmlns:inkscape="http://www.inkscape.org/namespaces/inkscape"
   xmlns:sodipodi="http://sodipodi.sourceforge.net/DTD/sodipodi-0.dtd"
   xmlns="http://www.w3.org/2000/svg"
   xmlns:svg="http://www.w3.org/2000/svg"
   xmlns:rdf="http://www.w3.org/1999/02/22-rdf-syntax-ns#"
   xmlns:x="adobe:ns:meta/">
  <sodipodi:namedview
     id="namedview11"
     pagecolor="#ffffff"
     bordercolor="#666666"
     borderopacity="1.0"
     inkscape:pageshadow="2"
     inkscape:pageopacity="0.0"
     inkscape:pagecheckerboard="0"
     showgrid="false"
     inkscape:zoom="23.227273"
     inkscape:cx="11.193738"
     inkscape:cy="11.086106"
     inkscape:window-width="1567"
     inkscape:window-height="738"
     inkscape:window-x="84"
     inkscape:window-y="47"
     inkscape:window-maximized="0"
     inkscape:current-layer="svg9"
     inkscape:showpageshadow="2"
     inkscape:deskcolor="#d1d1d1" />
  <metadata
     id="metadata2">
<?xpacket begin="﻿" id="W5M0MpCehiHzreSzNTczkc9d"?>    <x:xmpmeta
       x:xmptk="Adobe XMP Core 5.6-c138 79.159824, 2016/09/14-01:09:01        ">
      <rdf:RDF>
        <rdf:Description
           rdf:about="" />
      </rdf:RDF>
    </x:xmpmeta>
<?xpacket end="w"?>  </metadata>
  <defs
     id="defs4">
    <inkscape:path-effect
       effect="powerclip"
       id="path-effect100"
       is_visible="true"
       lpeversion="1"
       inverse="true"
       flatten="false"
       hide_clip="false"
       message="Use fill-rule evenodd on &lt;b&gt;fill and stroke&lt;/b&gt; dialog if no flatten result after convert clip to paths." />
    <clipPath
       clipPathUnits="userSpaceOnUse"
       id="clipPath96">
      <path
         style="display:none;opacity:0.85;fill:#ffffff;fill-rule:evenodd;stroke-width:2.01935"
         d="M 6.9707677,15.861879 H 4.9700902 V 5.6708879 h 2.0006775 z m 8.0027143,0 H 12.972803 V 5.6708879 h 2.000679 z"
         id="path98" />
      <path
         id="lpe_path-effect100"
         style="opacity:0.85;fill:#ffffff;fill-rule:evenodd;stroke-width:2.01935"
         class="powerclip"
         d="M -5,-4 H 25 V 26 H -5 Z M 6.9707677,15.861879 V 5.6708879 H 4.9700902 V 15.861879 Z m 8.0027143,0 V 5.6708879 H 12.972803 V 15.861879 Z" />
    </clipPath>
  </defs>
  <path
     style="fill:#578376;fill-opacity:1"
     id="circle6"
     clip-path="url(#clipPath96)"
     inkscape:path-effect="#path-effect100"
     sodipodi:type="arc"
     sodipodi:cx="10"
     sodipodi:cy="11"
     sodipodi:rx="10"
     sodipodi:ry="10"
     d="M 20,11 A 10,10 0 0 1 10,21 10,10 0 0 1 0,11 10,10 0 0 1 10,1 10,10 0 0 1 20,11 Z"
     transform="matrix(1.1021879,0,0,1.0922675,0,-1.0101155)" />
</svg>
