<?xml version="1.0" encoding="UTF-8" standalone="no"?>
<svg
   width="24"
   height="24"
   version="1.1"
   id="svg8"
   sodipodi:docname="emblem-urgent.svg"
   inkscape:version="1.2.1 (9c6d41e410, 2022-07-14)"
   xmlns:inkscape="http://www.inkscape.org/namespaces/inkscape"
   xmlns:sodipodi="http://sodipodi.sourceforge.net/DTD/sodipodi-0.dtd"
   xmlns="http://www.w3.org/2000/svg"
   xmlns:svg="http://www.w3.org/2000/svg"
   xmlns:rdf="http://www.w3.org/1999/02/22-rdf-syntax-ns#"
   xmlns:cc="http://creativecommons.org/ns#"
   xmlns:dc="http://purl.org/dc/elements/1.1/">
  <metadata
     id="metadata14">
    <rdf:RDF>
      <cc:Work
         rdf:about="">
        <dc:format>image/svg+xml</dc:format>
        <dc:type
           rdf:resource="http://purl.org/dc/dcmitype/StillImage" />
      </cc:Work>
    </rdf:RDF>
  </metadata>
  <defs
     id="defs12">
    <inkscape:path-effect
       effect="powerclip"
       id="path-effect166"
       is_visible="true"
       lpeversion="1"
       inverse="true"
       flatten="false"
       hide_clip="false"
       message="Use fill-rule evenodd on &lt;b&gt;fill and stroke&lt;/b&gt; dialog if no flatten result after convert clip to paths." />
    <clipPath
       clipPathUnits="userSpaceOnUse"
       id="clipPath162">
      <circle
         style="display:none;fill:#909295;stroke-width:1"
         cx="24"
         cy="24"
         r="20"
         id="circle164"
         d="M 44,24 A 20,20 0 0 1 24,44 20,20 0 0 1 4,24 20,20 0 0 1 24,4 20,20 0 0 1 44,24 Z" />
      <path
         id="lpe_path-effect166"
         style="fill:#909295;stroke-width:1"
         class="powerclip"
         d="M -5,-5 H 53 V 53 H -5 Z M 44,24 A 20,20 0 0 0 24,4 20,20 0 0 0 4,24 20,20 0 0 0 24,44 20,20 0 0 0 44,24 Z" />
    </clipPath>
  </defs>
  <sodipodi:namedview
     pagecolor="#f5f7fa"
     bordercolor="#666666"
     borderopacity="1"
     objecttolerance="10"
     gridtolerance="10"
     guidetolerance="10"
     inkscape:pageopacity="0"
     inkscape:pageshadow="2"
     inkscape:window-width="1543"
     inkscape:window-height="950"
     id="namedview10"
     showgrid="false"
     inkscape:zoom="24.306796"
     inkscape:cx="3.2295495"
     inkscape:cy="12.054242"
     inkscape:window-x="47"
     inkscape:window-y="47"
     inkscape:window-maximized="0"
     inkscape:current-layer="g6"
     inkscape:document-rotation="0"
     inkscape:pagecheckerboard="0"
     inkscape:showpageshadow="2"
     inkscape:deskcolor="#d1d1d1" />
  <g
     transform="scale(0.5)"
     id="g6">
    <path
       style="fill:#616161;stroke-width:1.2"
       id="circle2-6"
       clip-path="url(#clipPath162)"
       inkscape:path-effect="#path-effect166"
       sodipodi:type="arc"
       sodipodi:cx="24"
       sodipodi:cy="24"
       sodipodi:rx="24"
       sodipodi:ry="24"
       d="M 48,24 A 24,24 0 0 1 24,48 24,24 0 0 1 0,24 24,24 0 0 1 24,0 24,24 0 0 1 48,24 Z"
       transform="matrix(0.8,0,0,0.8,4.8,4.8)" />
    <circle
       style="opacity:1;fill:#f2f2f2;stroke-width:0.8"
       cx="24.012882"
       cy="24.005936"
       r="16"
       id="circle2-7" />
    <path
       style="fill:none;stroke:#616161;stroke-width:3.2;stroke-linecap:round;stroke-linejoin:round"
       d="M 24,14.4 V 24 l 4.8,4.8"
       id="path4" />
  </g>
</svg>
